<?xml version="1.0" encoding="UTF-8" standalone="no"?>
<svg
   xmlns:dc="http://purl.org/dc/elements/1.1/"
   xmlns:cc="http://creativecommons.org/ns#"
   xmlns:rdf="http://www.w3.org/1999/02/22-rdf-syntax-ns#"
   xmlns:svg="http://www.w3.org/2000/svg"
   xmlns="http://www.w3.org/2000/svg"
   xmlns:xlink="http://www.w3.org/1999/xlink"
   xmlns:sodipodi="http://sodipodi.sourceforge.net/DTD/sodipodi-0.dtd"
   xmlns:inkscape="http://www.inkscape.org/namespaces/inkscape"
   width="63mm"
   height="41mm"
   viewBox="0 0 63 41"
   version="1.1"
   id="svg8"
   inkscape:version="1.0.1 (1.0.1+r73)"
   sodipodi:docname="Water Gimbal.svg">
  <defs
     id="defs2">
    <clipPath
       id="clipPath39714-8-2"
       clipPathUnits="userSpaceOnUse">
      <path
         inkscape:connector-curvature="0"
         id="path39712-9-2"
         d="M 0,0 H 623.622 V 822.047 H 0 Z" />
    </clipPath>
  </defs>
  <sodipodi:namedview
     id="base"
     pagecolor="#ffffff"
     bordercolor="#666666"
     borderopacity="1.0"
     inkscape:pageopacity="0.0"
     inkscape:pageshadow="2"
     inkscape:zoom="2"
     inkscape:cx="91.599068"
     inkscape:cy="124.68336"
     inkscape:document-units="mm"
     inkscape:current-layer="layer3"
     showgrid="false"
     inkscape:window-width="1409"
     inkscape:window-height="761"
     inkscape:window-x="452"
     inkscape:window-y="361"
     inkscape:window-maximized="0"
     inkscape:snap-global="false"
     inkscape:document-rotation="0" />
  <metadata
     id="metadata5">
    <rdf:RDF>
      <cc:Work
         rdf:about="">
        <dc:format>image/svg+xml</dc:format>
        <dc:type
           rdf:resource="http://purl.org/dc/dcmitype/StillImage" />
        <dc:title />
      </cc:Work>
    </rdf:RDF>
  </metadata>
  <g
     inkscape:groupmode="layer"
     id="layer11"
     inkscape:label="fan"
     style="display:inline">
    <g
       style="display:inline;opacity:1"
       id="g10193"
       transform="matrix(0.71117561,0,0,0.71117561,81.838189,-144.14734)">
      <g
         transform="matrix(0.32337726,0,0,-0.32337726,-77.264702,402.63257)"
         id="g39708">
        <g
           clip-path="url(#clipPath39714-8-2)"
           id="g39710">
          <g
             transform="translate(132.0595,448.5068)"
             id="g39716">
            <path
               inkscape:connector-curvature="0"
               id="path39718"
               style="fill:#ea7b6a;fill-opacity:1;fill-rule:nonzero;stroke:none"
               d="m 0,0 c -0.102,0 -0.206,0.031 -0.297,0.094 l -20.182,13.954 c -0.247,0.171 -0.314,0.517 -0.149,0.773 0.164,0.257 0.497,0.326 0.746,0.156 L 0.299,1.022 C 0.545,0.851 0.612,0.505 0.448,0.248 0.344,0.087 0.174,0 0,0" />
          </g>
          <g
             transform="translate(131.4165,448.1714)"
             id="g39720">
            <path
               inkscape:connector-curvature="0"
               id="path39722"
               style="fill:#eb9e73;fill-opacity:1;fill-rule:nonzero;stroke:none"
               d="m 0,0 c -0.136,0 -0.273,0.054 -0.377,0.161 l -17.865,18.267 c -0.212,0.216 -0.214,0.569 -0.006,0.788 0.208,0.22 0.549,0.223 0.76,0.006 L 0.377,0.955 C 0.589,0.738 0.591,0.385 0.383,0.166 0.277,0.056 0.139,0 0,0" />
          </g>
          <g
             transform="translate(131.228,447.8388)"
             id="g39724">
            <path
               inkscape:connector-curvature="0"
               id="path39726"
               style="fill:#ea7b6a;fill-opacity:1;fill-rule:nonzero;stroke:none"
               d="M 0,0 C -0.189,0 -0.372,0.104 -0.471,0.287 L -12.68,23.118 c -0.144,0.269 -0.05,0.608 0.21,0.758 0.258,0.15 0.585,0.053 0.73,-0.217 L 0.47,0.829 C 0.613,0.559 0.52,0.219 0.261,0.07 0.178,0.022 0.088,0 0,0" />
          </g>
          <g
             transform="translate(130.5103,447.6104)"
             id="g39728">
            <path
               inkscape:connector-curvature="0"
               id="path39730"
               style="fill:#eb9e73;fill-opacity:1;fill-rule:nonzero;stroke:none"
               d="m 0,0 c -0.254,0 -0.48,0.187 -0.528,0.454 l -4.607,25.523 c -0.054,0.302 0.138,0.594 0.43,0.65 0.29,0.057 0.572,-0.142 0.627,-0.445 L 0.529,0.66 C 0.584,0.358 0.391,0.066 0.099,0.009 0.066,0.003 0.033,0 0,0" />
          </g>
          <g
             transform="translate(129.7683,447.6161)"
             id="g39732">
            <path
               inkscape:connector-curvature="0"
               id="path39734"
               style="fill:#ea7b6a;fill-opacity:1;fill-rule:nonzero;stroke:none"
               d="m 0,0 c -0.024,0 -0.047,0.002 -0.071,0.005 -0.294,0.04 -0.501,0.32 -0.462,0.626 L 2.742,26.31 c 0.039,0.305 0.307,0.523 0.604,0.479 0.294,-0.04 0.501,-0.321 0.462,-0.626 L 0.532,0.484 C 0.496,0.204 0.265,0 0,0" />
          </g>
          <g
             transform="translate(128.8683,447.727)"
             id="g39736">
            <path
               inkscape:connector-curvature="0"
               id="path39738"
               style="fill:#eb9e73;fill-opacity:1;fill-rule:nonzero;stroke:none"
               d="m 0,0 c -0.08,0 -0.161,0.018 -0.238,0.057 -0.266,0.137 -0.375,0.471 -0.243,0.747 l 10.865,22.862 c 0.131,0.276 0.455,0.39 0.719,0.254 0.267,-0.136 0.376,-0.47 0.244,-0.747 L 0.483,0.311 C 0.389,0.114 0.199,0 0,0" />
          </g>
          <g
             transform="translate(128.082,448.169)"
             id="g39740">
            <path
               inkscape:connector-curvature="0"
               id="path39742"
               style="fill:#ea7b6a;fill-opacity:1;fill-rule:nonzero;stroke:none"
               d="m 0,0 c -0.135,0 -0.27,0.053 -0.375,0.158 -0.213,0.215 -0.217,0.568 -0.01,0.79 l 17.477,18.581 c 0.208,0.221 0.548,0.225 0.761,0.011 0.212,-0.215 0.217,-0.569 0.009,-0.79 L 0.385,0.168 C 0.279,0.056 0.14,0 0,0" />
          </g>
          <g
             transform="translate(147.7795,464.2072)"
             id="g39744">
            <path
               inkscape:connector-curvature="0"
               id="path39746"
               style="fill:#f1e07b;fill-opacity:1;fill-rule:nonzero;stroke:none"
               d="m 0,0 -1.79,3.549 -3.06,1.82 -2.766,2.463 -3.628,0.874 -3.492,1.608 -3.805,-0.468 -3.335,0.306 -3.609,-1.527 -3.491,-0.936 -2.982,-2.564 -2.843,-1.892 -1.942,-3.195 -0.981,-1.71 11.23,-6.848 c 0.706,1.587 3.5,5.296 8.521,5.248 5.022,-0.048 7.968,-4.506 7.968,-4.506 l 11.129,7.323 z" />
          </g>
          <g
             transform="translate(131.0107,450.8491)"
             id="g39748">
            <path
               inkscape:connector-curvature="0"
               id="path39750"
               style="fill:#eb9e73;fill-opacity:1;fill-rule:nonzero;stroke:none"
               d="m 0,0 -0.007,0.005 3.867,2.288 0.001,10e-4 15.119,8.945 -1.087,1.665 c 0,0 -21.117,-13.875 -21.431,-14.16 -0.134,-0.122 -0.037,-0.409 0.256,-0.694 z" />
          </g>
          <g
             transform="translate(116.2252,469.6792)"
             id="g39752">
            <path
               inkscape:connector-curvature="0"
               id="path39754"
               style="fill:#eebb75;fill-opacity:1;fill-rule:nonzero;stroke:none"
               d="m 0,0 7.637,-10.748 c 0.35,0.277 0.735,0.542 1.156,0.783 L 2.554,2.196 Z" />
          </g>
          <g
             transform="translate(121.8327,456.6598)"
             id="g39756">
            <path
               inkscape:connector-curvature="0"
               id="path39758"
               style="fill:#eebb75;fill-opacity:1;fill-rule:nonzero;stroke:none"
               d="M 0,0 C 0.208,0.319 0.531,0.729 0.839,1.081 L -8.855,10.78 -10.132,8.678 Z" />
          </g>
          <g
             transform="translate(126.4222,460.3683)"
             id="g39760">
            <path
               inkscape:connector-curvature="0"
               id="path39762"
               style="fill:#eebb75;fill-opacity:1;fill-rule:nonzero;stroke:none"
               d="M 0,0 C 0.51,0.187 1.059,0.335 1.648,0.433 L -0.481,13.987 -0.519,13.99 -3.871,12.573 Z" />
          </g>
          <g
             transform="translate(129.4792,474.0832)"
             id="g39764">
            <path
               inkscape:connector-curvature="0"
               id="path39766"
               style="fill:#eebb75;fill-opacity:1;fill-rule:nonzero;stroke:none"
               d="m 0,0 v -13.152 c 0.108,0.002 0.217,0.004 0.328,0.004 0.498,-0.005 0.976,-0.055 1.432,-0.138 L 3.64,0.403 3.564,0.439 Z" />
          </g>
          <g
             transform="translate(134.2709,459.6484)"
             id="g39768">
            <path
               inkscape:connector-curvature="0"
               id="path39770"
               style="fill:#eebb75;fill-opacity:1;fill-rule:nonzero;stroke:none"
               d="M 0,0 5.885,12.392 2.264,13.266 2.237,13.278 -1.343,0.661 C -0.862,0.469 -0.414,0.244 0,0" />
          </g>
          <g
             transform="translate(135.3649,458.9088)"
             id="g39772">
            <path
               inkscape:connector-curvature="0"
               id="path39774"
               style="fill:#eebb75;fill-opacity:1;fill-rule:nonzero;stroke:none"
               d="m 0,0 c 0.545,-0.418 1.002,-0.844 1.367,-1.224 l 9.228,10.088 -2.907,1.73 z" />
          </g>
          <g
             transform="translate(137.775,456.4298)"
             id="g39776">
            <path
               inkscape:connector-curvature="0"
               id="path39778"
               style="fill:#eebb75;fill-opacity:1;fill-rule:nonzero;stroke:none"
               d="M 0,0 11.129,7.323 10.005,7.778 9.976,7.834 -0.359,0.479 C -0.123,0.186 0,0 0,0" />
          </g>
        </g>
      </g>
    </g>
  </g>
  <g
     inkscape:groupmode="layer"
     id="layer9"
     inkscape:label="border"
     style="display:inline"
     transform="translate(0,-22)">
    <path
       d="M 0.2432515,22.24229 V 62.757711 H 62.756748 V 22.24229 Z"
       style="display:inline;opacity:1;fill:none;stroke:#d3d2d2;stroke-width:0.484;stroke-linecap:butt;stroke-linejoin:miter;stroke-miterlimit:4;stroke-dasharray:none;stroke-opacity:1"
       id="path5049"
       inkscape:connector-curvature="0" />
    <path
       inkscape:connector-curvature="0"
       id="path1826-3"
       d="M 3.1092941,34.094801 H 59.890706"
       style="display:inline;opacity:1;fill:none;stroke:#d3d2d2;stroke-width:0.484;stroke-linecap:butt;stroke-linejoin:miter;stroke-miterlimit:4;stroke-dasharray:none;stroke-opacity:1" />
  </g>
  <g
     inkscape:groupmode="layer"
     id="layer3"
     inkscape:label="water"
     style="display:inline"
     transform="translate(0,-22)">
    <image
       y="24.488821"
       x="53.857277"
       id="image45471"
       xlink:href="data:image/png;base64,iVBORw0KGgoAAAANSUhEUgAAATYAAAE2CAYAAADrvL6pAAA6+UlEQVR42u2difdtVXHn8w902l4x ibHTnXQMDklEHDoQUaMSnGMcUFujQotoElFUJAgqIMosPGbxPZnnKQxKmB8CgiCDIIMMKoKAiDLo AwHRPn0/F8/yern3nF17157OqVqrVpbk/e69Z5+9v7uGb1X93n9Z6+ONqamp6ZD092wRTE1NDdhM TU1NDdhMTU1NDdhMTU1NDdhMTU1NDdhMTU0N2ExNTU0N2ExNTU0N2ExNTU0N2ExNTU11gM3ExMQk tRiwmZiYGLAZsJmYmBiwmZiYmAwd2O75yc9t1U1MTIYFbI//6te26iYmJuaKmgxL7vrRg82lV36/ ueiy7zZHnfzNqX7pyK83O+971lQ33/b45l+2PrbZ5KNHNK/95wOW6rs/fNj036H8Tfv36MHHXNqc eua10++4/c77mkcefdwW3oDNgM3ET356/0PNt2+8qzlz9Q1TsNpuj68279/y6OZV/2e/5q9f/vms PKWnPW+b5nn/sPMUFAFNftthJ1w2BVkLkRiwGbCZTOXm7/14ahUBEG/7wJebZ730s1UTNAG+F7/x C1PQ23HFfzYnffVbzQ23/MhetAGbAdsQhbjoN7/1g6kFtuVnT25e9uYVUxAYCyP9T1/4qeYfN/5i 86ldT2++cu51U1faxIDNpFIg2+tL5zdvft/KUYGYq/75335maqWyRldfd4dtGgM2k9LkgZ/9oll9 yc3NngedPw3I546F1agveNUu01jigYdd1Fx21W3NLx//lW0sAzaT1EKQn8C5WWRx9C//bvtptva4 065sHnr4UdtwBmwmsYRA+Mqjvt689yOHN3+x3nYGQIn0mS/5bPO+jx3ZHHLspdOEi4kBm0mgXHfT Xc0Xj7i4+efND2v+bBIXMqDJq8+YWHIbb3FEs+roS5rv3GoZVwM2E2eBjIqbSSbvvz37EwYohSrv hlAAtBIjEBuwmSyRC79xa7PtLqc3L3zNrgYclel6r99jSie54JJbbCMbsJnc+9M1zZEnXT7NZv7R c7c2kKhcnzKx4jbabNU0fHDrbffaBjdgG5dAEqUmkuybAcIw9Q//5t+nNbCUqJkYsA1a2ORYZ0OP nfF88OmkOlTqCrE4c1MN2AYJaO/810OqOYiADHWXFJzD59r686dOLUzKsujmQWkSnTeocKD7Bvrg hCisLXwuFAu+i+/ku6kWoBa0Lc6vqcaVNYUbZ+2/DNgM0JQtqXVft/u0nAiw2ufLF0wPGsABgMQA pxQCUPD7z73oO9OWRzwboFeqBUgIgrWvdb0N2AzQssd56HYBfYTfNEZLAWIz4F0i2FGgD8AZXcSA zQBNoBxka93zZOsOCxXX+pVv26eIeCeuP262uagGbEUJtZtkwEqvf8QNbeNm9GFrXVGaNY61JpLn Jn5HS6fc8TpicLjTBmwGbNlvf2I6uBRDyGRiweCycdDHGv8B5FmDnCDH5TNmS9uALfMB4IYdMm3j ha/edZqBHGvxdwtyf56hTpeLBqt6jPE3A7YMcuW1tzcf3+Hk5o/X/uRoyKZ/8FdbTRn1Bxx6YXPj CC2JO+68f9pZ5S2brsxivR1zyhUGbAZs8dzOAw67cBBuZ2imlQQJA1/GKHD3yDSnTjrwnWMZWmPA lki+94OfTGcFWKnQk13VsWbzABncVIA+JT2EmK4BmwFbmJX2+K+n7aKfv+EuBmQdStJhxarVzXcn F8AYQxPb7Hxa88z1d0i23h/Y6pjm8onlaMBmwCYWsoLUdRpwySwK+GFjzKhi1UOjSeWiktBgfKIB mwGbs0DgrH3OpjHq8wEcRe+p1howHdpFYsAWIUFAit061+ook9vpMDtGgQuYamIY38NlbMBmwGYJ gsQxODhhYxMsVniAKS5KvoPvGkIix4BNSSgrKrUTBLEUaj7pyIHbgRLHmm0jtEhxBbE++ffMT4BM nNu9JmY5xknsEJwpZ0vV+40SPwO2EQPbDTff3Xx0u5OKALC1N9ipefOEAPqJHf9j2lr6nAu/03zv dv0s48/WPDLJ5N3RHHfqlc3nVpw5Hef34n/8woS2kKY1+Xpv2GMKyGMbSnzLBNw+8ukTkqzx6959 YHPG+dcbsI0R2HCNck5NJ8BOs0SsxRKIlwSgybJRzJ9iXbBAx2i97X7AuUlcUzwQ9pYB24iALdXm mlfcEeIggGrpsRDcJyotKOmJCe64zWMTLpBU+4+uJbXF3QzYhEKLmtTcNBISsMVrtk5o0Q0gx4rR Yb3VHhcqGdy4nGqihBiwCQ9nqm4clNkQtL/6ujsGtYbc/PQLi9FME9Ac2nr1CRdeyvI3zoAB24CA 7YTTr2pe+qa9om+e17xr/2bFytWj6KV13sU3NR+axOOevo5eNvk5L9ux2e+QrzW//vX/Gw247XHg uc3vPzMNuG3w9n2aM8673oBtCEIGLrbJjwUz1s6nMdqhY+2OqWqB501luZFUKH0UoAFbj9tE4DR2 7GKMxNNlAAcRV7NNdi2uk0bsNxXPrSXzlpy0MWBbItz2MZMExCsomTF58mUCMViL7Aw5OcXFQWAd YOadkgluCdDzSkyMEjHKlwg3aGYb+byULZBQ2AEGbBXdfjD1Yw1EsWlC/YKlRbWDluukCW68O5pF AmC40CGNQ7F8sCxpAskgZ8AxRLgUUlOQ6ClnwFa4QHTFmorBt2Lj2vxHmTDPVMN64zNCYphtNhdC dOzSOUqaQn5rTN5gLeBmwDYjEEpj8KzGypDXdLHo8qERF5L2H6Oxwad2PT1LjSyWnA/zH6svRyVM SeBmwPYbwVXRnkUwVlZ8rBgWF0QqcOP7aACQOmaldTHi2o4Z3AzYfgNq2u6FWWlxRKOUrQvc2jmv xEJL6tDC/oR2JLE0c/UELAHcRg9s2qBmVlp8If4U+s4WgRslWVoJi1jK7yO55SIpuW3zivtuwDYQ UDMrLe27Cx1CDLi1XWMpxaqllTsZexdww2rL6UqTNTZgqxjUOCBk70zSJ3tCXUb2QI2t3F3BDbfQ t4tMjmSNAVshoMbB+uaAx5iVLvDdYtBzNHmLsXrTuYAb9CUf0IZovMV2JxbHITRgi3jLz26ssUzW LllicQ+lw1AAAuKruLcA7iISNnG8M1ffMG3hBF8t1FWEs9ZH9vbJJmPp8bka1TeEDDh3BmwRD4AW qNXYfM/ATZ+GQQY1pB4ViwuuWgiVBZDsEkq4fDh07e/TqMKBh+ia9DBgEwg3pcbG54a1rGeZQrA8 Nk0Dt45sY2jp0yLhM33mic4mQRYJ1S5SjiZW1uyloeFOw60zYFMUrVuHlxtjQ5vohhpilTzhaqbI ehPfkj4Dl3aXB+ETL5sHXY11xcI1YFMQXrbGVG2AcWytp2sVbRoPVmDqYcKUkUmtJGqRu9ZE+tzz 8WMfl3ZRMiFFE9XBAxtEQY2i5JTxAZNwgWagxfhPHfiedQElngbuZtdcAmm97aLnJp6nMZAo9nka NLARC9OIC1iSoE7RuNRSxoWWeRySCoIuq026HousVC0PiOSbAZuHwC0LTaWX2GfKRAYKoS18AJUS xNVyw21e1hqL2F0osLWWZGiShoRHTP7nIIHtsqtumw6d8F30P3ru1s1uB5wzqoEgQxUOzys38t8L m3/qhCKe47yLbmqe7Vjydeypi1sd3TiJbUnIuudcuLwn3LGnXNE8/fnbBoHb2z94cHNfpLj14ICN W5o5nFYeZdIKlodvyRQE1VKE1uIuv5lmmMtEkpCASBzb1Y9VTzo4YAtZbFzXXLVtJmXuCwLdpQgu pgsXk4THMncU0HN99j6+ZqgR0SY8YlTvDArYGAlWW02bSRohC+fTvYPLzjd5RFaRYD5xOnhkzCMI 5cG50jaW8S3p6aYFbAik6FBqTYwEzWCADY6Zb9sZA7VxiDR43gcSXZbMMloELjEDYEKsFBerbZnn IWkb7lphA3iHuqTac0oHA2y+A3cN1MYlPvtE0rnW1d0jq+hbY+rSimjZWDy+UxvYAPLQNkd9lROj BDbKNAzUTFwEV1BKA5K4SiQqnDOu2x7v9QwE9X1/MwRe199HpYG2i6wBpKMANjaqzxAWA7XxirT5 IplEV5FMssdq840X9n02Qf3QQy8tIwOoQ4CNUJLWeMrqgc1nGg8bKleZzJgE14LgMjMKuI3R2Snp uHjEvYj7pKzDJb4ltdpcYmIAjpRWEuvgtm2HQg69lEDLOwxt165F/6ga2HyyoAZqcQQXBxeJNtsM HPGZA8q7IT5Ff7LYDTylVpsLt9HHHfO9MFx6xS0TV1D3iQGyTqFNKbvqXQcPbJis0sOjBWp8N5YI pjqHGUuEVD5WCOY46f1F2loqKIeXG7HWjiGsATEYaAwa/fGXTWSK1VVDarWRdNA+1LhePuKS2eS9 LBNXkq4vNSW0RRjnY7TARtZHGlPz6aUGgOEu8X2w0GN0aSVGSEwEt5qXiuumFWvQdi2xkrGqYvU8 W9b+OgbASay2LtJrK9KmC8TjfMTle5ZlRRHXOk9fuUFYuhWDtFslsEnHirkmCji4HCDcKTZdysO7 iBiKxQJHKHdzSzYZIJB7PB3WsGa7GywSyQHkwgnNVmo0WXChrCzLMLpmRX0TG61whnI2oKgS2CRt U/pGgLG5cSGwxnICmWv8qe9wacfNIJrmnE25qMRJs1GhZC91uXeIhOrhS0rFanTZp1z+i4Twh2sP whDhAgppJ97XW25wwCZtIMjNsSjIy3+PFRuKrbjDZBQ1gqzLLFeyU6EZrljKwdbiPEm6wvbFxLgk Jc/hE5x3cUO7XFxXd1ljkrtvpYdGhrQqYOO2krpDHFIAgEXGlYk97CP1Aadhn6YFg9vrk9HMoRpd WKSDTvpifZIYrBTYXPd/11wB12YAJLc0JKQfHhafbzVCVcAGgg8FlLQVVzpkDByCm1uyOx5r0rhk 0ElftYDks6RhBZe4FWGDrky765g/rbju1dfdEfSOfd9vNcDGbTUkayuWBUeyweeWw/oJyWTlBLfQ AmpJbAz3vGt9JaGSLq6Z7+f2lX+5WHyAo2ZW3reOOyRzXA2waXQQGIviDknoERoDOpYFgHEnFqlP GZw2lUcakHdpwEjYQ3JBdNEyZrOtLr+Pi7/LWnNNHLhw9lLSP3xaiFcBbGwWzYMwFiWL2kcAJkan 8V1YMlggxHCwLpZl5eZpJBxayM0QmEOyaCSCQqwMSXa0q0OtzyWMlbWIOE4yQtIgs8+1dXWTteJr syIZSKPRxbgKYHNtiWy6OJO3zFULtYJxWdiwmkM5SPL4BpxDuE+SteiLY+Gq+rDvqe8E5ABOXDCJ ldP37K7GAd8ZI9vORedrtfF30gqd4oHNrDUd5eaftWhC5m5iHcWkm7RBZw659DD48vykQW6szD5r NEaVyrJh3n3WqqtxACk8loRYbVLqR/HAZtaanmIREO/AwvLJfuJupp4JQaxQQvHpizN1ieQCdWll BLjF5kqSpe1LFvE7XN93zEFG7D3f5+xqw1QdsJVorbFBuImJybCpZgvbUW7ytkVPq/w3LCYsENws DkWuDCRulA/xlps8tF9/yD4gzhJ7GK/Ufeyb4tQy8ENnm4ZOU3Md4NI1k1RLXOkmrpPpqwS2WNk6 KZCxMXC9yLxpti/GsuAzsYIAPg5WSeVLLRDGGpEmFS4I10PvkryYF2mjRFe6BnuGS0/rMsN6cY1r SiorUrxnadnZrIIH1QMbN0eukh42IBYZ2aHUXTbaDhpksHIXnbMOsdoGxSZp92UutZIpEpoJYITl 6QNwbaKGWKAkYO/qgqaw1lohJOKbCKse2KQtYLQKrDVGpGkKIBdivudgfccW17irtNTMJ6Hiw/li fwHQgNyyy4uyNtx/rEifRI00eZHSKpdYkb7tyosFttBBrJKAOKny3K2B+oT4QkhWyYcDV7K4cLKk sTbJaLpZ1ZidQTlcq6FCXE+StAAAU3omId6Y6wCcIoEttL7M1c0irhWTshBDcGd8TXlJXLEkq3XZ 4e0j9JJ4khxYlyEpy2JemrHXEMFSkwyU4Rxo8hBdRUI8lpS0FQ1ssS0TXACf4HIpwoslHhQrs+o7 Fi61uLTFkbY3ytnOWuPSk9ZTL2rrlUJCqB8uFnJxwEamMFZmEEuntGB4iEBGjUGH0Z7KHVP6Cqyh WkgkZO/5NiDQuOiIDUsvOs5DTktTYllKwbg4YHNN6Uu7z2oOYy0t9qbNcC/FrdK4+TnsknbiIfWq OS5PrBcfEnAJ09p8E4Q8b3XAFrqxFsU/Yo9yyy3ECcmgafHWapO+mCMua+r9Ryab7411SbQlZ74X fQkjKLlwfC3kviRLUcAmHYbhsrk0h3+UHneTzsoMnXouCWjj3kJb4JbWyPzNSh+3rW9WwaxoVwkQ 7CY7S9ggNFFFQof183Xh2sSQhAsXW3wv5K4uwcUBW0hDukWp/ppcKi2RjiWM2d2hi3GP+6xBk2iB syu+1DUVPTawLXKjAFpCLlh0UExmqR6tkgiAV8e/wzLTsCSx1LTWXEsAKJ9n6Rs2UwywhZil8wez r/PC0MW1NjAmMdfFPeZdEXDXkK6DT4KlFGDL2QBB21LWEOkAnNmQSZc3VgywUb6kwb+SxFOGKnC3 QqZxa9A9JHW+fW6Fi/QRul07fgwR2PCESg7J+JLxu1pUFQNsGm5oypmbpQvuma/7IqnJWyRYBhLr G4vKt9WQKyC5xpVC4lclzsCowXvxHa7cRfsoAtg03NBcRMOSBSqE79SpkBIzaZcMaYB/kfSRul0p GNpZ+VxK4qxE13ORYJBoD3opAthC3VBu6zEmClw3jU+FgqRFzLz41AG6cJO6pM/1dgW2msYPLiue L7V5QZdh49vxZFnJXBHAFuKGkukZOk8th6nPAfERStVy8Of6AMkF2Eh41JwcoGtGrRe8b/3zsvea HdhC3FCNmZJjEA6sz0xWH3c0pJGgb/2uS92hC80hpH4xVxNQjIIhnAHfaWnLsurZgS3EDXWZyWjy hPiUr/i4oyHA5hvXc3k2l+SE74AbmioQDknR/bgFM85N7EwnMToqFHinsA1YZ0jWbRt84qLENhcp /7/230Gg5u+5OJb9Zj5Xk8+WHdh83VBiKiYykabVfdxRX2DDlfRxo/gbfmcf+z9W0oPvbn838R6e n8MM2OFehYIdsce2NT2ZXa2+aVjxkIABSH4vzw5I8H2x54zgPfBdVMrwXICeb2aUfVMcsLEhfIO1 Q+rSkUpwx2JbUVhGvgkgH3FpmtDHUg/JiLp0nsXyYb8SA8PqmR8ANGvZYDUCOJr98LC6ADDcPTKJ uVrux9JFezQrsPECU4ziMvmtSKsSfNxRn3ieD10HEHWxLlxCFj7dc1POCZAIyTQmWGE1jmEm76Jp XVmBzXcSuVUX+AuWgMQ98iHr+sxo8GnU6BrGcElK+ASvS5ne1VrjXEKpWuqXpLi0RQGbT2W/pKDZ ZLFIu4BIC6d9AsHSRJDrM3SROFvB6pJaNrmtNaxV3Ess8KG5lhphjGzAxqbwCayatRYuWDASQuSi G7EvMC19t66DV4jLSoL8LnWouDI1WGs8O/sfSzXXwO0SdVFyKBuw+WTPZjNQuYXfQfqaW5ODj/VJ 8HnRlHf+G9kmgti4XFQD5C5KlmSjsU6k6y5tguhSeUBMVlLLyWf2/W6XrGpua419xvATn9jlWHSe pJ8N2FxnQ4YM5ohh/vMbAAUNzhKUFayFHCAnvVikJFCfxNAid5S1IVPoU5zu4kL78Ps0upG47DVc +jHGzHyUJrVFAJu0rU5XXVhsywzwwSKLZf5DecG9Sj05S9IrH9Jl7Fhea2W1JE8sXN8LxKX1ko+1 FnvUHhcO2cwUZN8h6XwXkyzAdsdd9zf/a93tRF+6yRZHJAe1Y065onnjxgcleznPfumOzQ57ntHc 9N17kjzfipWrnX/bOhvuPH1vEvnBD+9r3vS+LyXf5Jt+/Cin37rzvmeLPvdP1tmmOfUs/QLzNQ89 Ot1r7/y3QwykPHX+4s0CbD5tSlKY/7PBdayFXC+JWEqKJAnujsQKhWAqFdjyKTtmYPG5uPbw1qQW uPa8VSw/XGGfKVOm3WyJLMDmw19LNZk85iBiH35O7GSJJIkAP81HALcUgW/mKLh0emFNpd0kNJph zjICyKrCETRQ0tH59u9ZgI0YQspeXS7CgchppeUaHygZpgHg+/4WynpighsA7TqEpq8pZSyPAWAk aTaGaoAcOvv+swDby98qy/TsuNd/RgW14069snnFRnsX+8Le8+HDm+/dHiexcPnVsuzlXiv9h69c c8Odzcd3OLl5qmJgHKuHWKFrYmmnfeTZ+Ld/8ODm/gce9n7un9y3ptn34Auav3vDHgZAEfWKa27P B2zEP2Kk7X2lbyZlSQM5YrmlEktKw3qGOhLaghvrEctLkkn2HfUGdSXkWUuIoWEltjzLVskIw9rv UxgM8387q6V0HZ6lfCQHNuItoaziEkCNl03hNgF1AtGLLAbcNsiVbG6+C3AKcUNc2fkx42yhB302 zsVGlFIbOEj0+pJSY/gun9ip7ywGOnpIQy5aiSfI0XDgSNJ19UCLKfMzUqGxQGaf7enGxcQ50gJG PjcbsElvTWrhYohvu2ySC6GJDICQgmUfkNOawxkC8KGDVxbFnsgC82xkHltLgZhn27QwZII8B8vn 8EAKlnIn+fe825Q8NBIhkJuJY9YqGDyAXQjIUZ2RDdikXRRijA+TghqAxsHSdgXb7JiUJMrNpynS lj1sPq1p8bGFZ/NJWhC7kyZKsN5TZTrZM4BZalJ3CoDzZSVgqWYDNmlpjDafS1JC004qj0254POx ZF1vK/6ddqZUaj3Omv2lCheAjwXA30gabGJJphi0zO/Cgo0Zcy5BfLLW851ckgObdKNpmte4JK4u ArGc1BuIeIhroNmnxKlLpFZjSQ0JFl0Ukkn0IZcpAB87eA5ociGXPM1dU4hJ+6wTZzYLsPmMZtM6 PFg4ri6JK9EzhrB5XTtjaATxW/GxOEq02nCRQ/iIrn3hiLPG5D1yAfskSYYgnHmfGCUeVhZgkyKx 72zLReJadJ8T1GaFTa3Vyz8WsOG+lhRrw7rn/fmCiWuiCuspFsmWyxdw1apyqFV854xmATZpQz+t g+s64s8nYBzz1nIBGy1XXToLIQW/TrJWxEJDXEIuvr4MKFaaT9tz18wmgFniDIUcIu3n12qbOU8K bNIebBq8LVw710zVfE+n3ALI9v12LW6bb8C2vYByxX/wAkKstDaG1ff7Y1lpeCXWFfrJ4hsjbS/6 pMAmPTwaMRzXBYpFfg2VvvQ3VorGLQ8HKOSAkpEi+ZHKQoNaodGEEUu1y+IE8Hxn3/YFumNQiIYi Pu3aZ8dyJgU26fAWmNMh4jqRqbRYkdRNlHa31bwh54O3/FbAOEZShU66EHi1uGJ9I/8Aamm22CWG BnfRXM5+SzykrCopsEk3SWhGyNX1LWmM2iLpI9DOMq5TxzS6YkaAJZQZH6uEi4bNTeyMC1GTyQ8A 93Xr8OXAdX0n78kAzU18GBSz4wOSApt0c4a6Ky43e6lDb+elyx0ixhQqMXvrYxFTN0loAVehrSHE ImonpAM0ACHPGZO9D1h1xbTYNz4zRvtaT0kIvyZPvIeQFuHJgI1AuHQDhggmaaxJ5zkEy8e1F5WP jKFHGJdYF/eP0IXP0JiuPcxBszian/hccO3g7WTAJu3qMcsi9hHXtLwmyTX2DdZl8YY8B5ypoYMa FmNX8wLcXs1GmGSKfYv2TZ4Q6cCnLMCG+e9b96UNArO8tZqky10M6fDqMyqvFuUd99EpNNvBY6Wl nM8xZPHhViYHNun8RgLGsYLti7oBaAsWKgxyLAV4UlBdyMIRU/J1TbrG2Umntc8HyocIasTKulx0 bSoHCZNUlJcxiE9rseTAJh3gElLk7drzLUZLJKyfvooBLC8fSkQXtydkvXw2UMlKMqXPNSfmq5kw AUQt46krJJuk76GNmScDNmnVQchBheuUgie3yPJxzfxKW+P0Wb0hDTlLHGLjWzjOPuuziGGnh7Ym n+3wbJUDccQ1AbgIN5IBm5QAGgJsrgW0msFdaQzRpxa2y2LDSkyVESUx4xPYjZntBNBcCscJBWjx 01jzVGMhxyjSBqhZgE1aThVS4uR6G2tVG+DWcHP7BJol8bYuq9c3JulDhATE+d1dMb9ULbEJO7i6 gFjUWkkCyLZG44grPtn64oGtDQLGBDYtCamzlFiNXcDma+FKEwe4e7NAggWkXXbUZ52x3lI3XhoK 6bqMtFuz1y5c7LPDW+a1Hebio8UDmzT7FBvYZpvShYpv7ygpsHXV2vqWVUmtLt7jvGC5UMeJe6pl Ec0nWwhl+GSU+fchnUvmuZVjqiDAoyHJRWUIGX7WEfebLs+sRYx3HarJgU3ayLAWiw3KQMgLdgU2 Yjld3+M7vUoKymzyLsGaA4A4CMTiyFBK1gfrD/Dk/ePyhjRc5N1IGy90ufpDbv7Ie4Ok3L43n9CK AVtkYHMtxdBoKuljLvu0Pu8bkde2a5EI2UGpG+ZLaQCYl7kb/A7tIDyfF9qnbejxNDh3ABlnM+W4 wJianMcmjcOksNg0us9K+Xm+xetdWUhpEqIVKX8NGk0NwnvVKI8aWjyNSwkKBW3nU40JHDywSXlD IcDmSkXQ4LH5kAhnaRMuwu/U+BxfyzbEKqwV1PiMIYy5w32GJgS1aChWWVHA9oJXydyCz+z+Fe+X uemWRzl9xx4Hnhu8cU44/SqVydXL5PJJRqmPIb//ofJ+cqeeda3ot771/auaRx8rm1n/lXOua17y pr3CC9g3Xdlc+I1bqwWze3+6pjn+tKuaD/77Mc1a6+8weDD73a7bF6cFtr91nJep0TzRlX6xyUeP DN5E5118k/dLWHX0JZ2fff+DDzuB9GVX3Sb+3Vt85kTRb+XWL1lOPuNbzbqv3z34YFDBcf1Nd1cJ aOd//ebm07udHpSlr12POPHy4cbY+gLts+5GqJDV9M2K9rl2Ltwrn0leJE0kbknJw5ERXEaNagIy arUlCfi9xAFjNgqtSZN30JVmRUMC1VASUrUfR3w7RHR9NwX6LsFtn7IwaYfYdrOUKPDnNEDNdVBy SYkALnCtmtehaDv/o1hgC6kV7es2q72hffuZzfftgnfF7eu6Vj6zGgBTiYUJGbNUKwZQCyWJYrn2 cfNKEqxtLPkxdDyuYkqVFNhCeqVJasw05gVIMrHz1Q/EQ1gbGmtKDin/3gdwpCx8jQlYpYJaTZlP qgCg54whsxmibT+8YoEtpFsFIok5aJTJcJNqEUJdYl4+LrTUWvOlkcQW1xhq34WmwWNMEUMjcaPZ tnzI2hK9BwtsuJiu3xXSfXYeOGJvQCw134oJ1zkQrTWpEX8sEdRC1jClYC2v+7rdiwENrEUuVc4m 2WMsSHicxGBnlbOHu4xS44uXQEkal0lsF7qVYoENFy1EJL2ceGFaLYxiDNmdLUAnDucjrl2FNWeV lghqZJF91zCVYEnmbv4JeZuLEGCiZlfzkmP9eUY+l8odwk4AuEZoITmwSV8UyB4qkoyRZlaMjBUv TOt2aqeH+wbx2ZSSzCEF0FpAryUhraFqoXPw28iG54ijscdYHyyuXNO12kJ8PCifszMbLy+2H5tG I0hJS54Yg5Nxd3hu35uoBbSQ38VhkXKcSqN3aDS0xG0q3UrTnGnqoiS82F8lxhp9mrfOhq+KbQ0+ m+EIiVGUwGXC9CaLR/FxlxXZZknh8BEw1gBa6br7EH5LBzUfWsxQrbQWzGpoaS41hmbnfiQDNhfC 6bzSiSB000jiXZi/KYLKbCrcw9nWPTT007YYiWFIrEVfwm+sAx8Kajx7yRy1VFYa8TIs1toGOIeM Eyh2rqjWTSv93pBZCyWJT5lRKZYNoMY81tCWQ9pTyDQFIrbWUJlloE7wH+Og1l5y0j0wW4aZDNik bmHoSDlfq40NUSopVWIJSOMTvoTfEkGtZOItzyctaZNSMrB0hzA9S2rNzvbOSwZsuFrSLyIFrCF9 /cwWme61toHGlZb2WcNyKCGATCxSSgtaNJegVOIt7ybW2ELCKFgspWWzQ0R6Oc8OyU4GbPj3Pua0 VtwJrkzNQXTXg+NT/VBCFlSjcoPES6nEWw5dDPI2gEbSa0iAhvA80rWYNUaSAZvvl82icGjAXsqN KTmbNi9kkH06PZCpLeG3hx56LL1Sibew82NMdCJ7PtQBM1IPb573mhTYfEh3ZFO1RNLOqLUYaxi3 hqvtE4iG35Y7rkY8MzSIjjVeYoCc3wT4xBhHqHXhlyrSpB9rkg3YfCyKRXMsQ0QauMWSKLlY2tca IH6RO8DM5g21ZLTqfGPEC7XLonhn8BvHMIFeWmlCwikbsPm8aN8JTF23qJSJD7iVdkMSgyBr7EuF yJ011JjMXmqogAtDs3gd8CdkMLQ4WpdIsWK+siQpsPmmubWnIxFglhaqAwal0EDgJvmOT+OQUAWR 05LxBeRSnqFLCF1oJgnIohJvGptIM6LzMzmSApvvqLqQbrrLxGdMW+4DRaA4FBRyzsmk2iLUkmHD l8pR48LRIt3ynEOaaSq1eKXrNb8nkgKb79R0zbZCs4J7Kd2IgBtAm5JW0Pa3l95iJbluJDhCu51g ZZca76QtlFbmk7jyULOdrhdECNUjObABBr4vmzZAMcSXXwQgwh/Sru+cj6Px3BquTU5Q04inldwc UqOlUntp1kQxiiXseSmhfl6SAhvie2vz0mPFGkKmh7OoZPc0AQ4ys9bADgA4l/sMMEu69nZlvErl qGl0Hyk1QZVLpCV1i1rYJwe2kG4G0EVimeihzHcABBeCuIjUbW4b7HHza85NyHlY+F6NTsIAR6kc NWk1SxcHq4ZW5alEegZozZUd2EIJizx0rF78bC6NNjJYl/R4JxbHouNeYNURY4QkDOkYEONgkPWK 0eWB8qIcbWoAaZ4tNN7E38+PJywJ1EIL9WfJxaW3Kk8prIV0DWnPlR3YVqxcHbwZXv7WvZvTzv52 lIX9yX1rml33P6dZa/0dqpzS84z1tm8+v/eZzd33pCffssHesulKBVDesznu1DIzgt+97d7mA1sd E/yMf7LONs0u+53dPPyLxwzNZmT1JTeL1/Lb37krP7Cdeta1Kgd47Q12ag468uJoC3zGederHNKU CqnxK+dcl3wz3jUBUcD0GQpJDtb8gkvLbBt1/c13NxtvEe5+4qIffOylhmIL5KAjLhav5S9/+av8 wObT5aOvMWSsGIyWWxVb25Y1MTO0ywRCKm6vxnMQBC7VLSNMoVFNYEmCbqHCQrKehHwWSXJgQ3xZ 811UgJh1j8T0QoayxGwqSClJjlIbDjrxUq01IRZZag2k1jDsmPHhoYi03HHZmMgswKYVeJ2/CbVL r0oFOIi6ZAtzZNKwqLAOtYaPkDgpfS6BxkVMksgyn/0iTaQtozJlATaNwbfLMmkgeGyXDIDDwog1 GHmZdUYGLVcPe76TLKVmHSSuXegkstigpvG8IYOuxyTsBenaLsv8ZwE2YgwxQQCTP1U9ITGmWCDH wSfmgEWT82CQ7dTk19VAc/AZhpM6Bjw0wfqS8lqXSRZgw6JKMUeRTZXy8HDD83IAOm5p1/5zuJaA GIFQYmYASe4WNbwjLDRtwMaqphlCyaIFarHKAGsT4t+EieBy4q0RyiA+S0iKzsdcmj6WcVdzjCzA hqSaeg24LCLwpRIACnO5VaxVXjL/t8Q5j1R2sPFi9OfnXZTegoeLSSOGOqaaT/YM75W1A8zxMqAe cSnGjEd3EbizAZtWjZ2EiV/ynMkS4klYuLEsaW7o0uNMuPwaFRMlJ0M0hAuZ0kEATDtEIdGuTi/Z gA1meY7FeM/E/IUkbDIJ1k4Ip/sfemGz0Warmqf+dRxAe+mb9npSE8ASZe9Vq5v//vxtAy3SzzWH HX/ZoPYIIYnLrr6tWXnU15sPTS6nl/zTnkVQnV702t2aRx97vDxg82kmp6nEszCdxxbYZaNiURAD jE1bgXBbA8VB2ian1HbrmoJriQUfIySh1bOuS7IBG5KSLtHFfyNgP4TJ2csEFxCaCO5gjIL7RZUQ JcwqdRGNkEjJXX2lQX5AXnNeQyzti2FmBbbUcba+2AgWBm7TEIiUcILYpGSdUhKKyXTVsH5Yrhpt h0qfYuayDsTLCPaXXjr4O4XvPWMxswIbPchKXTiytmQHaxmkAZjgYpICz+E+wM7PmX2WrhWVABrF 7LWCGiRzgv8pLPgYlTd9khXYuC1qWFgWkhuNqgZuN6yh3LE5DhTuHkCWMzPVVnvUMhqOddMIgbDm NVr2pdY9S5SBRkUDGxKjbjRViRMFu7iv3HxYdwANVijAR0rcd+O33LeW84Z7TByQtYK2UsplQAC3 pqJu1lKj3XqNdZ9DALRWXeg02YFNOsq+ZsVFhKS6TEOnUKXkBMZuOKAtWNoahxpQq6nuc0iA1noI Lt5BdmCDtTwWYKtdceG4iGqjyGhMySp9qMzQAa1VkmEukh3YkNo61Y5NX/7WFc1+B38tS7vxEPnh 3Q9MuVgaa7DNzqdVMeuTGOL2k7DFX754+0HuRdf62yKAjfmcElNUI05i6sZHY/BMjs68oQIIaWQ+ USy+WtztUgm1KcqoigM2OClSHxtCJDw47W68pk9QN7gZa8l0LtpPGpnPGjqRtJxFLRAPWSuIvbjr uMBcBrPT2VptC+V9SMC8U1cpAtgQCWVhlnVMvIfFokTKQCm8zAwuWs1lZhwkjUJ+PiPXoGlX4T0B IKnjaFjyABjfzRr50J/gh/q0IasO2CT1epjbi4K4lITg1pZQqlWLQh1hw9TMnm85kVgKWrzF0kuk NIfouPL2oBxhdWlcfLQckv4GqFTVARu8IMnN0xf3YGOmqo2sUdmouFm1upvzGUCtQ176wJVUVlo7 9Js9EmM9yG5KwyMSKQbYEMiuEnPYhSTZdrOorRYuVtNNyMSSm690wXXWurzYIyXTObCqY1tpWKux m0LwHD5TzKoFNjap5LM5pBLhZXEDwZgfevaojRNx65LZrN3VXGS5UMqltVbspZJji7huMb0PgvlU uKTIgPs0v5BajUUB270/XdOsL2hk92eT2+WsC27wWlya1FGytOroS5rNP3X8tCHi7z9zy+rB7BUb 7T3ZOKdMrdQ77rq/GaJcfvUPVDpzoEyvB/hLlWtvuHO6P2Pslf8x8Xo+sNUxzSlnXtPZtFH1eW68 s/mbV3xe9DvfPvHkpFIUsCHSW5g0t5ZQnwkg5G55LEmi4D5xA3LbDs0qWyT0ldOytglnlOyW89ti 0JkIyZBoyTFzw6cKpGu2QTXAdtFltzZ/IGxTHYtrdN8DDzfXTG5MXOQDD7+o2WaX05p3b35Y8/dv WdH8xXrbpeEHPWer5kWv2a15x78c3Gw7+X5e8gWX3jJYa2yZ3DihFGz1uVPUWpi/cZODmvMuvqnI Z13z0KPT7H6M2uH3fezIiZdzY5bnuvW2e5t1Xy/jrz3nZTt6XdjFARsinWDFBsiR3SNmR/YVa4mb qFWysdyIKBYVGSCUwG9b8M7/Jv7Fv4FuMUtoxCohrc4LHULWUsNK07RcWPtS15XfJUmiSWJouYcZ +QxKJ+TgI0UCG0DhE/w1GZaQoeSS0J6WVWqSAG6a6yxaSbiC85T7mUlK+IQQfMG4SGDzXQSSASbD ECxWzUNOXKnkWZ+Aj+boQz4LL6AU+oqPtYaV7gvIRQIbsvuB54p/2EabfXmaWTWpV275/o+nnTSe 9rxPqh3y17xr/2nmr0T50b0/mybM/uuz9DLy7/rQoc15F91U1Dt92Zv3Ej/HDl84w/s7iwU2Yg0+ XTzGNIF7aEIWUNsVg7NYajwNgrmUgd9nlVKaWJqr7dsPLyTLXyywITCgpT9u7Q12ar526S2GEhXJ hd+4dZpEeYpiZQhcqX0nPeQee6zMlktk2l89sSS1nvcdHzw4W7azS6645vbmeRvIa7f/7yR7GyJF AxuLstb6O4h/4MZbHGHZxArkplvvabafuBvPeokuV4tMtC9xO4UwVX3tV+6kkxx48Q5Ti+hHP/5Z kc8KRUf6TBDlTzvr2uECG+LbscG106ZJesFVIlgeo6yNrGfJ9Z7UPGrOnuibr5lTaGfkU5/t2v67 amDzKZht4w1DmM49NCHbGaOQmzpKl+lFuURrQPPsCLrS5y/48vE0BgUVD2wIAeAxTukeklDEHGvU ImMQc5QHuYrWgOb2wi65trUV32HoGtZaNcCG5TW2wbZDArRY05LaYc0ld+XQGtDcWqW5qwdcQw2+ tdZUmYwG2BACwmOZBTkEIfaD6xWrBx4lQqUTsrUGNLf9/mvxPiTdsOdjhlpSDbDxUkMOCTdIzOZ5 Jk8Ivex9QweujHoKxEufy0C8TwvUcbVr8ToICfhWUECBGR2wIaEzIom5lZxFqj0poEk2XRZ/qcFq IQamOWCnJm/DN2Ggaa1VB2y+1QjzcRl4PzVPYipFOHB0I4k9+o13Dj2khtiS1oBmlNhkTfuUveD7 rJrWWnXAhtB7TYsDpJFWHqt1xqFLMSiHTGoNbhggr5n1rWVIcysMqPbtH6dtrVUJbPfc+/Npk0Cd Jo6faDb7xNFFlqKUJpdPAvW77Hd2s2GiwbwbvmPf5siTLq9ibWjfTbWLxnM/c1Jp88VJU9Oa5IEH H562GPd53qc/f9soDQqqAzaElHcMy6CGVHoOVzN27Gw+OQCFo5a4EtakVht5LOAavQjfIve2UiSG VAlsSAj9o29EHenqsWZQeW7aj7O+mv3BXPvw17TuJDK0ysL4nBr7CYYYGTE7X1cLbKH0D1ffn9q+ oTewhADNc8INyzGUBr5byUOKFwl7QgvUaKhYY4UM1I6QuQzHnXZltN9WLbCFmsA+m48DiDVTe5kW tyQ8K+oNYwwMkfRKq5F+g7uolTiptTKGbC38uhAaS0ypGthY3NiTsbtcB4COLC2k1BSDZn3XCPAA kHH1ShgrSMyu1oz0qWdeq+YpQJMhm1ijMGMkJI4a20KvGtgQDm1sl9T1ZXGDwWPCxKZlSyqwwwJj owAWfDcNOrGGALES1mbWtS95jmefcDlorSdE1lrL/EL4aiiVI7GlemBL7ZL61PixiRlqzO/EwmNj EHQFiFwU8mI74o8sEqDFbU+ioyTg6mr8qFXcnEt8hpF0xRRrJYhzYYe44Vy2KZ59EMDGQuGzl37A x6RsfqzXIbSN4lLSWhc+q1YhFhjaqSRVj8RBAFu76JpDdU396TJYN0Nozc6FGRJLmlf4ebUKbnNo 1pyLLpUMBtiQk8/4VrPWi3cwgEmsT53EF9/z4cObY065onlgILMm7rrnweaj25+kFH/dutnjwHOr XYtbv39v896PHB60BlRmsKYGbAXEQkz73U0sGuIuQxKsEy0CeOmDml2s1tAmBzAIUlNaBgdsiGZv edMngxn8NxIapVJcQjPMmm28oYfUDGqhhf2sQQ6C+yCB7fY77w82nU1/N24GB45sbsmzBULlkiu+ 17xl05Vqa3Z4Ba2WugB+y8/+R/A67DeZ7ZpDBglsbTJBe6q4WWbDFc26T9au9glpGpngWAXuowa2 drOm6Bk2FKWh45jArBVASGs2gYHab9uZ5+TqDRrYEJjuNZBYcwEZZF+C22NtmU4MTOvyw+KrPZGi AWqsQ+4uLYMHNuTASeO+P177k6MHsrU32Gmadt971ermwm/c2vx8zSPNmGXFyvOb//miT6us7T9M GmOec2G9/fx+8MP7mo9uF05vgW510levzv48owA2RHPARi3KzUk5F/3lyEzZnIffZvs0qwlqGo23 SCjE18oEU09bgowG2LTMbJQicz6Lou6cbi6VFsQycCdhdVNcTBE8IPbgQIiy2gJHTXM8YO0DuQFk rY4vJfH1RgVsiMbADcibrfVDkL3trEGPM4rcKVZHoUi4KkTX9u9QqBWtEifk8/ke6BZmefkfYs1m mrWDGkkOrUxwaSTk0QGbVsE84GbT5esRMr2aGXJct5qtYs2kSYmVFaMDttYd0Ygp8Bk2Xb5swaLW nPVZ4xDjmPHmUsvFRglsmuAGZQJ30aQ8gcKi3WGZUEatoQD2PKTZoYPaqIFNE9zajqhmvZXzXmkR pJ3YwfKrFdRIKIX2UqsF1EYPbNrgRntwpj1Z7C1f/BTrOUZfPjLhta4JyShNkK+hW8noga0FN805 pWSaaOVt2ct0QnIg1vjAWtsOkUV/5dv2UZ39WgpPzYDNUWiC9zGlxoKtvnHjg5qDj7202klEpQuV E0eceHnzlvfHGZ793Fd+fvr+apNHHv1ls/8hX2vWUXQ9X/KmvZrjT7uqmjUwYJsz27UzaC0zHRfJ LDi99wRnMOboRazuGovZuUSJ92quBZZwbe2qDNgWCIHnWBOrcGssBucfMmD9Yrejgnhb22R6BLDX HoBNFrjG/WrAtkQ0Z0guoohQkjXkpo2aAruf4L1Wa6GhDTGG1sIQau21IOlQqxiwdQilTDH7uQGc 1C3WOhU9tlx93R3T/nBkm1PU3vJdNYULAHx4adoXMHueZEzNYsDWIww2fsN7488spe3NLvudnaU/ fEly3wMPNUee9M3mXf92aPOURA0GnjZpacXa/+KRX1axRndPEl17HnR+879fu5v6WrDXz7rgxur3 kQGb482oSQdxKdmhS8eYYnEUqONupp4NizVIbKoWOXP1DapE2/l9N5QMvgGbQOhrlrJNEYcOVxVO 3BApIzwTsUxNrtVQM5905tVo3rAs5ktXmiGJAZtQOAg5Js4DqGxswLXmNt4cUA4Rz5Kzl10tDQx4 14yTjLVWQy0FNGDzENrV0EMt97wCNjwgQZC9pOErrA8HEreJ3wc3kKxdiqymi5KRLj1JwNrFyHSO pXmDAVuAkDUtacQfrhWWCNwjsmWk6+F9sYHJvM5q27SyT0lmtH9Dpqxtfkm3XupiAXi+j0MIkbPk qWAc5pKzfVxOrG2s0rBZbtrQq2EM2AKFAD9B71SUBFM/BXhL5Q1i4RJi0Opmu0wh79Y8md6ALYNg AWm0HTfVT8DQWLFE15NMMG5xCisXy3pMNcsGbMqCyxazhtHUXcm2ljY9CqsRNz7VHsGthYs5NjFg iyCPPvZ4c8wpVzQbbbbKACaDvuBVu0xmhq4uxkK55vofNvtOrMa3vn9V84fP3TrJGrz6nfs3K4/6 enP/gw+P8gwasEWUNQ892hw+4aD90yYHGeAk0n/95HFFcNNunNBaDjri4mkFxZ++IF02+KWT9kK4 3mPv5mzAlkDazq6xGOOmT7hcUCRyChQXstA5OHpkfMmCW+cYA7bkcu9P10xv8Q2VWpGbPlFjC1cu tcv1wCSTecGltzR7r1rdbLLFEapNHSX6V3//ueYzu3+1ufbGO+2AGbDlt+CoBbUkQxhnD+soFTGZ dwanD1oGdcO5+XpYhGQ6bYCQAVuxWVTqQQ2s3OkbZBVjAhq8Mqo5qGOlagLScynEY54f8nWNjTAN 2EYobNRUnKZaFZ6gBsmWbi0AF2RVrD7WncsFC7qUsq9FFioxNH67iQFbdYK1QFYrR6F9qYrb1ZcY gNoB6GEB829J1gAEWFzU1FJ5QPlbbRUicPF4lpJqgQ3YDNiChFrUlB1kS1aAHmCa1yGuDVYjgEwn FBMDtsEKKXx6suVu9WMa1yolKUFSyawzA7bRCS4XIMchMEtuGPw7Mq2W3TRgM/mNcLNTB0jwm5Fx BhT1uNWMeKy5YagBm0lSa45+Yxwags7mtpajtAyCpkHc1MSAzSQwNodFR0NIsoJGJckHZjWN9TNg M2CrSjhc8LfgbsHbit3YcKxupoGZAZtJZoEYzPg54nQw7C0h4cc1oxqCS8PEgM2kUKuOoDblRFge gJ2RhZ9cBUCdJtSMMXWlNWAzYBuckIGlGy0xO0CPOQ+UOGGtDB34ADKeFRfeMpkGbAZsI7P02pKm dorVFtudOI3lteVMpdZhtkpy5WVvXjEtwYJbRobZis0N2AzYTJwEAKRcCBDEnaOfGnWduL7tKD+a cpJV1OqIAbACWnw2biQlS3wn1ie1paVOsDIxYDMZuNDZwmUWKmplSQZsBmwmJiYGbAZsJiYmBmwm JiYmBmwmJiYmBQObqampaQ1qwGZqamrAZmpqamrAZmpqamrAZmpqamrAZmpqamrAZmpqasBmampq asBmampqasBmampqasBmampq2gFsJiYmJkOT/w+1aoy8RXsDOgAAAABJRU5ErkJggg== "
       preserveAspectRatio="none"
       height="6.184"
       width="6.184" />
  </g>
  <g
     inkscape:groupmode="layer"
     id="layer7"
     inkscape:label="card text"
     transform="translate(0,-22)"
     style="display:inline">
    <flowRoot
       xml:space="preserve"
       id="flowRoot7168"
       style="font-style:normal;font-variant:normal;font-weight:normal;font-stretch:normal;font-size:8px;line-height:1.25;font-family:ori1Uni;-inkscape-font-specification:ori1Uni;font-variant-ligatures:normal;font-variant-caps:normal;font-variant-numeric:normal;font-feature-settings:normal;text-align:center;letter-spacing:0px;word-spacing:0px;writing-mode:lr-tb;text-orientation:upright;text-anchor:middle;fill:#000000;fill-opacity:1;stroke:none"><flowRegion
         id="flowRegion7170"
         style="font-style:normal;font-variant:normal;font-weight:normal;font-stretch:normal;font-size:8px;line-height:1.25;font-family:ori1Uni;-inkscape-font-specification:ori1Uni"><rect
           id="rect7172"
           width="137.53227"
           height="40.305088"
           x="34.648232"
           y="87.078377"
           style="font-style:normal;font-variant:normal;font-weight:normal;font-stretch:normal;font-size:8px;line-height:1.25;font-family:ori1Uni;-inkscape-font-specification:ori1Uni" /></flowRegion><flowPara
         id="flowPara7174" /></flowRoot>
    <flowRoot
       xml:space="preserve"
       id="flowRoot7176"
       style="font-style:normal;font-variant:normal;font-weight:normal;font-stretch:normal;font-size:8px;line-height:1.25;font-family:ori1Uni;-inkscape-font-specification:ori1Uni;font-variant-ligatures:normal;font-variant-caps:normal;font-variant-numeric:normal;font-feature-settings:normal;text-align:justify;letter-spacing:0px;word-spacing:0px;writing-mode:lr-tb;text-orientation:upright;text-anchor:start;fill:#000000;fill-opacity:1;stroke:none"
       transform="matrix(0.26458333,0,0,0.26458333,-7.4835468,15.451897)"><flowRegion
         id="flowRegion7178"
         style="font-style:normal;font-variant:normal;font-weight:normal;font-stretch:normal;font-size:8px;font-family:ori1Uni;-inkscape-font-specification:ori1Uni;text-align:justify;text-anchor:start"><rect
           id="rect7180"
           width="178.89803"
           height="80.96373"
           x="39.244427"
           y="82.482185"
           style="font-style:normal;font-variant:normal;font-weight:normal;font-stretch:normal;font-size:8px;font-family:ori1Uni;-inkscape-font-specification:ori1Uni;text-align:justify;text-anchor:start" /></flowRegion><flowPara
         id="flowPara7182"
         style="font-weight:bold">Remove 1 <flowSpan
   style="fill:#a00002;fill-opacity:1"
   id="flowSpan1812">Fire</flowSpan> or <flowSpan
   style="fill:#1c670f;fill-opacity:1"
   id="flowSpan1814">Earth</flowSpan> token from your <flowSpan
   style="fill:#0d2572;fill-opacity:1"
   id="flowSpan1816">Waterbender</flowSpan>'s Space:</flowPara><flowPara
         id="flowPara1808" /><flowPara
         id="flowPara1810">Put 1 <flowSpan
   style="fill:#0d2572;fill-opacity:1"
   id="flowSpan1818">Water</flowSpan> token in each Space adjacent to your <flowSpan
   style="fill:#0d2572;fill-opacity:1"
   id="flowSpan1820">Waterbender</flowSpan>.</flowPara></flowRoot>
  </g>
  <g
     inkscape:groupmode="layer"
     id="layer8"
     inkscape:label="card name"
     transform="translate(0,-22)"
     style="display:inline">
    <flowRoot
       xml:space="preserve"
       id="flowRoot7184"
       style="font-style:normal;font-variant:normal;font-weight:normal;font-stretch:normal;font-size:8px;line-height:1.25;font-family:ori1Uni;-inkscape-font-specification:ori1Uni;font-variant-ligatures:normal;font-variant-caps:normal;font-variant-numeric:normal;font-feature-settings:normal;text-align:center;letter-spacing:0px;word-spacing:0px;writing-mode:lr-tb;text-orientation:upright;text-anchor:middle;fill:#000000;fill-opacity:1;stroke:none"><flowRegion
         id="flowRegion7186"
         style="font-style:normal;font-variant:normal;font-weight:normal;font-stretch:normal;font-size:8px;line-height:1.25;font-family:ori1Uni;-inkscape-font-specification:ori1Uni"><rect
           id="rect7188"
           width="110.5"
           height="26.5"
           x="69.25"
           y="-64.789368"
           style="font-style:normal;font-variant:normal;font-weight:normal;font-stretch:normal;font-size:8px;line-height:1.25;font-family:ori1Uni;-inkscape-font-specification:ori1Uni" /></flowRegion><flowPara
         id="flowPara7190" /></flowRoot>
    <flowRoot
       xml:space="preserve"
       id="flowRoot7196"
       style="font-style:normal;font-variant:normal;font-weight:normal;font-stretch:normal;font-size:8px;line-height:1.25;font-family:ori1Uni;-inkscape-font-specification:ori1Uni;font-variant-ligatures:normal;font-variant-caps:normal;font-variant-numeric:normal;font-feature-settings:normal;text-align:center;letter-spacing:0px;word-spacing:0px;writing-mode:lr-tb;text-orientation:upright;text-anchor:middle;fill:#000000;fill-opacity:1;stroke:none"><flowRegion
         id="flowRegion7198"
         style="font-style:normal;font-variant:normal;font-weight:normal;font-stretch:normal;font-size:8px;line-height:1.25;font-family:ori1Uni;-inkscape-font-specification:ori1Uni"><rect
           id="rect7200"
           width="67"
           height="27.5"
           x="53.75"
           y="-94.539368"
           style="font-style:normal;font-variant:normal;font-weight:normal;font-stretch:normal;font-size:8px;line-height:1.25;font-family:ori1Uni;-inkscape-font-specification:ori1Uni" /></flowRegion><flowPara
         id="flowPara7202" /></flowRoot>
    <flowRoot
       xml:space="preserve"
       id="flowRoot7204"
       style="font-style:normal;font-variant:normal;font-weight:normal;font-stretch:normal;font-size:18.6667px;line-height:1.25;font-family:'Edo SZ';-inkscape-font-specification:'Edo SZ';font-variant-ligatures:normal;font-variant-caps:normal;font-variant-numeric:normal;font-feature-settings:normal;text-align:start;letter-spacing:0px;word-spacing:0px;writing-mode:lr-tb;text-orientation:upright;text-anchor:start;fill:#000000;fill-opacity:1;stroke:none"
       transform="matrix(0.26458333,0,0,0.26458333,-11.707812,48.392188)"><flowRegion
         id="flowRegion7206"
         style="font-style:normal;font-variant:normal;font-weight:normal;font-stretch:normal;font-size:18.6667px;font-family:'Edo SZ';-inkscape-font-specification:'Edo SZ';text-align:start;text-anchor:start"><rect
           id="rect7208"
           width="190"
           height="23.5"
           x="57"
           y="-90.539368"
           style="font-style:normal;font-variant:normal;font-weight:normal;font-stretch:normal;font-size:18.66666603px;font-family:'Edo SZ';-inkscape-font-specification:'Edo SZ';text-align:start;text-anchor:start" /></flowRegion><flowPara
         id="flowPara7210">Water Gimbal</flowPara></flowRoot>
  </g>
</svg>
