<?xml version="1.0" encoding="UTF-8" standalone="no"?>
<svg
   xmlns:dc="http://purl.org/dc/elements/1.1/"
   xmlns:cc="http://creativecommons.org/ns#"
   xmlns:rdf="http://www.w3.org/1999/02/22-rdf-syntax-ns#"
   xmlns:svg="http://www.w3.org/2000/svg"
   xmlns="http://www.w3.org/2000/svg"
   xmlns:xlink="http://www.w3.org/1999/xlink"
   xmlns:sodipodi="http://sodipodi.sourceforge.net/DTD/sodipodi-0.dtd"
   xmlns:inkscape="http://www.inkscape.org/namespaces/inkscape"
   width="63mm"
   height="41mm"
   viewBox="0 0 63 41"
   version="1.1"
   id="svg8"
   inkscape:version="1.0.1 (1.0.1+r73)"
   sodipodi:docname="All For One.svg">
  <defs
     id="defs2" />
  <sodipodi:namedview
     id="base"
     pagecolor="#ffffff"
     bordercolor="#666666"
     borderopacity="1.0"
     inkscape:pageopacity="0.0"
     inkscape:pageshadow="2"
     inkscape:zoom="1.4142136"
     inkscape:cx="24.855219"
     inkscape:cy="104.96894"
     inkscape:document-units="mm"
     inkscape:current-layer="layer9"
     showgrid="false"
     inkscape:window-width="1409"
     inkscape:window-height="761"
     inkscape:window-x="368"
     inkscape:window-y="321"
     inkscape:window-maximized="0"
     inkscape:snap-global="false"
     inkscape:document-rotation="0" />
  <metadata
     id="metadata5">
    <rdf:RDF>
      <cc:Work
         rdf:about="">
        <dc:format>image/svg+xml</dc:format>
        <dc:type
           rdf:resource="http://purl.org/dc/dcmitype/StillImage" />
        <dc:title />
      </cc:Work>
    </rdf:RDF>
  </metadata>
  <g
     inkscape:groupmode="layer"
     id="layer2"
     inkscape:label="remove"
     style="display:inline">
    <g
       id="g7348"
       transform="matrix(0.6286825,-0.6286825,0.6286825,0.6286825,10.406533,45.179828)">
      <circle
         r="3.96875"
         cy="29.568195"
         cx="44.268097"
         id="path7336"
         style="fill:none;fill-opacity:1;stroke:#830000;stroke-width:0.5;stroke-miterlimit:4;stroke-dasharray:none;stroke-opacity:1" />
      <path
         inkscape:connector-curvature="0"
         id="path7338"
         d="m 44.268097,25.723469 v 7.689453"
         style="fill:none;stroke:#830000;stroke-width:0.5;stroke-linecap:butt;stroke-linejoin:miter;stroke-miterlimit:4;stroke-dasharray:none;stroke-opacity:1" />
    </g>
  </g>
  <g
     inkscape:groupmode="layer"
     id="layer9"
     inkscape:label="border"
     style="display:inline"
     transform="translate(0,-22)">
    <path
       d="M 0.2432515,22.24229 V 62.757711 H 62.756748 V 22.24229 Z"
       style="display:inline;opacity:1;fill:none;stroke:#d3d2d2;stroke-width:0.484;stroke-linecap:butt;stroke-linejoin:miter;stroke-miterlimit:4;stroke-dasharray:none;stroke-opacity:1"
       id="path5049"
       inkscape:connector-curvature="0" />
    <path
       inkscape:connector-curvature="0"
       id="path1826-3"
       d="M 3.1092941,34.094801 H 59.890706"
       style="display:inline;opacity:1;fill:none;stroke:#d3d2d2;stroke-width:0.484;stroke-linecap:butt;stroke-linejoin:miter;stroke-miterlimit:4;stroke-dasharray:none;stroke-opacity:1" />
  </g>
  <g
     inkscape:groupmode="layer"
     id="layer5"
     inkscape:label="earth"
     style="display:inline"
     transform="translate(0,-22)">
    <image
       y="24.488821"
       x="53.85738"
       id="image45449"
       xlink:href="data:image/png;base64,iVBORw0KGgoAAAANSUhEUgAAATYAAAE2CAYAAADrvL6pAAAonElEQVR42u1d+Z8X1bF9/8GL2Tdx 14dGjcYlGk1MfK6JCsQnuEvyAQFFkUUHUNkUBVQWGWRRVBBEQARlExAUEREEBJEd2RcHUVBRZOv3 PWO+kwnOMN1V996+t/ucfOqHJMC3+y6nb9WtOvVfv779vyMajUbLkv0XB4FGo5HYaDQajcRGo9Fo JDYajUYjsdFoNBqJjUajkdhoNBqNxEaj0WgkNhqNRiOx0Wg0mhliIwiCcA0SG0EQJDYSG0EQJDaC IAgSG0EQBImNIAiCxEYQBImNxEYQBImNxEYQBImNIAiCxEYQBEFiIwiCxEZiIwiCxEZiCwRlu7ZF Gz9dX2HzP54bzV7xdoW9POelaOTsYRX2+GuPfM+6jL4/uue5plVas0ENo/97/K+p2q19r6vy2bqO 6fi9d+k9ocd/vG/RKo8JbPnmpf8xbhhHgsRGWABIafis5ys2aZshzcs3MDY2NvjVj14c/b7dqeVG WRq7dnKLWhVjfXGn31eQbOMBt5TPScmwFhXztLZsDRcviY04FPsO7Cs/NR3d9EcklQDtpLt+GY2b N5oLmcRGFLF++9qo9ZA7SRCB21FNfxh1Gtku2lBwawkSW67x1Z6voro9LiMxZMgu63IB43Uktvxi XdnHUfNnGpEMMmg39K4bzVs9h4ucxJa/mFqDnteQBDJsf+pwFk9uJLZ8ocNLJdz8JDeCxJYdIKeK mz5f5IZYKkFiyyxmLXszuvCBM7nhc2bIe9vx5afcACS27AEL+/ZCcic3ej7t4TEPchOQ2LKH0slP cIPn3FBVQpDYMoOpiyZFZ91Xm5s753bB/WdE7yyfyQ1BYgsfSO1A0mYWNuYZbU6oqJ+sbFd2vajK 4vViXaXWirWyh7Oqnuu4O3/q3RjiWQkSW/CA++FiwxQ3M27hqlLFQIpJsWj72RkDK1Qv3l42o1zt Yu6qdyuULrIa6MZ7Fd9x0boF31NAQbgA44Px+me/G8pFB0DmpucK40+Q2ILFnr3fGN0YcGUqy+3g NEjYx67dO8s/APhomCqa38iaUhJbqDCZswaCXL11BQc1RSDZ9uwSM7FSnKYJEluQgDto6gsPrTYi fcBlNyUvBTeYILEFhS2fbTay+LGJZiyZygH1CKZSd3CpRJDYgsLT0/oZWfwIbBP+4aY+9Ti/JLb8 ASkQ2kWPGzrC3xP5aa2ONXKbjUsmgsTmPZBKwOBy9jF54Xgjpzac7gkSm/foNKqdWqhwxeZlHMgA 8OBL96mJ7a+P/Dna+vkWDiaJzV/ArdC4KMiWR64aEQYgSWSiaxhSgwgSm7fQ5q71mtCdgxgYxs4d FdVucaRq3q/vVSfa/e1uDiaJzU8gNiZd3OhfyWqCMHH/i63Vp7ZpiydzIEls/mHRuoXRqS2PEU3C kU1+EI15j1f/oWL11pVR3e66jmO3D7iVA0li8w+axE00dyHCholb0iUbFnMgSWx+QVMkzfKabKCx UiUZyiIEic0boIaQGl0EVDs0OnD4u1ATIUhsXqD98Fbixfza+2M4gBlCt7GdVae2gdNKOYgktvSx tmxN9If7fysa/Eb9b4oOHDzAQcwQVmxZFl320IWK1I9ron3793IgSWzpQqOSCwFDInuASq7m1EaZ KhJb6mhY2kA08PWfuCr6hgXQmcS2QomUJv2jZNg9HEQSW3qAqi2174mqoKlC4SUCiS1VdB3TQTTo 57c/LVq1dTkHMMP4ZOfWqG4P+antmTee4iCS2NwD5U/SZi0lw1pwAHlqO6yBFAkSm3OMene4oi7w dQ5gHk5thQYwf3/sCmGvi19FC9e+z0EksbnFHU//UzTgN/auxxSPHOHZ6QPEH8C+hTI9gsTmDJCG lnYrGvrWM5kcE2iTIU0B5WFQqoAbhlSYYqNmuN/FZsRVdXMvNnfGn8OfR+0tegLg30OuYMghC/SE ZcMXEpv36D2hh/i2CwSQBRJDGRlkre8a3Khccsl2t3u0IYRYQPdxXYIT49TE2thPlsTmDFLV1FCL nLG5XJJYHEPDHJx+Q0iL0JzaQOQkNhKbdUyYP068GacsmhjMey7dtCQaOLVvdPOT10bHNPuxF2RW lZ1dcnLUesid0avzXo527v7c2/HsP6WP6P3qdL+0IDm/h8RGYrOLZoMaigYaska+Az0bxs0bXa4E bKrjuVuSq10en/PxFIdngjvNEisSm5eLUypLgy+2r0DLwDZDmos3nm+GhjpwnX2TWpdKiHd4qYTE RmKzB2lxM04/O7781Lv3gX4Y4mZZILOqDHGtCfPHehWrlJ5ESWwkNitA7hl6fkoG+Y6n/+HVu6wq bLDuY7sYaR0XgjXqf3M0ccGrXoy9NP/x9Q8mkNhIbHbcNenGQj6WD4BrhptEaSlY6AbpbpxS08SM JVNZhkdi8wdYWNL8qz0eyBNB+82XVI00DfOBC5I0IemPgbhhXtszktgsAcQkDaynnbuGzdB1TMfc E1pVJ6C0PjjSWG1ehUlJbJagyRxPczGWFYqwka1PIqu+ZCmNci1Ubpzcolbi58VFD4mNxGYMUl0t 3Gal5T6g5Am/nzZ5ID0GlxQYQ8S4irWgXUbfX1EfWqwXBdHgz7rMoUvLNZWkfvgS1iCxZQAalVxs 3jSAHK40EmwROwJxgShwEpImymLz4rIGRfQgAJCi5ITjs2uK5sghX0SR2AIHyCmUzt44HbrMS8MJ C8mj6ILuItsfZAmyg3ttg7hRfwr33RUwfkmfEeooJDYSm5oocBsVguQMnlXbiTzu7RzIPm3VCSQ8 F0nO9KnTFbnhZJ2VZG8SW0BA1rp0g5Q6Fgm0TWqIgcHF9DHGA308kITkBJQmueE3JCfPrGr6kdgc AcXg0s2BzeYKcAdtkBk2HWJcIWmCIQZlIgHZFblJ1tjVj15MYiOxybB4/cLo1FbHiAb1H/2ud/KM Bw8ejLqN7Wyc0Go1PSJq8WyTaObSGUHO3Zptq8p1zM5te4pqHEA6H6ydb/VZR81O3jvjmGY/KVcW JrGR2BIDrqR0Q7hyFaQaX4czVCdkJREUlw0Itvt8coNrL4njIumaxEZiSwxJ2YvL4K4mabgqg/uG YHwWy3YwVlK5KRfkJslpSzNHksQWKKCkIN0ETQbeav35cKL644O/M0ZqcDuXbFiU6TmdtPDVqF6P y8VjBFUOWx+s6R9OET0TVINJbCS22EA2vHQD4HRgE/hKI9/KFKmhCiAvX35tiZlN908iUAA1ZxIb iS0WUMcnLXh30YXKVEE7MvkhoZM3gMSlSrYwW2Mm6XyWla5nJDZH8RjporedFY6bMBMZ98j3SluX LG1Ie1cg0G8jlQcXHT56CCS2jEBa8G67jg8lSyaK2pHIm8dC6qpObtIbU6wRG+67xB2Fa01iI7FZ +Wq6cAukJ4xDqwfyKlZYXdhB+iGzEW9D7p3kWbJ++iaxpbSwbLuhkCDSkho2cB7iMRJykyoLm463 oc2eb5caJLYMuCYaVw8KFz66x8WkW5Ja9YAKiyR2idw/06omkjWI58jySZzEpsCr748RE8f57U+P Nu3YYOW5RrwzVEVqNxY6a9kuC8oCJLeSNk5LnUa1Ez3H6DkjSGwkNrMxLFuSzfgKozempjO6S32x 0E/sKC6XVJqYlBdH8rW0rpXERmL7D2g6vNt0Q1Fzqjmt5bX5hxQIwktyGG/qU88owUqeAQSb1Y8Y iU0Iadcgmzr0iIlp5HfSkiWP814gEATKkZdXNPx3/O9pp6JI1wKeP23vAaIIJDYSWwU0JUq23FCN uggScH0JJqN3AW6b4SrF6TyPkwcuOzCuIBmXunYa99/krbg0SRzjRmIjsZVj+ealKnfPlhsqVYOF S413SjNWhRMYxC9NdcnChwcKua5Oc1AKTjPWBpdSOlb4kJDYSGyqZi22unPjlCJ9Jpxy0jqZtRnS XNwjIm5agyuCk3xYUIOatheBDwqJLefEpmnWAsNGtgFJkw/TQewkAXeXnbFgcGltK8gi+TbN6hNp sjhOySS2nBMb3Egfbx2lCbku2/3hJhmnXc1tstZwQrKZeIwStLTqhTXVJvi7JLYcE5tGNtqWGwox Qx+VRYqAG4gTpe0Gxj6o20q6lJkqSsfako6xrzfiJDYHAIFoJIBsuaGQ5/b1tAYCkSSxhkpuIJek KTcm88mkaR8YDxJbTolN2wjFVoxHovAKl8k2QJymbjltkZuNbvQSYU9TzXw02oBZUvwgsSWAprmu LTcU8SLJKdJ2IB2xSKmqsEuzcXkCgkhLsluT9pElAUoSW0ygAbBmA9lyQxF49u20Ji0OT8vwvGmf ouG+moI07QN9O0hsOSM2rRtq6zZUcplhs2+BpjdAWoYTr+lbQUnNLj6eJsC0DxJbbGj0zWy5obht TJo6gVszW6VTNpoxuzKEGdJ2R03F2TRpH2lWoJDYHGNhQZvs+Dt/psqdsoHZK2Ymfpb7XrjbyrOM mDU0OrXlMcESG+y5NwcZHZM63S9N9PvQVTOBL77eFf2547miMSid3JPElhdi89UNlahK2KhTxVc+ hIuCOHEuk6VXSUvvTOqjSSs7XNyWk9g8gVTf3qYbCuBCwge5JE3Scty0jJJhLcobNYPMcXsHg+uG gLdGqulQQ06gKSQtsTKZSya5VCrGG7MgCU9iqwHIxfLxNhRImn5io9IAaSM2yAyBbBBZ3MRVBN5B ctrfNdmaLmnqBUjFFKTVKLZbQpLYPAGUD3x0Q3HySpq/ZmPB2qgqQExSesqFq60RKcCYghRMIamL blJLTjo3tvQCSWyeQKvkYdMNheRP2j1MpVr7h3tGE0miICaNECjqWtM6VZvM/seJV6rwHHoHKxLb YTDmvZGqjVoy7B5rz5ZUpuhvj/zF+DO0G97SGKnV63F5NGnha0Zd5Eu7/EH0LA37NTD2HE0T1m5u 27nV2G9P/3CKeD4mLBhHYssqsTUecIu3jVGS3nqZjq/BFTZ1EwqXyUZB+rTFk8XPZMolTHozavLE plH7sJWiRGJLGXBnNLphNt1QIOlNrelelhIp7OrcHpvF17hNTTOAntQdND0W0o9z6FUIJDZDrp5L N3TzZ5ui2i1+neh5Xpw1xOgztBna3Aix2ZYln7Jooui5+kx8zMjvP1n4d5L87qdflBl9/8HT+4vn ZuriSSS2rBGb9rbPphuKtm1ptnoD4nSPqslwmnABiXQSTnppnNhMQ1LalYVeCCS2KoDOQZoNa9sN lSRfmtQd0zSOqezqJH0mxOFwKYDcQmzYuGMsSdkxJWeUhNjwsbABSWvA0N1RElsVkKojuEjKBZKW eIFofYuvxc3wB5khkF3VCRHvhbGuSVtOIr5oqgogCbHZUrGVxhlD7oVAYjPkurhyQ4GkN21QJjEJ aX5U0iRYNICOe/OKW9/qbjIlt6P4XRNIoqZrq05T04AoVHeUxHYItCVCtt1QIKmuvWkBQW3pUpyy JYn7iNSGqor8pXPqeq5sxRylKsshu6MkNiVpuHZDgaQt3kwTm6THQhI3VJN/hg2Mv68lNqT6mECS CgibCrYaPcEQ3VESWyVoc9dcuKFA0htJ0xsGsSCbbqi2PhduZOXNKCFKU4H8JCV5Jku5TIYPQnRH SWyKoHwabqgPxKapOEAaTU3QNM2pPBfFW1fJZZCJuCRcQF/aIWpUdUN0R0lslSC9FnfphiY9BZgm NpCFZoxqUo7Q/vtVNQGWdGc3Ee9K0jzZduE5/m3NByk0d5TE9i8kFQVMyw2VTJpJYtMkfMZxazQ3 eFW5vTgFScILJhJ0kwiB2mgDeCg0gqChuaMktn9BW/Duyg1Nm9g0Aobfaeo/YS0WVF2sTPL3EJbQ IknaUE3jYgKSzlmhuqMktui7JFDpdbhrNzRtYpMumrhNeU0Tm9RQfaIB+kD45uppe+OG5I6S2KLv EkFDcUNDJ7aaxskHYjPRii/Je8BVttGLwsTFU6juKIkt0hd0u3RDJZOG3DyTkGp8xelb6QOxaTvD Yy0kaTDjSgwA0CRXh+SO5p7YTFwauHRDgaRuc5wUC1cfgpr0xkzMR9puaFKRAryzK0i7V4Xmjuae 2LSXBq7dUAmx4PRgEpos9poK1k0q86blhiapNnB9CkraOcuWnBOJzSJQNK29NHDthkpPTCZjOJrK gDgfARMfG6lpG0on1cqD6+0amsqRNNY7ic1igNcXNxSQiGDWFNty5c7E6UJlq1epi1gX8tGS5NmZ bLcXFxoZI9euM4lNEODVyhOl4YYCkkL9QwvDNUiaylBVNUBNgAabS1LDhYiWZJIS8q19r0tl7Wv1 9ELoO5pbYtMoSKR9S5RE48tWbwFpHCzuRQZc56QNazSG5FUtkta4pnXy0cbZMPeu0lNIbAmBr6V2 M6SV1wOSsnVSsuFySXO2sAFtdJq3MY9J5ySOJp2vcTaTXbxIbJ5dGqR59S05bZrOlUpS4P29ZryF vxsXUMjQauQdjmRNlE5hPSXJ7cPaQxVAmtBKQ6VNzCQ2S5cGaSYrSprNmNbTT5qEqi34RvxKotJx OBluE+SCcUh6evUhg9+E2EAaFx8kNsuXBmkvTkn2v+lu65JYn7YxMAgOt3qSlBfE7HApYfKGOKnW W2WduDShFTMwUaFBYvPs0sCHDGyJPHecVIsk0EgYmSjzwokL84n4Fk7hhxpqgPHOIEMbZCJxx+N2 5wohzmarqxaJTQATyZ8QpEwbSTtV2dLU18S/QsiHqg449SW9GcZFiE/Jrdp8NhuNuElswuO3tqcB DO5H2pCcFmw05MWpTTqm+ECYdo9dAOKVSeOL+PO+xaQ0F0C+l1jlitjQLMOEG2pTmz4upLlI0tiW rcsYuDMhkRuC7klPargFralGNg2YkGFHrNfHnLZcEdsNveuqJ7Jej8ujffv9cCdu7J08l+z5NwcZ f451ZR9HdbpfKh7TG3rVid5bNdtrQtuzb095sFxyaVM6uae379WwtIF6T7w0+wUSW5rug4nTmg9u qOakZFqbrQhtmQ7c5LRzu6oDXEhpbNb38iMTXkxapWEktkifkOiTG1rEonULEj+/aQmjytCkfxSf De/kzSmt4GLh4yGNIaLECgnGPkPbnKfoavsWTsgFseEmKmnLuuryoHyDJEnW1skI42yiVA3dlNL+ gOAEqhHUBKmFEjs00cfVRAUHiS0hRr073Mhpref4bt4tykdf6ZT4PTqNamfteVZuWR7d/OS16rE+ 8a5fRK2ev6OQEjLNyThu2L6unMw6jmwbXdPtkqhWkyPEz9604O4v2/RRMBcivSf2UM8X8ioPHDxA YnMJE6cIE5LRPrkSNvOPME7ScqvqYjhQ3zBZMVB05XEhgPIqE7XDxXIx393PqubLxLv7FEbIPLGZ aK1nSjLaFiRKG3CrbSaLgnC1me3VpRfAVUVVAcgZv4P8xOqA/w9/DmoUIDEE8yFtrmlIczihgRDU ZW25oyhXI7E5Anx/E4vWtxhCZUjLxGzX+uGjkkT/35ShFhjxMZe9E5CoGiqplbujE/TuqE+y4Zkn NlNihT4rGWAxIYtfIttj272GW6Zp/uK74eSXRIYp6+6otmcEiS1mDMXEZGFj+g4Ue0vfzfZXFv8+ 0iZMxbF8MYydjUqOtGBC1NNlj9TcEpup3LWB00q9X5Rluz4R65WZVtetDlMXT4puM3SRk6b9puXR UY9XH4627yqLsoRBhXVuIgyweutKEpstILnSRIAYp4zDBaezcGpzKaeD0xuqN0I9vcHl97Hu0wSw zk3Miw/STJklNm2JTygSyCZibUUCdylBg5gOZJRCIThcRuDDEfIFQRyYSI2C50BiswRpsxGfhQHj QCOkmYa0ju8EhzFBPaXvXZlMQdMz1qfLtkwSm6lmLbg1DMUNrQwQhfSdkZ6RRoIpyrwQ6zOZ2KtN XcCFR2jJtiZCOCbSZNKWDc8ksSF508TiRiJoiIDOlqY2Frd9aW1ouHo4dWLsXZ/iEJNtM6R5eRPs rLuctj6MvqhMZ5LYTGRR+5STI4FWHTVNcqtM0JgDnOSQimCa6PDvYa0gYx6/kxd3syYk7Wjvo2x4 5ojNVKKhr8qgSaDtx+kDuVUGngV9EtC8BWSHUx2Iqabbb5xekaiNoDZOI4iZoRkPiax6mOjklmaJ VeaIzURpCAwuSegAEWgrL3wjtzjvjKTZohEyJG0r6FuJVeaITZru4Ft7PZMnWK0WHdzAEJuuEHLg MifkcE6miM2U/HeaXd5tAMFwbXwKY+KTLA1hHyZKrGxJ0eeK2Ewcn12WGLmECZUTpAEgvkXkA9DA M5EylUYoI1PEZsoN9amvgUmYqp1FdrrPaieEGeBW2kQfXiT9kthSdkN97GvgI7lhwaN5CxZ/XoCT B1Ih8nSbqr1ZT6ssMTPEZsoNRXJv1mGK3IppMcjQz+JmxzshPgkCL+bR+VAH6RJIrzGRL+j6hJ8Z YtN0FApFUNIktK3yqqqpRKpNyOOH1AQklRb7IFTlhmVV2eNwY2Iip831gSETxIbUjLwpeZgA1Cps lC1hHPFv+57/hhMZ1g42HUQTaqqRzNtpzaQ3hP4XJLaUXCtsxrwBG9tEz9XqblHRPAXj6kOyLJ4B clZYLyj2T0LquJjKay6fqWoelyVWmSA2E0fltK6lfVm4NjpKVaVphpImEB0SQG2NN94HsTGkKxRL rzSqIfi7tppMhwKpOvOhDW9IbI7dUJws8gzcbpq4AZOU3eD0BPLBSQp1nCC+yoa4VtFw4sL/BvcR lxbYLCBLuJI4VZl2rXE5kpUqFA1M6LRhrl1dMgVPbKbcUNz+EN/dgpnKBwzdQLisN/13PNKE1L6r jl5BE9uur3dGlz90oXqwL+l8fvTpF9u5eitiURvKT0Pntj0ll4R2VNMfRp1GtYs27djAxVD5EDFS f4ho/kwjEltNQBzFxEL2qYO1T0CwHCdil42H0zbIIEHokvg+TLSzdNUcKWhig7QQlTzcxN9wgvNF tttW96ksND62DRMiroijktiqARIHTaQppC1hHFqcBUFkBPpN1BD6YLh0AKHlWQo8CSCCYCJ2SWKz 7IYi+ZBIDrgT6OCFZNzQeoQiPQiVF7wYkJ3eTXzUbKfPBEtsD41+QO/vN/tR9O7KWVytSmwoEMT4 wqnnkVc6Rtf3uiY65Z6jvCKy01sfF91WWj/qM7FH4YP4Zm7zFU0BMWntnHQb25nEVhVMJJS6OBLn ESAOBOCRa4bcOCimuDzV4fcaD7ilvOYTCq4kMrNABYHvYq5BEhtcCBMbwEUQk/h3TBTSUkiwxbgj BIDEWriyICJUJdQkZAAXqPjn0IsBpInKAvx7iJPh32eDFjfQ9tKAIZxEYjMcwMyTkgdB+LgHbTZM CpLYmgy8TT2oiLkQBCHDmm2rovPan6bagxd1ODva/kUZiQ3Y8tmmgn9+sprYBk7ty9VJEAq0G95S vQ9fe/8VEhvw2vtj1IOJW7us9jUgCFeYsmiiei+2f7EViQ3oOLKtejAb9b+Jq5IglNi7f29Uv+dV 6hvsz77cQWIzoTyBxFKCIPQw0dbRxu1oUMQ2b/UcI27osk0fcUUShAFgL511n07o9cER9+ab2Ex8 HfKqW08QtqAVKEXNd66JrVH/m3kbShCeAcnR2n35xodT8klsqDb43b0nqQbvhOY/L9eUIgjCHHYX Stbq9bhcKUbxUD6JbezcUUYkagiCMI8+Ex9T7c36Pa/OJ7E9MKKNmtienPQ4VyBBWMDi9R+Uq6hI 9+bxd/68kFu6KH/EZqLTO9qyEQRhBxAg9SUNKwhim1PQTNOS2jXdLokOFv5DEIQdjJ4zwptGL0EQ G3S9tMQGeRuCIOxh286t0Z87niPeo+e3P728gVBuiO0f/a5XE9vEBa9y5RGEZWhj4ab2qffEBvVT rfoq2sdRgJAg7AMd33zwrLwntskfjFef1u4a3JgrjiAcADltVz16sXiv1ul+aT6I7fHXuqqJbchb z3DFEYQjoFGLdK8eefsPovlr5maf2BqWNlCR2okFN3Tpxg+52gjCEd5ZPjOq1eQI8Z4dYKDs0Wti Q+/Kc5RquTf0qsuVRhCOcUOvOuI923jAzdkmtplLp6vd0Mdfe4SrjCAco3RyT/GeRU24tpm118Rm QqYIPRAJPbDQXBg7h8XzZCRjO3vF22JL2rkd86jZt+hLm1li05ZonNHmBPFvz1gytVy7LalB4bfY +9K2+dRt3ZThveICzZDRm9SkodGyZN4r29WFW8Ek83hyi1rezwvGJSnQM1b6eyXDWmSX2LQTrulb OHL2sEwSR5aIDWEGjpkbu6zLBYn3EGo/pb/3pw5nZZPYTMiAvzhriPj3x7w3kgs6BUtyytakFdCS 2ZltTkyc5L6q4L6eee+Jot87ptmPo6WblmSP2IYWcs+0k6GpO+OJjSc2mn4/acJJ4+aNzh6xtR2m a8b6t0f+ojrKao7RNLmdfE+t2HPUZ2IPjplD27RjQ+J9BK9J3nO0dfaIDT69ZhK0wUee2NIzntj8 NEkKBmq9j7vzp87jbF4Sm4nCd80xlsQWBrGZSAei2SU2rTsqDSd5SWxvfjRNNQFHNf1hQWZ4sYrY Bk4r5WJOwY5u9qPYc/TcjIEcM4cmLU3UxMulF4BeEtuAqU+mGl8D+r3ei4s5BTuyyQ+iAwf2x5qj F2Y+yzFzaCu2LBPtpeWblxYalctSt9oPb5UdYmv5fDPVBLQb3lJNbNquOzS5fbvv21hzNOKdoRwv h7Zm2yrxfrqtb32nMkZeEhuy99OMrzEwHUaMjXHQMGJs39WOyuX9d+3eGT6xrSv7uNCK62epxteA 7uO6cDGnZF9+80WsOcIHjOPlvysKvLdqtvygMnd0+MT29rIZqsHXlmLwxJa+xf1CvzznJY6XQ9Me GKSemEQu3Dti03akumtwIxJbTlweqE5ofwsF69UVs1/Z9SKxQMFprY7N3LxgvDXo8FKJeI6CJzYo LGgG/+lp/YwQG04NrqR6sibto51Dl8Sm1f2yAeRxStcG5IWk0kRQtEHcsjrTtsaTemPIaU1ap+od seErqVmo6JJDkNhCJrasAuQkrUJIuq+9IrZvCi9+1n215W327v5VoZ5tI1dQyrh78O0qstkQk2zm rJylJrbPvtrBCXMIaY9gVJkES2zLNn2kWqRXGUjMJfRo9fwdqnlcW7Ym1u+8v+Y9NbFBjZZwh17j u4nmCWsqWGKDHLAPFwcEXVHCDqRxtos7/T5cYntqSm/VIk16XCXs4IERbVTziBKcOPho42I1sW3/ oowT5hDIU5XMU+0WR0ZbP98SJrGVvNBCtUjf+HAKV44H6DSqnWoeQVhxsGLzMgPiiZ9wwhxDms82 c+mMMImtQc+rFY2Rf1FwKzZw1XiAh8c8qCKbxesXxvod1C5qie0TZQoDkRw39q4nmqtnpvcPk9g0 zVuS+uCEPWiTm+MmgiI+xhhbeIAIrG3xWG+IDcl/mgXabFBDrhgSG4ktACCJ3nYFgjfENmflO6oF +ugrnbhiPMGTSsmndwv5afE+hp+oiW3r52zQ7BpTFk0UzdW5bX8T7d2/Nyxie2XuKNUCHfrWYK4Y T/DU67rb7VnL34r1O59/9Zma2LZ8tokT5hgrtywXz9fKrcvDIjbtZpjOG9HgXY2ivfXRG7F+56tv vlQT22YSm3NASPScklNE8zV10aSwiE1a+V+hFRUz94mwj+feHOTkI7Vn7x4DLeVYgpcGrnvib6L5 GjStNAqK2DSdbFD9T/gDrbJtEnkcXh6ECVQJ2bwZ9YbYNH1EJeKS2Hy4vaOZN81HCjZh/lhnxAZP weexxPOhRM1Xk4hAAtKyuwY9rwmL2M5te4p4cTYsbZB4YG8rra/eFDQ7Nj4BsZ101y85ZinaRR3O FhFb51HtRb93SefzwyE2COtpBvf+F1snHlgopHJh+mk4TceFVN+LZsagFiyBNNcxbtjJC2JbtG6B anBxo5oUONJyYfpp6GUQF6e3Pp5jlqKd3vo4EbFp2ltu27k1DGLTys8k+cLzxJatExtODByzMNol VgaUeGxe+HhBbNpuQ9B4IrGR2GjhEJvm5jzOrbkXxKbNe5oTswSnMq4q1J1xUfppL8yMX0Vy4QNn csxStp27P3dKbJMXjg+D2HpP7KHrd7gxeb/DKx7+Ixelp/bcjEGx5/EvHc/lmKVs2xIIQBbx6ryX xb836t3hYRAbcmE0A7t++7rEA4trYy5KP+2ZN56KPY+XdvkDxyxli9ujojKkhfBx14cXxKbVyE/a c5CxGb8NqQCMlWavwbWpC8M468MLYmvU/ybxS57Q/BfRvgP7Eg8sYzP+Wr/Xe8Wex2u6XcIxS9kW fDwv8f4bP/8V8e8huTcIYqv/xFXilzzz3hNFtzLntT+Ni9JTe3LS47Hn8e+PXcExS9mS1PZWXBjO GCj+vTZDmodBbKj1dJ35TFeUrigtPWLTqCw3HnBLGMSmIZkru15EYiOx0VK0JKIFJuLqmPMgiE0z qHFesirU7XFZObm5NNY1+kVsKKB3vQayaBJiu7XvddknthMVCg2QOyL8wug5I1TE1nVMh9i/pbl4 wqmBSAd1ul8qnrdrQyG2Y+/4CYktQ8AXXENsnUe3j/1b6E5GYgsPFzxwhnjecBPuPbHtP7A/qtXk CBJbhvDGh6+rxR/j4q7BjUlsgeGbQt7p/9z9a/G8XfHwn/wnNiTXajYBic0/vFPoMuVKX6/l881I bIFh46cbVOvj4k7n8fKAcA+tDFUSwtHcrpHY0sGSDYuti1umTmxa9VwSm39A7SCJjagOw2c9n31i 276rjK5oxvDxJ6tVc9ryuWaxf0vTtpHElg60rTaDIDYU0GpeUpqgS9iMoax3dmLTZLCT2NIB9iyJ zVJJFWEP2vACiS27gGCFNlE9CGLbXOjErXnJM9qcyNXiGb7+drdqTpsMvJXEllG8/sEEJ52xUie2 HV9+qnrJ45v/PNq7fy9XjEc4ePBgdPydPxPPKaoJ4qKPQn2ZxOYeSL7OBbHt3rNb/aIgR8Iv/Kbl 0eL5TNIAG9ptJLYw8M23X0d/VcbXgiE26UNUtnHzRpfnTmkMsT6Nle3axpVbCRr1lCQpPKWTnyCx GY6PavdCdYYmLK6aNHtBbFS9MKc2gfQXEIPGUH+JTa+xkxTCBkmITdPt6Iw2J6jHqjrDzZ8tNY3T Wh2b630SDLGddV9tEhutwhr0vDo2sQ19azDHLGeG1plBENuFikp/Wvbs2sevjE1sL84awjHLmaGV QBDExlZ4tMpWt/tlsYlt9LsvcsxyZreV1g+D2NiVnZbU1Shi7NzRHLOcGWLAQRAbdetpaVwe0MK0 OLfZXhCbRgWVlj1D17K40Eok0cKzkmEtwiA2bbU/LVv2vzGEBIuY/uEUjlnOrNvYzmEQW99Cg1xO GK1oF3U4OzaxzVw6g2OWM0O1SRDExjgJTarYQlc0fwa+CILYpi6ezAmjVdh57U+LTWzzVs/hmOXM Ji4YFwaxLVw7nxNGq7Bz2p4Sm9i4dvJn89fMDYPYUEDOCaNJXNHVW1dwzHJmcdR8vCA2tOCrregz SMuW/bb18bGJbfnmpRyzHNnZJbWjAwcPhEFsWpkbWrYMqhtxoZWWp4VlcZs3eUNsVxoQoKNlx0hs NGlyrlfExuoDGomNVpNBVDYoYus6piMnjkZiox02voZ4fFDEpu0OTcsnse3avbO8U1XeDPsFiap5 srVla2KvC2+IDQ/talG4mogZS6aqezHEsSUbFlvTqWdfByJEeENsBEEQJDaCIAgSG0EQJDYSG0EQ JDYSG0EQJDaCIAgSG0EQBImNIAgSG4mNIAgSG4mNIAgSG0EQBImNIAiCxEYQBGGd2Gg0Gi0EI7HR aDQSG41Go5HYaDQajcRGo9FoJDYajUYjsdFoNBIbjUajkdhoNBqNxEaj0WgkNhqNRjsMsREEQWQN /w9VnUNMuqX7lAAAAABJRU5ErkJggg== "
       preserveAspectRatio="none"
       height="6.184"
       width="6.184" />
  </g>
  <g
     inkscape:groupmode="layer"
     id="layer7"
     inkscape:label="card text"
     transform="translate(0,-22)"
     style="display:inline">
    <flowRoot
       xml:space="preserve"
       id="flowRoot7168"
       style="font-style:normal;font-variant:normal;font-weight:normal;font-stretch:normal;font-size:8px;line-height:1.25;font-family:ori1Uni;-inkscape-font-specification:ori1Uni;font-variant-ligatures:normal;font-variant-caps:normal;font-variant-numeric:normal;font-feature-settings:normal;text-align:center;letter-spacing:0px;word-spacing:0px;writing-mode:lr-tb;text-orientation:upright;text-anchor:middle;fill:#000000;fill-opacity:1;stroke:none"><flowRegion
         id="flowRegion7170"
         style="font-style:normal;font-variant:normal;font-weight:normal;font-stretch:normal;font-size:8px;line-height:1.25;font-family:ori1Uni;-inkscape-font-specification:ori1Uni"><rect
           id="rect7172"
           width="137.53227"
           height="40.305088"
           x="34.648232"
           y="87.078377"
           style="font-style:normal;font-variant:normal;font-weight:normal;font-stretch:normal;font-size:8px;line-height:1.25;font-family:ori1Uni;-inkscape-font-specification:ori1Uni" /></flowRegion><flowPara
         id="flowPara7174" /></flowRoot>
    <flowRoot
       xml:space="preserve"
       id="flowRoot7176"
       style="font-style:normal;font-variant:normal;font-weight:normal;font-stretch:normal;font-size:8px;line-height:1.25;font-family:ori1Uni;-inkscape-font-specification:ori1Uni;font-variant-ligatures:normal;font-variant-caps:normal;font-variant-numeric:normal;font-feature-settings:normal;text-align:justify;letter-spacing:0px;word-spacing:0px;writing-mode:lr-tb;text-orientation:upright;text-anchor:start;fill:#000000;fill-opacity:1;stroke:none"
       transform="matrix(0.26458333,0,0,0.26458333,-7.4835468,15.451897)"><flowRegion
         id="flowRegion7178"
         style="font-style:normal;font-variant:normal;font-weight:normal;font-stretch:normal;font-size:8px;font-family:ori1Uni;-inkscape-font-specification:ori1Uni;text-align:justify;text-anchor:start"><rect
           id="rect7180"
           width="178.89803"
           height="80.96373"
           x="39.244427"
           y="82.482185"
           style="font-style:normal;font-variant:normal;font-weight:normal;font-stretch:normal;font-size:8px;font-family:ori1Uni;-inkscape-font-specification:ori1Uni;text-align:justify;text-anchor:start" /></flowRegion><flowPara
         id="flowPara7182"
         style="font-weight:bold">If your <flowSpan
   style="fill:#1c670f;fill-opacity:1"
   id="flowSpan1812">Earthbender</flowSpan> is not alone:</flowPara><flowPara
         id="flowPara1808" /><flowPara
         id="flowPara1810">Block 3.</flowPara></flowRoot>
  </g>
  <g
     inkscape:groupmode="layer"
     id="layer8"
     inkscape:label="card name"
     transform="translate(0,-22)"
     style="display:inline">
    <flowRoot
       xml:space="preserve"
       id="flowRoot7184"
       style="font-style:normal;font-variant:normal;font-weight:normal;font-stretch:normal;font-size:8px;line-height:1.25;font-family:ori1Uni;-inkscape-font-specification:ori1Uni;font-variant-ligatures:normal;font-variant-caps:normal;font-variant-numeric:normal;font-feature-settings:normal;text-align:center;letter-spacing:0px;word-spacing:0px;writing-mode:lr-tb;text-orientation:upright;text-anchor:middle;fill:#000000;fill-opacity:1;stroke:none"><flowRegion
         id="flowRegion7186"
         style="font-style:normal;font-variant:normal;font-weight:normal;font-stretch:normal;font-size:8px;line-height:1.25;font-family:ori1Uni;-inkscape-font-specification:ori1Uni"><rect
           id="rect7188"
           width="110.5"
           height="26.5"
           x="69.25"
           y="-64.789368"
           style="font-style:normal;font-variant:normal;font-weight:normal;font-stretch:normal;font-size:8px;line-height:1.25;font-family:ori1Uni;-inkscape-font-specification:ori1Uni" /></flowRegion><flowPara
         id="flowPara7190" /></flowRoot>
    <flowRoot
       xml:space="preserve"
       id="flowRoot7196"
       style="font-style:normal;font-variant:normal;font-weight:normal;font-stretch:normal;font-size:8px;line-height:1.25;font-family:ori1Uni;-inkscape-font-specification:ori1Uni;font-variant-ligatures:normal;font-variant-caps:normal;font-variant-numeric:normal;font-feature-settings:normal;text-align:center;letter-spacing:0px;word-spacing:0px;writing-mode:lr-tb;text-orientation:upright;text-anchor:middle;fill:#000000;fill-opacity:1;stroke:none"><flowRegion
         id="flowRegion7198"
         style="font-style:normal;font-variant:normal;font-weight:normal;font-stretch:normal;font-size:8px;line-height:1.25;font-family:ori1Uni;-inkscape-font-specification:ori1Uni"><rect
           id="rect7200"
           width="67"
           height="27.5"
           x="53.75"
           y="-94.539368"
           style="font-style:normal;font-variant:normal;font-weight:normal;font-stretch:normal;font-size:8px;line-height:1.25;font-family:ori1Uni;-inkscape-font-specification:ori1Uni" /></flowRegion><flowPara
         id="flowPara7202" /></flowRoot>
    <flowRoot
       xml:space="preserve"
       id="flowRoot7204"
       style="font-style:normal;font-variant:normal;font-weight:normal;font-stretch:normal;font-size:18.6667px;line-height:1.25;font-family:'Edo SZ';-inkscape-font-specification:'Edo SZ';font-variant-ligatures:normal;font-variant-caps:normal;font-variant-numeric:normal;font-feature-settings:normal;text-align:start;letter-spacing:0px;word-spacing:0px;writing-mode:lr-tb;text-orientation:upright;text-anchor:start;fill:#000000;fill-opacity:1;stroke:none"
       transform="matrix(0.26458333,0,0,0.26458333,-11.707812,48.392188)"><flowRegion
         id="flowRegion7206"
         style="font-style:normal;font-variant:normal;font-weight:normal;font-stretch:normal;font-size:18.6667px;font-family:'Edo SZ';-inkscape-font-specification:'Edo SZ';text-align:start;text-anchor:start"><rect
           id="rect7208"
           width="190"
           height="23.5"
           x="57"
           y="-90.539368"
           style="font-style:normal;font-variant:normal;font-weight:normal;font-stretch:normal;font-size:18.66666603px;font-family:'Edo SZ';-inkscape-font-specification:'Edo SZ';text-align:start;text-anchor:start" /></flowRegion><flowPara
         id="flowPara7210">All for One</flowPara></flowRoot>
  </g>
</svg>
