<?xml version="1.0" encoding="UTF-8" standalone="no"?>
<svg
   xmlns:dc="http://purl.org/dc/elements/1.1/"
   xmlns:cc="http://creativecommons.org/ns#"
   xmlns:rdf="http://www.w3.org/1999/02/22-rdf-syntax-ns#"
   xmlns:svg="http://www.w3.org/2000/svg"
   xmlns="http://www.w3.org/2000/svg"
   xmlns:xlink="http://www.w3.org/1999/xlink"
   xmlns:sodipodi="http://sodipodi.sourceforge.net/DTD/sodipodi-0.dtd"
   xmlns:inkscape="http://www.inkscape.org/namespaces/inkscape"
   width="210mm"
   height="297mm"
   viewBox="0 0 210 297"
   version="1.1"
   id="svg8"
   inkscape:version="1.0.1 (1.0.1+r73)"
   sodipodi:docname="tricks_printable_A4-water.svg"
   inkscape:export-filename="/home/spethm/Games/TableTop/Pro Bending Arena/data/tricks/tricks_printable_A4-p3.png"
   inkscape:export-xdpi="174.65523"
   inkscape:export-ydpi="174.65523">
  <defs
     id="defs2" />
  <sodipodi:namedview
     id="base"
     pagecolor="#ffffff"
     bordercolor="#666666"
     borderopacity="1.0"
     inkscape:pageopacity="0.0"
     inkscape:pageshadow="2"
     inkscape:zoom="0.7071068"
     inkscape:cx="37.402954"
     inkscape:cy="455.43971"
     inkscape:document-units="mm"
     inkscape:current-layer="layer4"
     showgrid="false"
     inkscape:window-width="1338"
     inkscape:window-height="761"
     inkscape:window-x="501"
     inkscape:window-y="147"
     inkscape:window-maximized="0"
     inkscape:document-rotation="0" />
  <metadata
     id="metadata5">
    <rdf:RDF>
      <cc:Work
         rdf:about="">
        <dc:format>image/svg+xml</dc:format>
        <dc:type
           rdf:resource="http://purl.org/dc/dcmitype/StillImage" />
        <dc:title />
      </cc:Work>
    </rdf:RDF>
  </metadata>
  <g
     inkscape:groupmode="layer"
     id="layer4"
     inkscape:label="Water"
     style="display:inline">
    <g
       id="g29340"
       transform="translate(0.16241455,14.594491)">
      <image
         sodipodi:absref="/home/spethm/Games/TableTop/Pro Bending Arena/data/tricks/Amon Invasion/Water Gimbal.svg"
         xlink:href="Amon%20Invasion/Water%20Gimbal.svg"
         y="10.905218"
         x="10.337685"
         id="image20057"
         height="41.000099"
         width="62.999939"
         inkscape:svg-dpi="300"
         preserveAspectRatio="none" />
      <image
         sodipodi:absref="/home/spethm/Games/TableTop/Pro Bending Arena/data/tricks/Bore-Q-Pines/Mimicry.svg"
         xlink:href="Bore-Q-Pines/Mimicry.svg"
         y="10.905218"
         x="73.337624"
         id="image20410"
         height="41.000099"
         width="62.999939"
         inkscape:svg-dpi="300"
         preserveAspectRatio="none" />
      <image
         sodipodi:absref="/home/spethm/Games/TableTop/Pro Bending Arena/data/tricks/Buzzard Wasps/Salt Spray.svg"
         xlink:href="Buzzard%20Wasps/Salt%20Spray.svg"
         y="10.905218"
         x="136.33755"
         id="image20635"
         height="41.000099"
         width="62.999939"
         inkscape:svg-dpi="300"
         preserveAspectRatio="none" />
      <image
         sodipodi:absref="/home/spethm/Games/TableTop/Pro Bending Arena/data/tricks/core/water/Caught In The Crossfire.svg"
         xlink:href="core/water/Caught%20In%20The%20Crossfire.svg"
         y="51.905319"
         x="10.337685"
         id="image20972"
         height="41.000099"
         width="62.999939"
         inkscape:svg-dpi="300"
         preserveAspectRatio="none" />
      <image
         sodipodi:absref="/home/spethm/Games/TableTop/Pro Bending Arena/data/tricks/core/water/Gravel Blast.svg"
         xlink:href="core/water/Gravel%20Blast.svg"
         y="51.905315"
         x="136.33755"
         id="image22121"
         height="41.000099"
         width="62.999939"
         inkscape:svg-dpi="300"
         preserveAspectRatio="none" />
      <image
         sodipodi:absref="/home/spethm/Games/TableTop/Pro Bending Arena/data/tricks/core/water/Weave Through Air.svg"
         xlink:href="core/water/Weave%20Through%20Air.svg"
         y="51.905315"
         x="73.337616"
         id="image26089"
         height="41.000099"
         width="62.999939"
         inkscape:svg-dpi="300"
         preserveAspectRatio="none" />
      <image
         sodipodi:absref="/home/spethm/Games/TableTop/Pro Bending Arena/data/tricks/Foresight Pack/Spirit's Guidance.svg"
         xlink:href="Foresight%20Pack/Spirit's%20Guidance.svg"
         y="92.905418"
         x="10.337685"
         id="image26291"
         height="41.000099"
         width="62.999939"
         inkscape:svg-dpi="300"
         preserveAspectRatio="none" />
      <image
         sodipodi:absref="/home/spethm/Games/TableTop/Pro Bending Arena/data/tricks/Rabaroos/Redirect.svg"
         xlink:href="Rabaroos/Redirect.svg"
         y="92.905411"
         x="73.337616"
         id="image26484"
         height="41.000099"
         width="62.999939"
         inkscape:svg-dpi="300"
         preserveAspectRatio="none" />
      <image
         sodipodi:absref="/home/spethm/Games/TableTop/Pro Bending Arena/data/tricks/Rule Breaker Pack 01/Stream.svg"
         xlink:href="Rule%20Breaker%20Pack%2001/Stream.svg"
         y="92.905411"
         x="136.33755"
         id="image26707"
         height="41.000099"
         width="62.999939"
         inkscape:svg-dpi="300"
         preserveAspectRatio="none" />
      <image
         sodipodi:absref="/home/spethm/Games/TableTop/Pro Bending Arena/data/tricks/Rule Breaker Pack 02/Zone Violation.svg"
         xlink:href="Rule%20Breaker%20Pack%2002/Zone%20Violation.svg"
         y="133.9055"
         x="10.337677"
         id="image27467"
         height="41.000099"
         width="62.999939"
         inkscape:svg-dpi="300"
         preserveAspectRatio="none" />
      <image
         sodipodi:absref="/home/spethm/Games/TableTop/Pro Bending Arena/data/tricks/Rule Breaker Pack 03/Frozen Breath.svg"
         xlink:href="Rule%20Breaker%20Pack%2003/Frozen%20Breath.svg"
         y="133.90552"
         x="73.337616"
         id="image27838"
         height="41.000099"
         width="62.999939"
         inkscape:svg-dpi="300"
         preserveAspectRatio="none" />
      <image
         sodipodi:absref="/home/spethm/Games/TableTop/Pro Bending Arena/data/tricks/Styles Pack/Fluid Form.svg"
         xlink:href="Styles%20Pack/Fluid%20Form.svg"
         y="133.90552"
         x="136.33755"
         id="image28180"
         height="41.000099"
         width="62.999939"
         inkscape:svg-dpi="300"
         preserveAspectRatio="none" />
      <image
         sodipodi:absref="/home/spethm/Games/TableTop/Pro Bending Arena/data/tricks/Unalaq/Cleansing Water.svg"
         xlink:href="Unalaq/Cleansing%20Water.svg"
         y="174.90561"
         x="136.33755"
         id="image28411"
         height="41.000099"
         width="62.999939"
         inkscape:svg-dpi="300"
         preserveAspectRatio="none" />
      <image
         sodipodi:absref="/home/spethm/Games/TableTop/Pro Bending Arena/data/tricks/Unalaq/Reversal.svg"
         xlink:href="Unalaq/Reversal.svg"
         y="174.90561"
         x="73.337616"
         id="image28759"
         height="41.000099"
         width="62.999939"
         inkscape:svg-dpi="300"
         preserveAspectRatio="none" />
      <image
         sodipodi:absref="/home/spethm/Games/TableTop/Pro Bending Arena/data/tricks/Unalaq/Waterlog.svg"
         xlink:href="Unalaq/Waterlog.svg"
         y="174.90561"
         x="10.337677"
         id="image28979"
         height="41.000099"
         width="62.999939"
         inkscape:svg-dpi="300"
         preserveAspectRatio="none" />
      <image
         sodipodi:absref="/home/spethm/Games/TableTop/Pro Bending Arena/data/tricks/Tigerdillos/Flowing River.svg"
         xlink:href="Tigerdillos/Flowing%20River.svg"
         y="215.9057"
         x="10.337677"
         id="image29180"
         height="41.000099"
         width="62.999939"
         inkscape:svg-dpi="300"
         preserveAspectRatio="none" />
    </g>
  </g>
</svg>
