<?xml version="1.0" encoding="UTF-8" standalone="no"?>
<svg
   xmlns:dc="http://purl.org/dc/elements/1.1/"
   xmlns:cc="http://creativecommons.org/ns#"
   xmlns:rdf="http://www.w3.org/1999/02/22-rdf-syntax-ns#"
   xmlns:svg="http://www.w3.org/2000/svg"
   xmlns="http://www.w3.org/2000/svg"
   xmlns:xlink="http://www.w3.org/1999/xlink"
   xmlns:sodipodi="http://sodipodi.sourceforge.net/DTD/sodipodi-0.dtd"
   xmlns:inkscape="http://www.inkscape.org/namespaces/inkscape"
   width="63mm"
   height="41mm"
   viewBox="0 0 63 41"
   version="1.1"
   id="svg8"
   inkscape:version="1.0.1 (1.0.1+r73)"
   sodipodi:docname="Channel Chi.svg">
  <defs
     id="defs2" />
  <sodipodi:namedview
     id="base"
     pagecolor="#ffffff"
     bordercolor="#666666"
     borderopacity="1.0"
     inkscape:pageopacity="0.0"
     inkscape:pageshadow="2"
     inkscape:zoom="2"
     inkscape:cx="51.680237"
     inkscape:cy="92.676526"
     inkscape:document-units="mm"
     inkscape:current-layer="layer7"
     showgrid="false"
     inkscape:window-width="1409"
     inkscape:window-height="761"
     inkscape:window-x="312"
     inkscape:window-y="496"
     inkscape:window-maximized="0"
     inkscape:snap-global="false"
     inkscape:document-rotation="0" />
  <metadata
     id="metadata5">
    <rdf:RDF>
      <cc:Work
         rdf:about="">
        <dc:format>image/svg+xml</dc:format>
        <dc:type
           rdf:resource="http://purl.org/dc/dcmitype/StillImage" />
        <dc:title />
      </cc:Work>
    </rdf:RDF>
  </metadata>
  <g
     inkscape:groupmode="layer"
     id="layer2"
     inkscape:label="remove"
     style="display:inline">
    <g
       id="g7348"
       transform="matrix(0.6286825,-0.6286825,0.6286825,0.6286825,10.406533,45.179828)">
      <circle
         r="3.96875"
         cy="29.568195"
         cx="44.268097"
         id="path7336"
         style="fill:none;fill-opacity:1;stroke:#830000;stroke-width:0.5;stroke-miterlimit:4;stroke-dasharray:none;stroke-opacity:1" />
      <path
         inkscape:connector-curvature="0"
         id="path7338"
         d="m 44.268097,25.723469 v 7.689453"
         style="fill:none;stroke:#830000;stroke-width:0.5;stroke-linecap:butt;stroke-linejoin:miter;stroke-miterlimit:4;stroke-dasharray:none;stroke-opacity:1" />
    </g>
  </g>
  <g
     inkscape:groupmode="layer"
     id="layer9"
     inkscape:label="border"
     style="display:inline"
     transform="translate(0,-22)">
    <path
       d="M 0.2432515,22.24229 V 62.757711 H 62.756748 V 22.24229 Z"
       style="display:inline;opacity:1;fill:none;stroke:#d3d2d2;stroke-width:0.484;stroke-linecap:butt;stroke-linejoin:miter;stroke-miterlimit:4;stroke-dasharray:none;stroke-opacity:1"
       id="path5049"
       inkscape:connector-curvature="0" />
    <path
       inkscape:connector-curvature="0"
       id="path1826-3"
       d="M 3.1092941,34.094801 H 59.890706"
       style="display:inline;opacity:1;fill:none;stroke:#d3d2d2;stroke-width:0.484;stroke-linecap:butt;stroke-linejoin:miter;stroke-miterlimit:4;stroke-dasharray:none;stroke-opacity:1" />
  </g>
  <g
     inkscape:groupmode="layer"
     id="layer4"
     inkscape:label="fire"
     style="display:inline"
     transform="translate(0,-22)">
    <image
       y="24.488821"
       x="53.85738"
       id="image45460"
       xlink:href="data:image/png;base64,iVBORw0KGgoAAAANSUhEUgAAATYAAAE2CAIAAABk3in+AAAABGdBTUEAALGOfPtRkwAAACBjSFJN AAB6JQAAgIMAAPn/AACA6QAAdTAAAOpgAAA6mAAAF2+SX8VGAAAACXBIWXMAAARAAAAEQAHmAt8C AAByyklEQVR42u1dBXgURxvm4h7cpXgFdyhFC7S0QAs1aClUgArU/kIdCtRLoYbkNHJxIW6QECXu 7u7ufvlnd5M0kLudWblwafd75ulD4W5udnbemW8+eb9RpqPUuMY1rqlsG8VNAde4xkGUa1zjGgdR rnGNgyjXuMY1DqJc4xrXOIhyjWscRLnGNa5xEOUa1ziIqlbjgSbB2igajfg699a5xkGUWhuMIjHe RKNGCUeNEowaxe9vJvh/hXgT4Z/ph5yaKU/dTE0Da+qgafb9WU0D/D2B6oGeB7o16e+QaAK8De5c 3P8TQxDOLRqu/dsgej9ChP2QIIAnwP8efNJCW1dqYGhpPMZ+1my3Netu7X4m4MWX7x47HvnxJ9Gf fR77zTcJF79L+/OvTKEox9Kq4ObNQjf3Eh+fUj+/soCA8sCgiuDgipBQvIWAP5cHBZXduVNy+zb4 TJG7R+FN5zxbuyxTs/QbJsmXfos/fyHum7PRn38R+b9Pw98/GfrmW4GvHLz9zB7vbdtdV6x0mD3X etwESyNjqYGRhY6emYYWGJ4YHzlfMbYHEK4I5MpEOG+g0dMvVKPxTMmaCulxg2abh/ZQKgRR3gAa icMKrFpzTW2APZuJk50XLfFYv8F3x847B14IfftY1Cf/i/nqq+RfL+VYWZXe9qtPSWkpKm6vre1q bu7p6up9ICKT9XR2drW0dNbXt1VWNhcV1aelV4ZHgOHl2TtkmPATf/gx9utvMGx/9EnYu+8BbAe8 9MrtZ/f67NjpvWUreDrXZctvPvyo/fSZVmPGWRoaW+jqg8cH0yLun5DBwB4MZvEgDUI0CPOCQTsa /161wmRQh4p2hwFFY5CuoYk1DS1z0DS1saal80/TBk2XaBb9rf9vdPr+O/Bh4utY0wIdYo3oXK1f l8F/995Lyj3q0n1PLVL8+AJ5z25y7zzwh+hHVNvA1+V2PlThEg3Zi+/bl0X9Ixf8o/oNI0Ql956Q xDhMeWqWhkZgmQa9+lr0F19mCoXVUdEtxcWdjY3d7e2y7u7ef6vIZODpejo6utvaupqaOurrW8vL GzKzqmNiSnxv5dnapv75F9AFok6fCT1+IuCll289vdtt5Sq76TMsjUYDMIP/AlTbTZsOps5t1RqP xzcC2APwg+0MzGTIG2+GvfNu+KkPMJ3izGcxX3wJdor4c+eAOpD408/Jl6+kXb0G9ItsM/NcK+tc W7t8R6dCV9ciDw+gRJTculXm59+nawAVIzS0MiysKiKiKjKyOjoaDK8mLq4mPh602oTE2sT+lpRU l5RMNPDnf/4etPiEmrh47FuxseDr1dEx1VFRoLeq8IjKsPCK0LuYLhMcAhSZ8sDAMv87QNMBYyjx 9S3x9in29CpydwdjK3B2zne6WeDomGdvn2tjCzSjbAtplql5lliSJRJn8gXp12+AhwKTlnLl9+TL l5MvXUr6+RewRQJlClOCvj0fd+7b+HPfxp09BxSiWNC+/qavffV1DGhffgWWH9hMwVwRDfwZa59h LeZzvA36e/B58EWsEZ3gfYLOwU/Ef3s+/sLFxO9/BANI/u0yUOXA2MBsZ4olYMy51jb5Dg6Frm7F Hp6FLq75Tk4FN53BA4K/KXC6mWMhBV+JOn0avHHbKdMIxFIC6ih6hySxMeAKKg/sspbGo11XrAo7 eTL5t9/AK2mrqADL9F8LRfYEO7Gbmtqrq1vKytqqqgCqwf+Cqevp7JL19HDz8y+T9pqafAdHcIMT 91/uWIcoD/RrpqllP3MW2NTjL36XI5WCrbEuOQX8Nlht3DvghBMUKXRzd12xEhGloyjcktXUgVZQ FR3d2djAzbLqikwG7hTcNKi4NObkWo0ZK0ZA6Sjka+coqZ4B0GC5yVV9CTr4auh779UmJHBTocoC bqcCFiEK4G5pPKajtpabWdUXr81broMriZZ24KFX27lXpqqS+tffAgRXHCpEgd7ssnhpT0cHN7Mq LrKeHs+NTwhxs6HJqFFeW7fVJSdz06KCUurnZ8pTg1p3USEK4B548BA3raovYBt1WbJswBQBsGph ZBx+8tS/2d01MqUiOMRMTYM1iPJHjYr85H/ctKq+dLe2Os5fONhaKMY9ZP7P7W8tK+PmR3Wk5NZt wsrDCkR54BRN+vUSN62qL11NTbZTpg0xFWJv0HnpstqERG6KVESqIqPMNbTYgSgRaljo4clNq+pL S3GxVN9Q7osHSq/VhAklPj7cLKmCNOXmSvUMWIOouaZ2dWwsN62qL9UxMeBlKXrxQAE2NzQq8eZQ +uClraLC0tBYzBZELQ2MuJvMiJB8ewfycG0RdpZOLPPz5+bqwUpnY6PNpCnsQBT0Yj99ZldzMzet qi/pV69BvW1A45WOGVsREspN1wOU+2zvjCAK3qjXpi1cYPeIkLiz5/gIMSvgndpOn9mYk8vN2AMT mcx76zYhKxAFu3LQoVe5KR0R4vfc84JRqK/Ve8s2LifpAYr/gRfYgSjYlcNPfcBNqOpLT2eny7Ll yIlOPOzNnjzFzduDkpAjRwVsQTT27DluQlVf2mtqrMdNEFPIGMb8pfEXLnBT90Ak8sOP+GxAlAfO 4vSr17gJVX2pT0uz0NallNQPjlzr8RPaqqq42Rt+ifniSxYgSlCfFDi7cBOq+oIY9jl0C77z4kuc xX74Jf7ct+xA1Fxdsyo8gptQ1Zc8WztaHFY8k1Gj7h5/h5vAYZaUK79DPWRIELXQ0atPS+cmVPUl DS0FUa7r21xDqyEjg5vD4ZRMkVjICkSlBkYtJSXchKq+RJ/5jD+KHqsjpu7GfPY5N4fDKfmOThKY 1jMKZX+1Gj22o66Om1AVF1l3t9vK1UKaEMWNDhqapbf9uJkcNim9Dc9HQ4Ko7ZRpXU1N3ISquLRV VFgZjxGPos+NDODt+fhGjsxx2KQyNNRMXZMFiDrNX9jd2spNqIpLjlQqQitPoHhN4InBP//KTebw SG18grmWDlOIYqxFS5Z2d7RzE6ricvf4CdSLKE9NEZLBQeq+Zh03mcMjDRmZFjp6LEDUfdUa2YMq ssIJmnS3tDjNfxga+gdWg93U6eHvnRQrOG8lo3hmunqVYWHclA6DNOXnK8q/pwBR/H7yBJfmouJS 5O4hxgt1Qd/mrWeebcjMJNGvsIN09VqOjmwYpLW83NIIktWNBFGvLVt7ZTJuQlVZ4r79FkXLBZ+J +Ohj8Hn3tesV2355AO3F7u7crCpbOmpqLI1GswBRnyd3crOp4uK//wBCDhqGvTx7e/D5Ym8fsZo6 yY3UZdnyrpYWbmKVKp319VZjxrEAUd+dT3GzqcoClFLnRxehXESluvotRcX4d3o91q5XhGqCUK4q KoqbW6VKV2OT7dRpLED09rN7uNlUZalPz5Dqw7nksIvoU08PmBUyxWKhQicNFmyU9vff3NwqVbpb Wh3nzWcKUQGeBsHNpipL9Bdf8eGhuZjPM+X3Pwa+BfRYu+kzRYq5At1WruLMhEoVjL5oKSQFHwmi HCuKSr/mzk7nxxajaLlgty64eXPwd3227xCS6Lpq6uXBwdwMK/HddXe7r1nHAkSDjxzlZlNlJc/O TqQ4FOGejCVt3cbs7MHfjf3yKxIjkxArM/E8N8NKFJnMa/MWIXOIhr71NjeZKiu+u55G4RMT4PG3 su57FNfKu3clmDdV4UFqoavHsQQqVXye3MEUouCSE3aCS/ZVUWkuKICGpwyYf7LE4vu+3tPe7rps hYg0ZDf50m/cPCtPbj29mwWIhr93kptK1ZRca2sRQg43+IzTwoe72+UEWif98itJFjhmLDzwIjfP yhO/vfvYgOhJjqFTRSUCgUKuj8Px62/k9lAdG0tCdwSw7bp8JWfXVZ7cgcWcIL3dSDxkjBNVk9rE RMvR8ARR8AGbSZNbiuXzZvR0d3s9sZnErivVM6hP5whTlCUBL73CAkSjuOK/Kinh7580QTMU3d79 DEk/MX1uVYXX0fTrN7jZVpIEHjzEBkQ/Pc1NpapJfVqa5djxYngCN4ax1L/I4oSyxBIR+XX0Be46 qiwJeu0wCxCNPvMZN5WqJuEnTyGWV3JetIS8cEuZ/x1TnhqJ68Vq9Nj2ykpuzpUhwUffYAOiHDGc 6on76jVCRF+LqRl5Vw0ZGebaJPQcPHCbLXRx5eZcGRL65lssQDTm8y+4qVQpKXC6KdbQhCZwg3cf +NIr0OTsrqZm+1mzScxOoJ+IDz/ipl0pEH37GBsQ/eJLbipVR2TdPa5LlwvhQbnYEVqElpntt+95 8khAVy6kXkkQPXacDYh++RU3laojKb//gRquMG9Be3U1Sp+kRl3MbWNpPLqluIibfCVA9AQH0X+V tBQVSQ2MxAh5LRJ1jTL/O4jd5js44sVgFMEey5LJtbbh5p91uXviHQ6i/yrJtbJCOUL5WPLDMfRu axISzTW1SWJ9QYeJP/zIzT/rEvbOu3wOov8aaauocF4ETw0FH3CcN7+9pga9547aOuvxE8khevf4 Ce4VsA/Rd9/jIPrvkciPPjFBOELBZyI//oRSz7LublJOQMyo67//Be4VsA/Rd9iAaCwHURWQquho c109MQJBke3UaU35+VT7D3jpZXKjrs8OjgiSfQF3UQ6i/xK5/fQzAoSIeasJEyrDwhV10tnY2NMl v6oSOHhJ1gpWN2Tx0p6ODu5FsCuhx1mx6H7BQfQBS1VEhKmWNixWAXOEZgqEJP1k8AUtxcVy/yn+ 2/MmpH4Xu+kzu5qbuXehmhDlQhcepLSWlroihPsJ8IpJJLFEMpnM/7n99ampcv817dp1korRAKLW 48Z31NVzr4NliLISuhDNBQA+OOnp6vLevoOPoOKa6eiSl0tqys21NDJW5CwtcHYmqRgN/t5cW7cu OWXETWBbZSVQ71UXoqwEAHJh9A9QAKLEsFrrRKxf8i+QuqCxX34N3maRp5fcfy318zMdRZbvAg7Y Ym+fETR1XU3NWWLJzcWLS/39VReirITRR585w0HlgUhzUZHr8hUwRyiGTygzRnV0jIWRMeiq0M1N 7geqwiPMNLRI8l3Ad7PNzUfEvDVmZ0d+8j+72bPBzJjA7ucPVoKPHGUDoqc5iD4AkfX03N6zl4/g ZZEaGgEwk/cW8PIrJgTbtYOj3A/UJiQAVZYEolgJib9GQAmJlMtXLMdPAPNGhGGBP8Sfv6Cyow1k JaU76n8c68IDkKSffhaQxc32XUEtxoyBRs/Wp6dbaOsSUbhFbvJzX+qSki3IIIqthCSYLv0Apbuj I8/B8c4LL4r6wDkyyikEHnqVDXoxjrto2AU70/T0xZAr6ChTTa1iBXfLwZJw4SKO9lHmGlqK6p3V paSQQxQcwnFnz6nmdFWGR3ht2wbO+aGEo7hHd4nKenQDX2aDXiyCYwAcXmmvqXFD8LIAzPjt2Qfv rbbW/qHZhM3JQkevITNTwaaQaA47RVWQxUrW3Z34409mOroCBUY1nABxisoadcGxzwJEwz/4kIPN sElbebkbmhfUa9t2aKBfT3fXnQMvEr2BFWwzYVJHba3cT1ZFRkGTXcJOnlKpuUr+9ZL7hg1i/I5N omuYaWhVR0er5uv2f+55VqiuOTb64ROgTEJj5YUYu/wjbRUV0N7y7OwHLrRA5fPeuq1XJpP7yYrg YBLOa2JTCFWZZJeulpaw90+CxSmE5xVgV9McqVQ1X7ffs3vZqOny7vsccoZBgM6Wfv0G0NmgJiKJ hmYJmovy1q6nBvQo7FW+866iTxZ5eEpIHbD4SnhPFSYq39HRbc1aqC3tXkPXL6r50tmp6XL3xLsc foZB4i9c4MOjFLAzIQONe7rY00usrjFwyGA1lH67rOjD2WbmuCGUDKIRD1rRbSktDTx8WIh0eN4z 8pCjb6rmS2ehMpqAy+UdFqlLTrYaM1YEiyISIAd7AVXQefHSgddPlADOs7VT9Pmkn34m98E+cHNR XUqK44KF0F1MbuiVakYvyLD6olu5+qIjQLIkpjbTpokRTLiBLx9UdJm85913dQW89Mrgowazmmhq VcfEKPpK1OkzUIjGfXv+gcxPe20tGJ7NlClCKuAciLgIOvw6lKn0wUC0p8djw0YWqnSHHH2DQ5Hy pCoiUqKmDl18ACEuS5e3V1Uh9nlfZC/G4mdoTEIIGPLGW1CIJv708/DPT09Hh+9TT98gNduS3Ass 9AyacvNU89XLujrdV69hAaJgE+KApCQpDwp2XbUahY7IdeWqhoxMpDXd1RV8+PX7bmvgf/33Pa/w BJbJfLY/SToMvDbMn38N8/yU+N7y3bWL0s3zfrKI7TtU9u2D3cdl6TIWIBp4UHXjp0a0ZAiEYg1N IQI+LbAKgumI3Sb+8OMQayde9MHVTdFXOhsbbSZNIfcugn/Nd3QazvlJv3ZNjGuq9PDZl+MuEqvs Auhua3Na+DAbEAX3H07YFnAttBo3XoSQCCrR0Mwxl6J3a6FvcB/YsITsCZPaFQQtAGnOL5Dq6ktI WResx4xrq6waptmRyRK++06irkFDuR28tTk8NEeVk0W7WlrIS3WgQvTOAY76jdUX09oadfqM5Rik 6r2WY8aW+Pgi9txaWuY0f8EQ2GOHSew3Z0m+iDlFFRdHIzRGry3bZAiWKubSXlVNeAslDPBJZM+p 8hHaSygvEyYxhSiYKb+9z3G4YlGCXz+KYvwAC/QGxcj19Gs3+EPUQiI0tzE3l+SLCd//wCfVJ4ct bqEhM9Nt1Ro+clgCyRHqOGceedXGBy4ddXVWxmNYgOjt3c9yuGJn/WVkhH/wgRjhfMAWqKZW+KkP utvaETuvS0qynztv6PsGbxAsenKvQ8gR8iqXPBFPLd/eQdnzUx0dYz9nroDR4fmP4pD0IOzPlKS9 tsaSFYj67nqKQxdzKQ8Kko4ZK0AwfgAA4wUafkDvvKW01GHOXLmWJyyd8GOydMKullaH2XPFpAyd zo8uUnY+V4HTTTA/QlhwFYr223dzrhqumzNdAXd7S6PRbEB05y4OYAyl2MvbdvoMEdL5gBEFuC5d 3llPgW6vn6heXk6punpFaCgZvItLpHoGJHwLw8ACmWdnb6qtQz4/4F+txowDx44EoSqcx7r1w3Nz ZgTR8nJLQ2M2IMrRkDMQcB0Keu11iZo6Ij7Bx4KPHG0tK0f/iaqICHD+yMUYFnnyBiQ8tTw4xExd g4RYTGpoBFR05U1Rhgmf4FUiX4cuS5dlmZlLjYwlCGEeKhLxTy7NhYWWBkYSFiD6JAdR2u+gyGfX U+hhpXyc9J1StFpnU5PzkqVCBdnM5lo6UIdqno2tSPEIAchv7X5GeVOU+NPPIpjxDDyduYEhuKmm X7/Oh98UsItohlCk+sujITvHgkx/QYaoz7btHNhoSE1snNOjjwmQPe9gqu3nziu9dRv9J8D9sJ9C jie3w9C3j0M7IQmgl+CGolwra2Xh84cfofjE3JsLFhLJd16btwgRPFXWY8dD+dZUQerT0ix09FiA qPeWrb0qr9armhS5uknHjkUP+wafdF60pKWgkNKv5Ds5KSIEISwr5YGB5D2AC5vvzl2KxinGizgp qU5E0s+/oODTTFuHiP5vLS2T6htKEPgoAl5+ZUQsktr4eKDmsABRr02bZT09HOooIMfR0VRHV4SM TzHOi1XiQ41Iuru9naTiIPh1u2kzOhsayDtpq6y0MhotUdyJ9+Ytytig065eg+ITZzzhDYQfVEVE mqlrwiCKGbeSL18ZEeukKgpCRoMKUc/Hn+Agii7lQUG206YLqeDTVFsn7uuzlH6lq7U1tK8GO0+B 2YmXYcKH9pNrbSPGeuANp92l2NPLVFMLik8zPb1ME8HAt4iSFqYwr4y5lnaVqjIV3ScVISFmappM IYrZr9dvUM10OxWUtGvXJZpa6Ocnpo5qaORRjwroL2TGU6Ts+e1Digm7vZukJiIPoLfIw4N1fJob GkH5RzGK6gv3UFSn/v4HSvlGp4cf6ensHBGrpfQ2WZEOChDF6m11dXHwg0plWLgpFXwCDNygdXHq bm11nDdfRFJ/RUOz8m4YtJ+WkhJLQ2MSLddh1kPsXkSrIiMtx46FlsAAUAx+/fWee1dd7Fdf8xEu ooGvjJisjyJPT2gwBhJE3Vat7uEgCpMSbx+7ufMo4ROzuB47TpJmLVcAZvz27hORHqG3dj2N0lXy pd9IVGXwT7Fnz7I4Rc1FRY7zFwhRStT87/R9pwK4anlv3Y6S+J70s4oyiQ2VPAdHMSsQdV2+givP TC6VEREWxsaUaDvAYvJ/bj+N34r69DQpiydmL8mRWqJ0FfCSQip0gn62LjmZrSnqbmvz3rZdgIAx x7nzO4ZYucDX7Wc+JEaAd6ZAMFKWTbbUUgRLGECD6NLlHERJpLOhwX3dekrB32Al2c2chZ6lPSDV MTFAlybPGrv19G6U9wUubM6PLVJ07GPOts1be1kyE4KTH+ifUBcxFgy8dGm1vJIWTbm5UpiXH1ca eYWuriNl5WQKhNCEdSSIYiUx2ttHymMPswAw3Hp2D1V8ggOhPj2Dxm95bdoiII13t508tbUcKXiw 7M4diZq6gkWPabkp7Lkukn7+GZpfhnuJprcpiHwscLqJUGd1lJmaRkVIyEhZPClXfhewAtGbjy7q 5iCqQCI/+phPhbkDy9IeO5a8nLYiib9wgfSNYrhKvvw7Ym8hbx0j0XJBK3Bh5ziqCAqyMEIy4SZc +E5RJxl8PvTAwTwumto1sbEjZfH0p+mqMYboI4+qeGrsg5ICRycRFXIAjAGIxyum5cbIEolEWLA7 j+xKsmw54mZaHR1jrm9AFjqvq9+Ul8d8ioq9vS0nTIDyAwMAJ37/A4mzJOHid3yEJHipvmFzYWHv CJH+4iDMIbrg4e5WDqL3S1t1tcOcuZRcoCaYrfJTej/n/OgiUnMUD3Se8N33iL3dPXacT3qhdVu5 mhVnuPvqNXwEE1Hw60fI+4n44EM+glPUaszYzrr63hEiMV9+xc4p6jR/QXdrK4fJwdJeU+O37zkq V1CemKd298Q73bS86onffy8mVfMIw3tbZSVKb60lJdZjxolJKyyxUtk65dIlktClgZFbT5jYALOc BR58FSVuwW76zK4mpUQUK0OiznzGDkQd587vamnhYDlYIj76+AYVExFYXt50E4YyTPgCUnVajCl4 BnVJqA6SXGtrErcqdqPT1qVhzbpPUq/8DqUIw6L8dPXK7tyB9CWToThF8UvZYyPoUhbRZ8hgBlEx xnQ4l4PoYOlqarKfOQtdxRUhLkR50lZZZTNhEvlvAQBHUKkBG3z4dQGpluu6bAVDLRdcCKUwPgEJ MsMQGIzHuvVIhODLV4yU6D8g4Xj9RRYgaj/zISWlI41EASvgzv4XKGWx2EydRg+fQKLPfEZul8fz trXrU1IROyx0dZNgnlUys3Di9z8wnKXg1w4jRRF9/AninLuuXIUCUbfVa0dQJFzoW28LWIGo3YxZ I0i/V7ak/X2VCoUkFuuTfsOE3m9V3r1LHqhA2Fruvn0MsUNZV5fbilUCSE1rTbnBA+iSJTEVIHhB LfT0mwsKkCDa3uGyZBkUolhW1obHR1DKR9Ch11iC6DRwBW/iwNmLGVpKbadMFVFJ1PZYt4GEBp5E gK7osnyFEJbx7Dh/YXMhKsNAtpmZCHYm28+Y2c3gXlMdFW05fgJUxQUnefq1a4h9YrVPli1Hguj6 kQTROwdeELID0anTOzmI4pL651/ogQp41MdjVKPkByTkjTdNYAsdnLHlQcHofYL9QghjCfLZ9iST HG7fHTv5CCpu/IWL6H0CRdcNVkGsT9FduWoE3UVvPfMsSxCdMq2zkYMoFsntsngJ4hGKaYxa2hUh ofR+q6O2FhzXUNItsHDR+6yJizfThtBwYIXwDtGvsgWOUHMdXQmUi2j2HEpuPNxctAHJXLR02QiK J/fZvoMdiNpyEMUl4tQHyFxh2BU0/OQHNPeC9vbbz+6FmlvAisy1tkHss7OhAdxCRQj5lgkXv6M3 7Ka8PKB1ixCGncGnnIxy6+ndKH5Rx3kjxoeP7Tvr4fsOGkQnTVHl8lLDI+AIMtXQRCzUJcDWyvz2 mhp6v5Xyx59QixQf4zemQEGe9MsvfIQYV/CARXRDc4NfO2yCEEhEr/5IwCGk0AUbbK2OjOMEnPau y1awA1EbDqK9veEnT/HR8ImFoU2aTNvL0lJcYjNxsgji8edZTZxUHYMaL95WWWk3dboIIcbVeuz4 tvJyGsOuTUgw09ASk24B2KVp1kP1qWk0+kcMALQ0HtNeXdM7EqS7rdVpwcNiDqLsbHidneBURDtC Mb9iBl0vC5DkXy/BjjvsJyjVFMqzs0MppIvliG6lGQIV+ibUxYdUkLenvb1HnkmWSGeDbjEWuvqN 2dkjYlGB09528lR2IAo6+o9DtMzfX6KugXILBSeVpZExOAnp/VBHXZ3DnHmwvBDsXwlqWUQJP/UB igoAPhNFK8q/JjbWTEcXyuhnCUtD6WppybW2lmvvSb9+41+WjNZRVw+tXMiZi5BE1tXluXETCukJ dnvU0CygW21e1tMT8OLLAgTqrdC3j6HTpjZmZQP1FUEFwAw52eYWVIfdXlvrumIl1EokxihLhORd 5Ts5JSrQDoo9PU15ahIYRM3UNMoDg0bEumqvroaWRUOG6NRp/2W/aJn/HRGaIRdjnX3nXdo/VOTm jhJ3bjl6bEsJhVO6vx4EvGKiuYZWTXw81WEDzdwE1j/YVny2PwntKuj1I3l29nL/qSkvT6qrj0CM MgpM44hYVy1lZdCyaFx0EYLIZEGvviYYhbiXTW8tK6P9U/7PHxDAPRa8pJ8oMNz1dHV5PbFZOApV XeqifqPxemITrCgoz1zfoPLuXfJ+KkLv2oyf2KKgFgvQge2nzxSzcd1VEcEyDWBl0ZDD6P/DMbrN RUVSPQMx2kUu/P1TtH+oMQdeJEuM5+5Scs1Xx8YB3Q+FFwLnNH+catkBjAAJdksXIDhasODhpcut Ro9VmFOFkXRuE/2LSDqbsnOghGkPKNNFJquKjKqOjQXaWkd9fWdjY3drq8oWpMD5wnkSBHO/mbZ2 TVwc7R+K/OR/0LgIsP6CXnudUrdp164hhltgcUWvHab6Km89BY0owKI4Uv/8i7ynYg8P0I/TgoUk 2Z4RH36EQnUdfvJU70iQhrR0C5jqjgpRh9ks54sCVUSiqSU1MAS7JlCubi582PPxJ/z27As+ciTh +x/AXaKtokJF5jHl8hWEJY4ZWtL+vkr7V8oDAsz0oBctnpm2bmVYOKWeI059yEcubUqVaSHbzFwI I1UQ4rns0PUT/Nrh66NGAZ2ZZLPufxcQXcBl2fIRkY9WEwcvi2aKyrrAdlAVeA3gZfDxWBbQwE8I 8SbAaeAwB/r4CQGvHEy/YcLkaseKoAQ6Y7Gyq9bQVgRkMhnQA5FKIRykHD0bePCQABmiyZd+Q++5 u7395sOPIkQp8kp8fcm76unsurnwEROYPpxrbS1GKLtkaTj6gS8bFKkMC0Mo9EaBXozluMcMvkDR 6USEoQnwZjNpcsChQ4XOzl0PIvCyo7bWevxEMYIXhNLivk+aCwstdPXgtko19fLgYKqd39r1NBpH PmZoSfvrb/Seq6NjTHnqEligv+eGjbIeSHZYXXIKOE+wUlF79pJ8rMzfH/e7QMkEeUVubqoP0fLA IDOeBjuKruPc+axDtLmwiJzhasCZRtD2OM5fcHvfPrCG6OVe0pMcqRTK50+4y+tTU2n/SrapGdSp I6RXTUgm89q0GRGiYAxZElP0vsGVBMH+PAoow9Cuwk9+QOzId/a/QPKxxuxsKWwvI9SN6NNnVB+i xT4+EgQzB5rTZfrMTiUQo4S9+54JcmKXCH+FYLXZzpgRf/EitLItKxJ6/B0U/ROrccQgwTLgxZdQ QudyLC2p9tzT2emOkGY5oLnk2dqh9wy0XGgUFFDkGjIgNGVdzc22ePwwtKgZOCfsZ8xCSex2X7NW 9evKF7q6ShBImJEgaj1ugjIgUZeaajVuvJgKjx6xMQvwQzXu/Hmlhnr1dHQ4P7oIHjSjoVHi48tk EiwMDKFaLjioaVRAwih/4HE//zj9C51dEHvOsZCinPw+25+Elr0scvcgiDwxiMJSVYMQ8l0wwmsD w8asLBWHaL69g5gtiFoajaZNHUAuCd99L6BSbeE+oJppank/+aSSyuzUJiaaa2hBE6BvPb2bya+E vfc+H+FY8NqyjYY5CoPocgoQRaTJ725vd1rwMHzz4qmV3roF7S3kzbeIGcDtYYdgW4MFQqQXhvbU P/5UcYiCKwBK1BrSy7M0NG4pLVXGKJvz8y0NjSTUDtJ7xibAdeCIjz5mfYTZ5tDVgOuf1INaB6Sj vsFu6nQUc1QqFUPOPxDt6nJfvZYCRL28ULot8vBEIbB2XrQE6vwAqopTfxY4SvXe5oICqT7c3Y9F Yr73vopDNMOEL2QLolI9g8acXCUN1HfHLiFdiA6MEPRgPXFiwCsHaxMS2RpY9Odf8GGxPo6z5zIJ jcwSS6AvCQ/AnEFTi+np8d68Rcj2KRr61tt8mFlVhBA034vVZY0066c4BBANeAlesNxv3/Mo3lGv TZtVNh6GkOTfLqP4w5BenrmOXl1KipIGGvvV1ybMIDpg+wXrRmpoFP3Fl91ssNfc3v2sAKbl+j27 l8lPhJ14B6XeSciRo/R3wF1PoUO0COXKIJO5rVwthG1e1mPGoZBOAO1gYJMC8+m//wD0K2nXbwhQ 9rUp01ScISX+4ncmrEFUU7s6OlpJA62OibVAUF0QGwHUW888m+/kxCTHtae93fnRRWIYgS3tGkrE Wvd5cgc0AF3EU8uzsaH9IyilUPrdiUgW3aacHEsjYyiBmMf6DSiHWPSnpwc2KTAVt5/ZA/1KY1YW NPqcyAosQbgJP0iInvuWNYia8dTLAwOVN9aQI28IWILowBWRYMerT0ujNyQs3ZY0x5IoCF3qf4f2 U3e3tNjPmAlNg7YePbajjr4rOPKT//HR/aJiCbTDhO++5yPEEt89gZSUFzjIQotZgJ/cgfItj7Xr hAjOsDsvvKjKEEWpXIgKUbAWi318lDfWQhdXER27LvyCajVufOIvv8ioR2y2FJdI9Y3IKx1h2QUM LqJYaouOHvQ4Aoc5E9bJxJ9+QSP+RYouAgej26o1QgT7VtpfSBHLt/fsHQxR7OxFIKoOfOUgiuvF etwEJXki2IHoN2dZgyhYjvlON5U3VrAEPdasE7F5kP4DJOzFb9pMlUygPjWVHD98xhkVaVevCRFc i7eeYuTUqYlPMIOVnBh4IigfUunt2xJ1dWi4ldWYsc0F8Dq8APCejz8x8N7xVLuFKBfILKFIiOZ6 SfrpJ5WFaOxXX/NZhCg6Xys9iT9/ga8EiA6cD+BthRx9Q9aFWkoA3JDBDVzxysb6zGbgbunFg6uQ bEVvvsVo+0MIAyIa2NGjYHFz4AMoXlyfHTtRxtYNLvyLFg+GqO3kqShpj+BsRKF6wUrjLnxYZcnp oz//kh2I9kVaSsyUOtx8O3uoq414i2JaKjGh9/psfzLP3h5FlaqKiCCJW8CY5rAKnOn0HxizFe0U IkAUXCYZzm3Up6dRrvr4iU0WyQgQhULGjxVW++FHlIF1tbQ4zJ4jHgRRS6PRiBShoceOIzwUFj5R 6OLSq5ISjVD/FxWi4OWlX72u1OHWp6VZwHLnAIYd5853eGgOYQ2SUMZqnxnpzosvkvPQ9eIlyUgS hbDCBCtXybrpJyV21NWhnAN8Nqpl18THoyQ9Ybfr6TNIEjtrk5Kh4VZEXG5VRCTKwDobGwcXxcCs Hjy1Yi9vpAWTkWGuo4cSwxD06muqCdGo/33KGkTBdpXy2xWlDhfbUGc+BC106//c8+CukiO19Nj4 hIWunqg/D4ZqQJLtrIcKSONRySEKZjb0rWNMnrcxOxsh4x6b+fTrNxjOLdAa3NeuQ+G5xhguExXG fpT4+EIJKHBldRoiR0dnQ4PNhEmD9incznQVtVwauKULkaq8LFfNGAZEYztqsi/tOh/oEn7yA2g0 D1CEmnLzenFLQ0NmZqZQ6Pf88wBLQoonqgiP773zysGKIPmEjuTpttjhdu5bJg9bGR5urgE92TCt HuxHzOc29fc/BGj2lbSrCi2x6QgcK+BF+O17DjHLpLO+/r6ERCxw7933EB8KJcYV8/dqaBZ7e/eq nqDw66NC1GTUqLiz55Q94nx7BxECC3sGn3/fFytCQ91Wr+HjSiw6UCV4kIOZjq5cS1hVZKSZQqWO hSjtIk9PaK4gYaijzcp73xSh5D1hIXgvKwzBi0RYUtjm9e15xFF11NdbjR47GKJYHtnadYgIr0tJ MYPllBMPhd2xVU/C3z/JJkRjvzmr7BG3lJVZjYUkeRMsz0O/29Xamvr3Vc9NGFskJecN9nPqGnff ffe+61NtfLziuzFNSujBkmtjg5CIhLu77B2Yzy1QKZ0WPCxEuI7aTZsB7slDewDaMkqNIGzz+v0P 2hDFMx9Ri8r0dHZ6Pv6EEK7A41VYVY//GiXJiYKiG/v1N8Mw6FtPPyOAlqacM1chSVxPT9rfV60n T6FxnFroGST++NNAkEBTjkICxb7UShdGGXBoEFVjSLkyWIDCjOJLxHJ3pNKhXwfXCgttXZQ9Jdfa GnXjABC9n3mD2q6EUYTCKOr7Duc161SNc+zuO++yCtEvvxqGQUO9o4S3o4HU29GQnnHzsUX8PvcM heMU4MFz4xNgLfbixkZLAyOxYogWeXgyedJ8JycUiAL9JZ6lKwbY15wfeQzJzfPRx3L2FGtrhIsf xv2FmNFGnO02Q6ihwAASv/8B9alkMs8NG1EijczUNeqSklQLosdPsAnRmM+/GIZBg7cLNkXy66gI S9GE0OG0lpWlXLkCVZvlniE2U6aEvvV2ZViY08JHRAohykNfiHIFv4uOQvEZRH3yCVvTWxYQYKal LYHZe7A0Ltn9JtDIjz9BKUyGlVQJQuVA62pstJsy7b53JCSoOrtRg0wqQkLw0uNwS1jid9+rFETB MhOwCNGoM58Nw6DbqqosjSGFaLCD5cJFlN4KbjqL+mxI1GIG+XjpBNup0yUKCArBKy9hFrRcFRkJ 9TFC7Tc0BBphi90Gx45rr62777Dy3rJViOK20aCQFNXV1GQ/Y9Z9r1tCsHxUVaE/FLgkI12zZ8yU e81+UBLyxpusQvTT08Mw6O7WVoeHZkNTwNCDY7PNpY6PPkoj+pdECyVSf8r87zB50paiIqm+oQSF EmXzFhaZslIu/07uOCGysdOv3ROpQnitxSjlPbV10TmWwOseSrBCVH+qjopCfyi0GABMRYr57HMV gujRN9iEKKPESGQB6o3HhsehAQyUGJ/bqqudHn6ExWS3PojSLcLdt+ibmxGKCPWZWFms1iHr6vLd 9TTUJmc/Y2Znff3At2riE0gjlv+ZGameYVNeHvpg3NYM5W2hZnMC0lpaajNxMsoOYqqhQqUNg19/ nVWIfvLp8Iz79jN7hDD2ZL/n9lPqs/TWLQvj0UKWUErcIUu8mHnDZTIfBEYYCe4TgtYUoyTVcXHm evqkCxqvLzaI1iTPxhbFuEVQ70GDKweLz7Ynh04CjdJJcd+cRcm5w8LCmKUlsChBrx1mVdFlHMyN Ou5DkEqB9PKzqqNjXJavYCXfjRWnC7aqzn2LsqqwHJ033mR3kpMvXSZ3wGDOrYfmtFX2XQgRWXZw iBq1FBejj8T/+f1DIYqVgdm8lVLUHjjz3detFyFoJdYTJlHaRJQniIQYyKfox58Mz7ihIRfY+9u6 jcb1rPS2n5BiQC9J0E+evT3DJy3x9pag1VyzNB7TwmqRkrbKSqsx44RknBLYjbTYs89qjRjwTQOi QYflKHvYnVZHj4j0RJcMgRAxyBGREULZEvDywREJUWieK8aLs24DDSIFmUwW+dEnYh5PwpTeAaP5 ybGwYPikraVlVqPHSdDsHKyb67LNLUx19UjUXQGeI0IcZX579yFylEn1KdxFgUR+9LG81409MrTe 4X3SkJVtZTwG6UaqrVPirUQWEVSIvvTKiIRoMqxAHYCo28rVtPN0Y778SsiYhIVSmJtC6ZGBvQax fjY4VVB4DKgdOzf4pNEI2IFDsBmh82WDcVJKo03+7Te5OzIWD7R6TS/FDBVwg0VhThdh6ThTHjhn CkKhEJWEaAafD70mua5cRRuiPe0djnPmMjQdsRURicLBMxCwwUqw7j0ik7ksWUYyADzcch64ubks WoIIUXMtHUp1kIlASFO5ui4WRpZB6YE6G5sc584Xoikm+U5OvQ9U7rzALkSHy1zUbzwkhegKUojK ZJV37zZm5yj695QrV4QIDA/kp2jw4deZP2ziL7+icX/hN/And7BeWSfP1s5M30Cxcojf3I4dd5wz T4IGUTN1TUr2ZyyVX35mNl4S8rfLlJ/IwVGiqWWKELXrtXVbxyDH0gOA6IEX2bXoDpPTpcT3Fnne sAjLV1pPHhKd7+hoO216bXy8og+EwPjUoZonRoTV3s7wYVvKyqzHTUCMUsRiNt5lvwgCVvxHXUPR ngj+3lxDy0xNA2Ufwd4aT6309m30X8cKRix8RO4M0GbZ9NmyTYBGpxZ8+MgDhKj/8wfYhOiwFWys CA4xUyPLdcaqyj6xWUZq0e1qabEaPcZtzVpFhvuW4mKbyVPFDGrJSPUNW9Fypsgl7MS7fOQKjhIN TYYhE3Il8qOPTRQf5ugENIQ7Kt/Bkdphsl/+SsXUpWV0CBPS/r7Kh1WFNe2viPkAiwX7PbefVYgO S4wukOrYWHNSEiMAUd+du6D9RH/2+fVRo/yeP6BImckUiRiQ9/LEamrM/S69OEOK1VjUCo7g2Z0X LyGhF6InHTW1Xk9sYiMAC6e5ukaN5ir50m9ybTx4pRIdGvUpwckccuQoit1IiNOmPCiKQLYhOiyZ Lr04FxYUorf37oP2U+LtA9b9DaySz8tynahtlZWWhqNpH6SY2vnBh6w8ctg77yJr3dgNTRl2gdaS Esf5C5kHYGHTcooavXCZv78C/zAPM8t9c47G47RVVdnNmIlg4uKxmJH7X4EodoqShoPiV5SX4CdD Xb3dNKz2M4ktNOH8RdoOGNxqtbKHjfpOJT6+YgrKJE/CU0u5coV1yiww89aTJjMMwMJrus9oq6hA /92OujrbSVPECnTdm488Ro/yP/3qNZSDFHNoGRo9EDep//OsQjRmWFK6e2G8XgREEdmfg18/QlQf tZk0Ra4/nWBDp3d0ELmRrFSjAjiH1hq776cFyiEfL7zpLFbXEDNCKXb0pVC0xPo/p6geIXbKZVtI aTxLV2Oj45x5KLMqwtLfjJvz80c4RL/6enjGXern12+iIDEvI2l6id//MFD+2W/vc3IDknJtbOne SHkm7OlIeXb2QgQLxz3O9+kzahISWJ//tL+vitXUmYRJYhU61q6ndMgn/viTIucTpjTtf4HmrNra iZBCPrGNYBg4LpUI0eFhACSkwMmJnI4AvMvkX35F6SpbYtoPP6K8h5zkCazU/NJl9BJKradOq4mJ ZeexZbKoT89Q2ixw7WDyrad3++3Z67fv+cCDh8CdNur0GbDci7y8Wkro1yzPEktEDIKZJbgtjVKa AVBGzLW0FTFFWeobNuXSrECd9NPPKLMKxmymp5/+97XeYRT//QfYhChD2lgK60MiIZ1TPJnQCimZ sMT3H2pmzHa3bIXcjyFSyAzdd7NMTVl88K6WVrvpM6nSFxL8+gK88fsbVvho9Fjfp3fHX7xIUDFR lQg8dJaJLQ3sF+g/193SYjuEIWUAouDvC13pu0agnHUDWx7m0/K/M3wQPfACmxBNQOMiYS6pf/4l IK3qaa6tg5jXD6615v3XWoKpsdhdTqH4Yg9PiboGJV0Xy1ndsxedXwdR4i9cEPF4zIs4EstaSJQt 1ze8vWdv2l9/18TH97SjGrdkMlns19+YYiXV6AwG810/vhH9wbFU/vWKUvmx3TDua/ocsWUBARI0 1R38kPu6Dd2tbcOz1FkOAKSaYktb+rMoFZ4bDg/NUUjSea80ZmYOLsoA1o3jvAVya+OBjZaStQYM g/WayOCqHP/d92AxsV5nlThjzbS0nRYvKfHxRR9SzBdfmtDSeLEIW129hgwKB3jwYYUUBBgLxMzZ nQxKufbn0/BQlKOg4Qo5CnjpZQGLNV2SL18ennFHfvgRn9Sc67vzKcRk0fbqast7spMwx7pcJTnb 3EKAfA/EV8xDnY2NbD1yd3t7trm52/r1+A1QzVQpjSfpq1XFC3jllWq0eICerq67J96hlWSLM+79 SKG2Zz9tgvzeMM+ZA/0sAgBv1+UrEfPp8Njg4fCUIiZRIFdGY1z8B1HI2SL4yPR/vTg/kN3Mewjm sKLXi5Z0D4nO6WpuGlzoknw2EAvOo0hleMTd995zWbpUSLHaBcNDVWo8OuiNNxApvICSTMN6hOs7 s9ETvjBnm4bC8Hc86nMTk5tFY3aO7bQZYjSUAg2/zM9P6RA99CqbEM2USHqHRfz27FM8brzGibMz +unkfG8WFcEMJtdXEUu2i997hM6Y2c04BK+1vAKotVIjY5O+ChdKB+d9+AEPa65vgBihGvvl1wKK lTgGp5sindidnU7zFogUsy5KeGrlISFM5jz69Gc30KYajNxry9ZeJddTC3qVJe4iCU4ykGtlNQz4 lPX0eD2+ieQ9WY0Z14pOEdLT4715y729Yc+SZ2c39LPgL1FqEIM5DX//JJNnrEtNjb940Xb6TAED kykrDcyMhYFR3MWLLUVF8LP06lWbqdMoDRinsNmOzo8R9t5JcgUq6gyjXI62ykovBDbggWMp+rPP WbcIDpbgw0fYgiim5BQMS/5rdwsZjy4WQL9jF6UO/ffdH7aiKPe1IS3dHFaDuI+H3pNmqYim3Fy/ 5/ab6+gI6dYaV9JxCpR8lJC9Mv87YnyPQ1eqzdQ1ahUXLL2//4BAvEDLKMVW4icYUgp3Nja6rV6D eCkFM5N2TYmVr1nj0e0rYeI6HDk7HTU195XKug9dVLkOht7IsXTTNWuH5rJhLNuz54igFWV0qBkq Celqackw4dvPmcunU1xc2Q3TSF2Xr6hPSYU+SNLPv4goHP7YvR09HwjMkr3iMtBYrMj4CR21tQzX GDhsEMtGg495b9qiRIiyxUbPSn0ERCl0cRUrLHSFV3OhGK45tGwGAbPaRDkVeCI/PS2AQdTS0JhS mmhraVn8+QtOjzwqpHyXu98eK8Z7GByiwMf/l+hZwozcEHRiNX5CiS/cJZPv4Gihb4DoL8XoKV4/ gj5dEWT2fEz5pMHDcJ+AS2/EBx+iGed4Ek2tHEtlXfFCjx1nD6KMydcRJe7b83zFF1HwX6reyNC3 jw2ZBbw6/Q2ToR8u9vImJ3QmMrnRWVhL/fzsHprNp2MQ4kkGAVKI1xS3HjfBffVav33P3T1+Ivzk B+EffAj+CwBwe/ezNx9+VGpgSISwE6CloUhjJaemTauJi4fP6ptv30DbDsRYnNMY9E2NiD0kses6 P7ZY1s3UiiPr6fF9ejdiyJHtlGnt1VW9SpAwtooXEoQ0FawSoiuYOZnP9ieFiiFqaWDUXFBAqctg eeo+ZniQV/+io77eDmKX55mqa6AcNRXBIWEnT5lr61AHZx8ypXr6QPn0f35/xMefZAiEVdHR7dXV iuhgutvaWoqLS27dSvj+h+CjR723brPHsyUFFI9WMPl2s2aBwZM/Hfgtz41PoNtd0JMNMM4NssLb PImaejHDOgC4NOXl2SjIgBu6oUfIq+bIXMLZKgGM07ppV8fG9ipZwKxZ6OmTWQs2bqKaJCnXro13 9YTcrgCk+bCKMuTc8ODEAHqUqbomnxo8+kILsINiydLUP/5szMnp6aSbjCqTddbXZ5ub39qzlzB7 oB+qAjx+C8q7hdld1qxFTPVymDOvS15Ql5xdsraWnMwJux9uf5IVd0jcufN8tIRScw2tBirMo6gQ /eBD9iCqrTsM5VNzLCxIzhw+rWybOy/IIVkT4+FBculF+iOEeSQvTGo8RhGbc2VYmMPceRTBqUYc d6YaGt47dubZ2zFnLRssxV5eAYcOgSu0ADU6Ajs3Ag4ehPob8u3sBfL4NYd2iMXBu7sjbi63dpMF Y4oJwvuSEuYz01FXBy4IiIyeWUqIC1BA800LolJdfXoJExT2/Z4ecMsi0XLNdXTRzff9r1sGVD6h PI5WzOoj7zXXp6Yq4Iy8B1GeGx6/LwCwPDDI78ABcCGkpNkSR5z9rNnJV36vDA9X3vQ25eamX7/u vn49WlYqtigDXnyZfLMA2jVixiN4RnB/Rhxqni15Bi8APC/f6SYr01ITE2s1foIYgeLIffXa7rZ2 dl9K1Ken2YMoVgVAuTnpHbU1VmPGkXhEXZevpOoTAzc3t1VrRPIgClSXqogIOcuutVVRVtTgVQJm FuiiA98qcHG1HDuOUsQ5EYgHugKqdWN2du+wCNA2g14/wkewLRPDK4aZ8ZsLCy3HjhchVEn12PA4 6kqor7eZMElMGsPAYvZy7Jdf8dEqweQ7shwaEP3Z56xB1BKrpVPSq0ypCA01U9NQtMTBBMV/e55q n2Cbl8vR2lfazNlFzsHb2em2cjVCgS2ehaFh6u9/VEVGgfNBQtGhgvtIeO4bNxZ5ePYOu6Rdver4 8CNCBFx5PrEZGmSbKRKLNTTIT2YJVvl7PLp2Sh6njbFGLVnKFg1idUyMmboGSi1m7y3b2L2DxPTt DowhKsYLm7dSIYyiIenXFJJB9WU2ZWZR7bOzocFa/n6MuVizzc3lfuuOvHJ6cqdFhJ/GQupWU8cF C0tu3ZIpOQSURFoKC50WPgzVUfmYugtncvNYux42Y9gpNFjvIJcS31t4hiePRA9HTOtHEbSkMOxH 82ztWHwLcd+cNWERou01NUpdNAQVmKJd03HufBpcexgNp5GxWEHhrSyRSO63Qt54E50ykxI4wYfB K7GfM6c+Na33QUtjTo7zkqWwUA1sogpu3oScBp9/YYJwCvlsfxJ5b20k13WxSu0vH2RrKqoiI001 4AcpWBURpz5gE6LnvmUNolajx3bW1SlxueTmWo1VeBEF7+P2M3todNuQnS3VlevFwdPrbshPr4tF Uz+oNvB0ZhqaAP9Nw840p0iacnMd50GKFIHJv7XrKRjac8EFHh47qWdQn4a0N8m6MWZGEWkMidWY sbQJjYZK4MFDKJq/9+atDIOEB0vCxe9Yg6jNxMksZjAPlUjSCrNYaC4t/sGqiAigiCqCaNo1+VxS mSIR66mbhFZMtWDmMEhleLi5gaGYFAymmlpQa3P631dhOfE4bzUy1WsYxK2P9Zb4w49szUNDVhbY QaBJFNiNj71azFAPHwWI2k2b0cWAloJccE7qGYq3TMzITi+gpDwgQEGoCnGKmij4VqApT03C3kEK Hs1MVy9TIFA1fBKSJTEVq6mR2HtQtBjwEu2nzxTDyqu7LV+BmJuWweeTL1+MweTQqyzOg/sqKJUx ZsJgkb44y9RUxBZEHWbPZb2OyIAk/fIrycsgElPoVd0ocHZWVIkAS1IXi+V+q72qCr1aGQo+zfX0 S2/d7lVhif3mLLkrEiWBAaht5KDCS4bq1KWmogyprbKS3PslIuJ12SvHQhrB/88u47fvebZ+EV+f cFsjUgCX4/yFiAFcNMR35y7FRgtG+kyGQCCUX88Hi3fJkVrK/VZPR4fzo4+J2ICoCK/ZXvCgS81C pbmoyFxbV0xaR8dl0RLyjbLk1m0JLAkB83UhVyILxl24pIDXbcjIYGsSijw8oWGSmF3GeEwbS94N sHGjWByRIAqWLCLpHuXFUVBgPX6CRHFQkYWefi3d2MPkS/KLtBOZ2UXyCDsxkcluPb2beQEiLLbT 0IgtM72su7u1vLw+La0iJLTY06vQ3R2s9SJPz1I//7qkpJaiIoYuu7hvz0MP0lwbMh2vpaTEasxY 8iQEAZVaEgVON0kpSzFViEViSrDCXRYtFQ2jrlt59x8SWaYQdVmyjJX6QkMl9M23BaS2df8DL9Lu POrT0yYKIGqmoVUdGUXyRYZGXSKyL+mnn5mum9bW0tt+YadOua/fYGlobKGjRxS8kQxKEAWHidTA 0HnR4tB3381zdKL5pmQyry1byd/FnQOQwg1Bh1/nw66jvk/tRjSKAsw4KmYz6js8wMrsYo27hKRu xWDjZeix46z8XFVEpAJzJnWIui1fqYwajLXJyeY6uuRV3FOu/E67/9u75dOQ47EQ+o05OQqP318v MYQotrk8t5/+pMnAoVQaf/6Cw/wFElzbJ1JAJYqbCN8UsP102fKE775vpO6QKHJzEytm8RXhui55 bH22uYUQloRgM3Eyevn6u++8R67rgq22Jp61wjZV4RGmsEgj/MRaygocoAXpKUDUY806dJIo1POh vc1r0xYhubmfp17m50/7/HGYNVvuHizGa6V1Nih0I2WbETk3NFEqxIuadjU308Fmd3emUOi5bZvV 2PGCfjoFKr/el25qPWHinYMHKRVW6e3pAXsxCbebmYYmeUp9e3W1HamNR4Ipijx05T/HQiqC2XVj vviSrTUJJt99zTqogxdL66eYtyxXsszM2bHoEuT/rEerVYaFQSkOLPWN2ugWqweHpKKcFTAvTgsf Ibldl/j4SChGDg0eNniu6ugYGmMuDwh0w5NRmPOPifsPVUpMIqFvHeMzq0kX8DKEvhmvEYwao1MZ eteM1AGGl+pZziJPX/SZM3wYRMFdozI8gvlvJf70MzsxumAWvDZtlrEXVEFI+PsnyZUi8K+3nn6G 9taQZ2+vaJX3PZHinrGUNG1dWhDFbBhYxSGKwwa7csqVK5ajxwhYjZogQiYCXn2tNj4eZRi5VlZC UgeYizyi8MECLibkrxXrZOmyHjSlrK2y0nr8RDhVDRtnGiHp164LYa4jySg1Vpgf4s6eM2ELot7b tvWyCtF8B0cRT400PYKoEeBI//kV14aBpi921tdbjx1PwzWKgX/zFqqbelVEhPWkSUqi1SUMV7ZT pqLUqupub3eav5BE1wUjLPYmW5112O6mQw4qc03tuqRkxMkJPPSaAOLI4aFQ1SBKsYcn7H6IrcwM gZD5b8V8+RVrEPXZvoNFfHY2NkKz3TFap4mT2xkwMt458KJAMUTjSeu9YpUmZsyiChgJXtqoiqIK BBR++7nzlF0tAi85Na8eIWyAnPMKy9UkLWOJZRdBdje84oYEte4juJmTTg7LlAgVQLWGOUL4LJV+ jj7zGWuKLlbpiD1JOH8BZtrGOZ0+/Ij2T3S3tjk8NEfBQsGWSKZITPL1nvYO58VLqEYvYBHnTz1N aZxJP/9ipq8vGhZOeozgD+EsLfbwIKnOhqsJW2XdCtXUns5Ol2XLRbAlDlYn4hS1lpfbTJxMnuEd +fEnbC3Opvx8KSxYlwafs1wBw2YNord2Pd3Lnnisf1wIJX1XUy8LoF8dEKhbiqjlcUOxGqSoTk+P 58ZNVEuY8GHIv0/KA4NMNbVEw1gzgo9QlB5c/8DtTqyYb9rS0Jg8M1EuGc19e1nQa4fRJ4qcfgUL /V2xii1zJlDxwO1XDBt/8OtHmf9W+MlTrEHUb88+tvBZn5ZmYWAkgYVZKaL/QpQcc4VMZUT6K7TO /O1n9wopEimAgxe9Bia4PoEzTUTXaDzAfC3u95ci7iOYjfeXX0kGJuvq8li3nuQ6irmUSZlc/Pbu E8ICGG7tfhb9bWbwBSS6LrFrsGUxArdxcAsTwcbvtWkLcxbCu2zx6GJ8cC+81MuSoJDkC7HUimeZ /ApRu1Yhlh5+FBqCE3wEqd7G4KUvl2lFPj5v3TLV0hZRv+uK+6lxLXT1wGbvOHe+3fSZYIGaaWgh OlEJKtB8ewfy3V1AQjiupg7Of5KvD60AMPQVuK2gEAzTWlZmZTRaQlp9NNvMnK0l6rvrKaihxPnR RcxDYuXxsNOFaODBQ6w8fFtFBUnq9j2uM2bVx0g2Asz6tWMX1ECNyHH6j6N1/kL0dwaurJSilwhk mqpr2E2fEXr8RMFN54bMzI76eqBodDU1gVmtDI+IP3/eedkyFM0ZU3ef308yPBI2gL5QeFdXcoST Px2eOzUHXUsC++nNhY+IIBnFX/WyJAEvvyKAj5+F3C/y6FdqEA0+coSVh0/47nsEvx9PwlMr9vBg 8kMkcfB8vCgdtIdYNF6ZAeNW4vc/II4tx9JSoqklQbXfYhZLcFTGfHO24u5d8sR6sJSroqPd1q2H XvWlhsb1irmbU//4U/EpileyJI0jjz79GRSi1uMmdDY0oL9Q/73PkV9HPTdsZCsAjkSJGBi/zcRJ JNFpqAcJW5XRMP71t95m/uTYXojALExkkHczyH3DjIpLlokUQxTFYh5/4SIiRAn9sxCtclxHXR1p /vr9hzMYg8+TOykxOzfl59tOnSZECfFRoEpkCoWKA9NwJ4eYzCoW+9XX0AAdrMAcFb64CFKlhgj9 pRdxSWN3JlLSOhhTBZHwdVGDKJiasOPvMH/yhowMlJAdbEc4+iaTH+pqbLSdPJXE44JSOhqcinxk iGK++GQkX3zU6TOI8UNgnHYzZ8VfvEhDoSrx8ZWOGy8hDfFxWviwovy1bFMzEoiC8af9fZVsiX/9 DRSipjx1SmnuilJ/B7+CmpiYXjYEGvTDFkSDDrMHUYY3Q0LyHR2htkdcj+IVeXox+aGqiEhF3ue+ Qoze8OitJLT4SeKFOc6bj3IRbc4vsCDNnB6suVlPmIgIe/lbzE8/C0hLjN1+do+iUxQK0dTf/2By CvWTpFqgP05zUZEl5gggq2uYfv0GOxCFEfP1QRQ5X0chREnpgqlBlEkUwYCkXL7CR9BysWSlOkYP nyVUyA/WFwMdGgqH6C+/IkIUs3i//ArKwApdXVEcJFhk1fTpFQiDJJHK0LskDEzg0WI+/0LhBEpM ySFKniEITlEoRDF6NyqIknV3uy5fQaK9g19MII0YQ5eYr74eeRCVW+qPmshk/vsPCBG03NC3jjH8 KRLyuP5MUXguZfKlS2hOF2zJIoaDRZ/+TICAT4e5cxsZV9DpbGy0n/mQWL4qwTPT1Aa6hqLvkoaS wyGKQLKOd/I7tUxg8vIKLJLc3j3xDoK5aDJzcxGbd1H0cC1F0tXUZItQzhG75zBjspT19LitVlhU Dy/GPhHFlpj822WUS2Mfx4onvO5Dd0cHSYT6AHhMqLC2k4siszbmM5gzt6ddoWc4mUyDIFTK62RY QuCswCgpSCMohkqerR1JdiXViCUSuQMjp8csmrNmM7dOsWbR5bORNVseHGyqpgHlKQVrFD0AQK60 V1XZKE5fIkgJUJzmyb9dQYQouF7WIlwaS/38JTx18g7B6ge6BiuFQ8BW5bF+g1yIYowQpH7RmM8+ NyGNE8iSmJF8Pfz9k8qAaG18goWWNkn5WfKHQp83aAAjZmx7hAU2L5QwHlSIMg8aTkKgGsFrDevU Jacw+aFiT0+SbGzcXPwGSj9Al0OBKBFO2FYFL7Qe8uZbfOiLX/hwVxM7noPm/Hyg0isqlpFLynsg tyjrYA8TOW0Civ6GQfTXS5SeqMjdQ8LjkUD09u5nmM9bd2ur4/wFUEJgjw0skBxAw7BQIQo21Lhv zjLdMGALdMCjzdCW3e92V1hHOAEtxiAVHaLGYzpgSXMY8ecj5MSfePwDe/Tq6TduyFULwa+4r1pD Ev+IkXrNmScmjS4qIg0sQQhvJu6if1B6oowbJkJSGzV6zRgSwcLoScvJEHMY+AoLFWXuHjvBZwui 8aQpglBBSVAiZtlv73MMc8dJt3A8MsbKit1T1Hby1C5YNY265GRFmTf3mJrZoNvobGiM/vxLyzFj hla2BX9jNWESOQNDdXQ0ScIk4YEko32RycgpqQZO8gw+n9JzRZGmbmFxv6vX9jAOMGpUWAeIZb0S SNi77/HZUnQTkKPb5C+a+nobBH53PmNaVPK4IqLyL6KDGx2iWCwbzP6eZ20jJuUr69MgGNvxa+Li XVes4MsncODhCdmQMq3kDlWiZDtJWgk4n10WLYFaxUSYtmxP4cFkMp9tTwpJIcoKlWzl3TCklG6K WrpcYS0ZjSFTJpDaJMgZgjdsVTEshNzR0EBS9A5zZ40Z11GDxOSQcvkK+l20vRpS2TEZ5mUljyWA Snd7e0VI6N3jJyyNjIWKs/DA4oOGQ/g/R5aciZMnTiXxN3Q1NZFnYA9EF5GTCQ59QMe588nrR7gs XtrD2NJWihFnklf0wW3a164zhyhKiQoUiOLlT5gxteQ7OeEuex70OGotZ0TFX5+eroj1j3iLzouW IG606E4Xqb4htB4htCAiue4E7ufgjtTV3Az+215b21xYWBMbl20hjTt7FihLvruecn5skZmaBl8x +xGGTx3dPBtb6CFsoUem5mHXsFfJfBtAiwaaMEKJMePW0lIK2kFCAvkuT1CfMYcojIel3++AXPaC RBAZ1aFWVrLyJ4iSfv06dLlj1dFXrJJ1M7KSlYeEkLh28Ezi3YhdIYYuEHfIirt3yXuL+fwLPmxj zlBQqQ0craFvH5OOG+8waza491oajwGbgrmmDhFkT7Bgi2B0p1g0z9Wr0KeO+/Y8H2bTIi/BmH71 GvRdYxf4KdMo+RVJA5761s9NNsqaJHz3PZykU00D6CzMIRrz2ResQBTXP+3tmQwFJZgOc4e8+RbD Zy7yIPO4UIpkTEIlpEcKN4UF3EA6qYqKlhoZCwZxLEhgWsngTRb8dNBBpDp/t3c/S04+bmlo3EAa +YTi6+tLiaZy4sV+c5aPQBLfzfguCvR8IUKaTmNWVi9jgaYEoUIUtAJXVyZDiUMI2sTiiv76m+Ez ZwpF5AEoqciX6qSff0GM0cVsMN9CbDDQyGxoFGGulY0Y232osQQS52f4+ydRTJ1Af5YaGkO0XNLk fswWoDDH6F51hiIPW9Crr0GZHNzXrmfIeY3VrRwzTgILLXJCy5pA2XdMWIGoKd0KvAMSfuoDqPIg ZsaaS0i/jUehMkme6HgPRJEzXVCir6B6GhYITR5lKZO5r1zNp0inBFZA+MlTiI8cfeZzAYwOk5x/ pDwoCKV6Mu5XpMbjASAthPMJMSVkJ/IcyLV0bPAvvdzLhkA3bmSI8tTL7txhMhQoR4sYL1JITlqF +MwkAfSUchQTf/gRHaJQGFTHxJKb8lEqHVfHxDg9+hhicD/G1fDQ7HQTE0SKoGJPLzPMUERWMcnh oTnktA9h772PMjwU389gwcy58+ZDKb+Y81SCq5ZACR5dRZJMdqJQgSjzy3HQkaPw1IEJk7qQ6fMU CUnRWOIKUY9cMTb+4nfoyWj+sKp+YGXbQuoRYcNrLioi76cxK9t58RITxRVfCM3WBPPjr4HamQdh oO3mgoVQZk1wTyPpBOcHnylCCPMUwdiP7pOW4hJLfUMJdHjPH2CyeDqbm8E7gtZcMtfWqWep7nCW WIJCcY4QN6uhVRXBKOolCBa02cfKySx1QNbT47XxCZIcFyvjMe3V1agQvXCRj0xf4rRgIZTJJfDg q6STgDM2+fhAB1afnnF73z6r8RME/dWZxP3MgHzcmeGzYwfYX9CftJeU0/Qe3xvp6VETF2+mAS9o i73r6TMphXnmWlqJEPTPoMOvM1k/+Ted8XgsSJ4DVhCEJc7efAcHlPxhpND22rg4JkO5+8670Lu+ 86LFDDM8sGqF8+aTOAZtJ07ubETN8euPLkIyyUj1DFphxLwFLq7Q6yg6qzpWffTCRc/Nm63HT5Qa GdtMnOy3f3/SL7/S2OBr4+MtIdW1MQD4bNtObowh5y655zEpMgQEHnoVJS4/8qOPGa3S4ydQ0lzT r17rZUlKbvmyUF8UP9l1aZeyJyTqk/9BY2uYm+MA/EjiWnDWsunounSOhYUYrcRo3y6WkAgZXlOT w8zZIvIYwAmTKDGJyWSyjvp6cGBSYtMbLK1l5UBzFiIY80p8IKWNQt54C2FTw9xLRVToHUlrf/zT sEjy8xeYrB9oDhqReFifmsYWRMH90QyWoYkEUewKp5jQEUWgSiOWprDtSYYB9E15eSTVODD9ahYF XbrM39+Upy5BgyhujnaA9plw8TtoYT+vLVuZR+oiCtiwPDc+wUcwkEBN1tXR0RYGhhIEd4vn409Q KnFd6Oom5qlBiV2Bjppn70B7KsC93Wr0GGh9bvdVa1gstFubmGiOQLg3CkWLa2Bma035/Q8BvJTo boYPjLGKaWiRQJQSvXK94qowcrUsFG6UitBQ2N0DY12IY5ZXhIrPxsbbe/aihBnYz5gFdQOGvvU2 wtUdJ5GhGIAO9diZDvDdIJvHhkrSpd+gQVF8lkq5DEhjTg60xBMaRBFiUMklSywRKR+ixV7eJKFF mFFn3gJ0et7O+gZbBC/8wFXNb9/zUC2gq6nZbdUaIdS4PXUaK1lpJFKXnOK5aTOKXspHyBYG9yAp dgQhkciU+d+hsI80N0PZZPotdg/TtmWAK5LzosUiBG0Chd4VXVpKS8ljRZAhamDUUlzMZCilfv6m sHLovk8yLWGaa21NckZRhWgvRnP6OrrFyExdEyh7cGykpFjo6YthCpW5vgG4DCsJn+kmJlYTJgrR HJj+L7wI1UsRDC39r4BKWQ0gNTExKLc1jOr5BH2q57S//uIjxJC7LFrcwwZnzYB01NZaGo8RM4Qo XnbKqJWKDWOoNBUUkB/o2BVl4xMMtXxyzwHGdjuHWh2ODL4Avaw9Oglb3NlzKIHmEnWNYmZ8wnLW RF0dQcaByOXr9PAjUM4XmazHZclSEdqBnESxcm6Bo5MY/gpwh5BQRG9OwAbkqjjHePDgU367zO7r AHcNOwRNDQWixq3l5UyGAjZOh9lzRaSxNVT316GSqZg+l4a5qBcvyGUzabIYmfDaevxEFLtaT0eH x/oNAgT/odTQ6M4rr1TC0mhQBKiXgYcP2z80W4RW6RBLXtPSqbwbBj+Tr10XqUHNOYTRfl0nRdd3 +MkPUCbKavTYlsIiejNTHhAogXk+8MqUS1k342Hp7/DdAQWiRsatFYzSOMFOe+upp8kTha3Hjkd3 WsqHKKwKpd20GVQDmIIPH0EPizUh5Y8eLEWeniKeGkogDujTcuy4tGvXacd1VEVE3t67T8Lj8RXH JA2dK8QkYbAwrCdMEqEZijJMqMXNgVuJ/cyHUPh0sGqfdCXu3DlozXjmfCDyYdHT4/nEJlYgOrqt sorhaMizsTBLg4ZmOYOy3L0woxRmhhk/gar/sMjDU6ymjqjrgl/3WLsesTJs+o0b5kZGYrQDDdM5 Fz6ScvlKqZ9fcxHcLtDd3t6QlZVraxt1+jR4fXwKNYL7kr9RHPSyrq7gvtBOODeFzbjxVK9LOHEu D9q5gAEPfXNBgd3MWVCOCDN1DRRDAw25/cyzQnYgSiWaTK7kwy4V2I3/nXeZ/ESOhYVIcRalGDdN U63lLJPJvLdtRy7XzQNnY66lFWLnAG/menpi5KxUYhjgdfju3AmwlyOVVkVENGRmNRcWNhUU1qWk lN25A9TO0GPHbj62yEIX65mPdu28bztIv4ZUyqEiKBixQLiAevYZmHrPdRuEo1CSJXnFXjQv7UGH XkXJZL6z/wBDp70iCTx4SMACRI3HtNfUMBxKS1GxlDQSmkikYHIdzbWxIVkxiPQIQwWRIWXgIHWc twD9rI785H8mFFDEI8IkhDj2RHj4tIWuvtTAEMythY6uKU994J8kVE7OgcGbautk3EBVR0OPHUe0 eJtgJXq/pjTtQD83RYj4xWPItRtoxbVXhoWZamqJYT4w8JmKsLBe5Ujo28f4zCFqhcATi7IpepMy uBF2uZQ//qD9C7hrR528eFaGkDIJU01cHJQS7r6rEdBeEPea7o6OHEtL2+moFUfvux1I/mFgGMAk j2o/A3dFp0ceRa/1lPjjT4hXACw6etr05nxq+gsKpb1pf811esV//Z/fD009A4NPvnylV2kSSco8 SgWijEspAok/fwHKbYEFANE9SOtgPIN8Wpzdsu5ut9VrBMgQkuBJJ5SS4Et8fCVq6gL6AGPUiAHf fu75lhJUvq8S31tApUdU0fm0KLzd164TolmhcizoEGu1FBeDKwPUQe04Zx7D0HFyifniSxWCKDgu oBlPklFq5XcC6PXfVl4BhkruffXb9xyNnovc3SVYNREe+kHquWkzuCJS+Ak3d69t28XUtVOGjVCb g48c7UFeiD0dHZ6Kk/6GrvKbjzyKUlDjnt02OQWP+OXBrxVz59FYnD2dnUGvvgbLy8HwH3fuXK8y JR6BeGH4IFoTnwDVGPuu5rQEq3Qwj6waB84BO4VeUkj4+6conXICnJCOalRW3Nlz4j6zEG948CnR 0EylSBl199gJ5BHSDJpDMaL0813RqaOXiLPeSGARub5PPd3T1dmrTEm+dFmFTtFOLCt/FjSMA6h8 xQi1AIcK5mUi3d2x3UFNvTwoiEbnTfkFUkNjStZRE1rl9Iq9vJyXLRcoGaiEcmuqqZUlMaU0vNQ/ /hQiH/ViPHurMSeH0k/Up6UrKBh1/yNYjR7bWkY5qKa1vNwaVhtBjLujwUh6lSwZAiH0RQ8fRHtx NzFK7JvVpMn0QmqgDPx86qbFAQl96xgldi/MnKOhEXbyVHcrtds1mG2AHN9duwiCXLaByiPsveEf flQZFk5pYPkODhJ1DTFq3DL2Q1SL24OL3+1n9gjRDEW3dz9L4z2CBSBAoJjItpD2Kl/y7B2gLPDD CtGm/HypvgFKei69WpFQZk0ikotSvuKANGRmWhqPFlJDKRYeFPDSy/S8amlXr9rPmSvETzwR42sq oUKDrqynTc+kbtmujo21njQJ3fLMp3Xzr09LM0WIm+8Lmv2dsv2/OiraHJbGwMeKrO1QqpVoQIq9 vU1hb3ZYIdqLVlMRbCoW+gbFHpTVXWjWG5E4T5unOMvM3FRPjxKZLaFSRv7v0/YqOhFanQ2NGQLB rb17HRcslAzyeaIfrQSdlwCPtXZbuzbhu+9pRFwXubvbzZwlpBKiZD1xElUVF0jqn3+iaPhELda2 ykpKnTfn57usWAkt7+u2em1Tbm7vsEhFYBA0lWe4Idqcl29pYIRCQmWmowsl47hPSv38YDyumKcr z44+uX78+QtUvSMSXHFyfPjhqqgo2r/b1doKruhAO3VevAScM4L+o1U8xDVKNFE/4ZiZppbzkqWx Z881FxTQ8x/mSC3FuNaKrkuD342/cJHqD7VXVdpPnylGY1cpcLpJtf/AVw6awNg/HObMa69lbbVD pSYmBloCBw2ijKOLBovnho2Ilw27aTMoBTZhZTxhD4xljX32Oe3BN2bnWOjqUY80wMyP9jNn1cIK k0Glu7W1IiQ05crvQUeOeKxdZzNhkoWevrmWDtiMzdQ1weNLdfWlRsZOCx8JPnoU4ATsC0xK+iX+ 9LOpljYlOxkfYz/ZSCPuP+4sNKK9b2F4rH+cqiKKOXJIL1lEvGQGswpjVKU2OclcR5cpRMEFDFqc j9pb//EntIMIO3yiPv0UPY+0s7ERoBpqrLOfMau1tIz2+LMkpuaGRmLqN0MRrv4l/XqJntI7VMCp 2FFb25idXZOQUBESUhEaWh0dDdT4tqoq5hUNapOSCOeHmCIFvvOixTQi8mri4y3HjkM5QjFbjqkZ pc6B4koeC4EZn42NWaySjigNWVlSPX3GEDUa3cbSkuo7B9rb3desEyKzqocdp5BQH3z0DT5Cem7U 6TNMHqHI08tUS5uG/YbYqp0eW8SwTI5Spaup6e4775ppa1N1/GBaN0+tKjKSxo8GvPQyInWD7eQp lHQrsHG7LFrCJ8UneNI8ZrXF6ElzUZFU34gNiFK8l0MF4xlS10Dk1wOTm/bHn4g9Z1tIhQh+Hcsx 4xqZmQSCDr16A7k82dB9R4xz2AO1WbXQ2dNTFhTktWUrn7oBmaDbpneJADcpm0lTEHyheOrmL79S 6jyDzxcoflMi/N6OzmDMrgBtDkpfhAZRhind8iT6zOdC5Axj6egxiCwhHfX1DnPmihEyjO4ef4fJ +Nurq8PfPymiidI+S6/NpMl+L72ULR0OFxy5gF045fc/PDdtMlVTF9KJ6R9lrqubQ8uXCLSq23v2 IOaFBx58lZLPLFMotBg9WqzgHYEntZ06rcjD80FNe3tVNbhIiplC1NCotayM9cGBQ8xMU1uEHOpp YTy6MhQpniHigw/5CJxxdtNnUmIbkyuhbx0zQWPEJjl5wGB8dz/DvDAcPcH8OnyB7cxZRDVhCS18 AoUCTDu9ASRf+s0EYafDmWKMKUU+F950BsqagjWGHcjSceOKKXoN2JWO2jorGMMYPMzK0sCopahI GeMD78ZUGzU8XYhbRFEcVpVhYWYYgzAPargHq4qhhxocPr67nmIcV9AHVO9tT6b8/nupn58y1Jb7 pD4jo9DVLfrzzx0emsMkjAksL3M9/fBTH1CibhuQirthQEUSo9ERhrzxJnrPtQmJVmPGycUncfkE 22I1AzcYO/tjfb3V6LFMISrVM2jMU5YnN+OGCbquKMAzSFCWgvvqtQjMQJjilPgjC0a8xJ9+Zp6k IumP/gFQATvrrT17s0zNGvPzWaQ/BypiZUQEeGTv7dvNdfUk/VsD7RhDYq3nWFnTHpLnho0CNA+c w0Oz2ypQbSJNefmO8+XWesMMAWBPSVQCFxEdiDY22E6czBSiFrr6DVnZyhul9+YtJsiZE9hWevQN 6NEXcuQoH40WSGo0urmgkPlTgJstv2+5M42hlfRXOiMIdT03PhH71de51jbNBQWdjY0YoTNaOCHA NvgwuJzXp6Vlm5qFvvuu68pVZhqaAwotwz0Fe1gtLSaVVAqdXXCrIQJHtoYG0FoRu20tL3dbJSfF l9gBHRYsqAgJUQV89uLs59BoDQSIauvVp6Yqb5RNeXm3+ioXIKFUgCmokNJaleERZjq6KIczRoS/ +xmGdRN7cRdlwU1n5yVLBWwmfPIk/TQoOPeSgc3kqc6Ll3pv2ea76+mAF18OfevtsHffCz95KuLD j4DSHv7eybsn3gl+/Yj/c/t9d+7yfHyj82OLrcdNsNDBYi34bAT6DgwM7KrOy5ZVRUTSnrF8RycL mKVk4NxDJxDrqK11X7f+vrdA+Lrc1q7LNDWlkRyjRIi2tNjDikqhFS+MT1DqQLvb2m7v2WeCTvGq rQN1vgUefNUEzfUKPhZ89A1WHqQ+M9N+zhwTiu5+RDWYOF0JnjHiQCBC/O5rxN8TnxmIEGQxXYZY 7t7bn6QRgjsgbWXl1mPHIwaZ2UyYiOj2AyqDz85dAwrUQCCk1Mg4/IOP2lkNkmMLog5z5jGGqKY2 wxLAKNJSWOS9bTviNi/CiXbIz/YaLDMDiaiaiKGN+fIrVh4EqM1h75+0MDAUPiCiE2U2TIWxMDaO /eYsvWyhPo2jpyfiw4+FaOyeluMnFLm5IS2h4mKvbduJEELikmyhreu8dCm4gwBVX9XA2Xc4tbZC i9bAIWrK0ygPCBiO8cpkmWKJqYYWigFDgFfaIWfHzrWyEqBhntAnIyiWpiWR8uBgl5UrhcNOdKI8 cBKL/vbefbVJTMOMw997HwWfElxdKvP3R9oZ8/NdV6wy6VcfLPQNgBpVm5jYzSA+eeRAdBSv9Nat YRt0xg0+2DiFcF0RD9qysyN7/vZ2763b+GinGWHeBHc5thhTgQ4Tdfq0qYaGQAl673A2wnZlpq3N SghO2tVriPvmjVGj7rz4EkqfFSEh4H4hwK/rbqtXp/7xZ1Neniojc/AicZg9l6miC1qhy7AGlDbn FyRfvmw9cRI5UzORNNhMWswDXD9C3nxLhIxSIb4sWAzVqAyPiL/4naXRaMEIPFGJ6EvbqdNS//yz LjmF+WwUubpJx4wVowUS+e3f31oKJyUEmlSWqVmaiUmpv39zQUEPrYS7BwbR5mb7GbMYQhRz8eda 2wz/6BtzcsG2DTQWQnuR63gECyj07ePk/YCbj/PiJcicJritcsnSuhQ2jdgVIaG3nn2WOI7EI+CO yiMswGbqGkGvHa5jnEBHSIm3j7m+gQiNvd5jw+OIZnYW/cbDL2B/gZaxRTJ5Z/AFD+oZqiIjo06f 8X16t930mWYaWvelMmPPpqFZHhQMWRy+vvbz5wupkHrcfGwRPSIysjPE3d3vwAH7WQ8J2fR/sHxs EmNznL8g4OCh8sBAtp69PDjEcvQYEZoJ12r8hOoopdRQUTmI1tdbjRnHEKJqSioLRflhmpoAXJMv XbrzyiuYu2/8RCyVGbctua1aA81abi0pcVu9Bh2lGITU1ELfPsYi48TAg6T+9ZfTo4+JWAohYMuj Q6gqLitWZIrEXYyjl+/Zm1xdpWj4xFJqJ02ml842EqUdoQowfNaA4hd/7luVerDu9vbOhobGnJyq 8IiKoOAy/zsoxAJA2zTV1BJS4ZUHz+67cxcL9TKGPkJbe4GLi9fWbeYYGdIo2iHsbMVFWOjruz/+ eKGrKxNvilwBtyQzHV1EfJrr6VcEq0rozzBIW1UVlBQfCaKx1OssqKYAzc2VyllK3Moc5s0Dyjbz CCQ5IpM15OQUurolfP+9z46d5lo6/P77qpLgOlC4SYDTGnlv3Zb4448Fjo5NefmsX+oA2uO/PW+u r4+o31qOGVvg7Nz7X5KW4hIolReSohvzxZf/nkkpLbXDE6/QbTYi/Di9/ewe2tSBiFITG5t8+bL/ gQPWY8dLBkULDcQJie8pryR3/DzT/nJM4kHRSANxSES1ZaAapPz+R3VMjJJq8gHpbmm9vXcfYvVE 7P45YQLrl3/Vl8bsbKmeAQsQjf709L9pXkp9fZ1XrqSYuIy5AWwmT0n65dcWiqVsaUh7dXWxt3f8 xe/uvvOO//MHvDZtvvnwo7aTpwKlyFxTWzyI4I+Pbx8mg/BMgNlMQwt82Gbi5JsLH/Z8YpPfvufu njgBzjSgyg5DHFxlWPidF19EjLvGzs8JE0q8vXv/e1KbmGSurcsCRCNOnvqXTU13a2vQ4df5FLOx Ca+J1cRJcd+e7+7oHLbRYjkrbW2djY3g6gKOvnxHp0yROO3Pv8B+kfj9j/EXLsafv5D4w4/gf9P+ +jtTLM6zd6gMD2+rrMQyY1pbh9ktEfHRxxJ1DURuKjCfrqtWKzVPQ5WlPDiYKY8uAdGwE+/8+2an o7YWHC/UQ394RBy5z86dYH6Hh7N8pEh9Ruadl18RIgddEtY41pmxRpAUe3oyZaMn/MjBrx/9V04Q OGGyTM2kRsY0eHGxU0JNw+Pxx8HZhRIE8++WuqTk0OMnLEePESDzUUmwoOiPWfdpjSzJMTcXMSy7 REAUMVRyhEqura25kRGNCrwDPAk2U6emX7ve1dT8L54lRSLr6or95qyFgSEfVR/BdzdNrRyLB0+q 9sAFWoUICaJEZfh/90yBm5vPU08Jaca788T9ETngjloWGDgMzEMPXnpkdSkpKX/84bHhcfR5I+JJ nRYtzhJJOHz24lW6TViBqM+TO/4L8xV34YKZljZdLh8eYWU15albj58Q+fHH1dHRsh7Zv2+Wejo6 ciytPDZtMtfWoVQHlbjDh5/6sLul9d83LfTk7jvvCliBqPfmrcpzoKmUlPn5E15T2uljA8xDZppa nps2Z4rELUVFIyv9YqjIuru7WlrqU1Njv/7aZdky0T+xUDz0q7uZjm7U/z7lDGyDJeCll1mAKHgf 7mvWykb4IkOXpty8xF9+sZ44iSFtgqQ/vRirGrh6TcArr8SdPVd25w55GrpKAFIm66ivB8p/6u9/ RH7yCVhGno9vdHhojoWuPg3GQGLD8n/xpbrEJA6Tg6Wns9Nt5WoRKxB1Wby0p739PzV9QE11mDef z0I2Nm9wpIGEp2Y7ZVrQkSOpf/xZFhDQ2dSkImulvaYWYDLt2vWoT097bdlqPX6imYamYFB4E42Y RGKTspowMd3EhAPkUAH7oPW4CWLmEAVdOM5b0N36n7s/tFZURHz4sYW+AYu0CQNqMH5rVbOfOctn 166YL7/KlVpWR8eAdwb0SdYD2QcEKJngPXY2NrVVVJQFBuaYWyRc/C7o8OtgL7caOw5gUtgf0M+Y lIxH1EpxfOQRsNlxaJQrLSUlUn1DCSsQBXtqZ0PDf3Me65JTos6csRozjm26MN5ARDtxVptraoN5 dpg9FwDGd9fT/s/tDz78eti770Wf+Sz+4ndJl37LMOHnWEjz7O2LPDxKbvuVBQQCmJUHBYM/lPje KnJzz3dwyDa3SL9hggUe/fgTuDdGfvK/0LeOBb5yyP+55313PuWxboPTgoXgGLc0HmPKUxfdGzPI FlEgYRbyfGJToZu76mv1D1AqQkLMEIqPIUEU3KZa/wuOBMVSn5rmtXkrsaCVkYMi6Ufs4MD3+zg4 7yXdVAMYA81MTQP7Q//5PDho3mQQZ+d9tJ394fjskj/wiHwD68lTUq5c6W5v+y8vGBTJEktQLvZI gVoWegaNyiSkHxHS09mVIRT6Pr2bcDYMex42kcLSl8WiuPEUJ8EocWyEWuv0yCMhb75Zl5LyH18q iBLbV5VcjQWIgq0asSrZf0GqoqKDjxyV/HOi/svIculkn9pOn57822/MS4P/pyT81AesQXT4SQBV X8Ddz3P7djNtbcEDIExQCXASViWpkXHMV1//JwKq2JbAg4cErECUyBhKvvQbN6dDpTYpKeWPP3x2 7BQp7ZqqYo1HWKQtdPWCXn2twNmlOb+AWwZ0RCbz2f6kkCWI4lndtAqk/3ck38HR56mnzDS0BpwW /yYFeLCvSGo8OvJ//1PZEgwjRXo6O12XrRCxCNHQ4ye4aYVKVURk+KlTvjt22uDBSSP9sjqATHNN bYe58/0PvJBy5Xcm1ZY4GZDO+nqbSVPEbEFUgCW77OGmFV1aKyqyTE399h8w19EV3EPGqepwHeA9 IgI27GbODH//ZE1MLL0i3JwokprYOHMNLQlbEMW4apetUF7Uy79Y6tJSU//80/OJJ6QGhmZq6sJB dT5V5+I6WI8V4wkAtlOnBxw8WHDTufM/mQQ7DJIlliAGwyCtEvDarEaPba+u5maWnsh6elpKSsoD gzIEgvjzFzw2PC41MBKzFm1HP7apL3J41Cj7GbP89u5L+uXXfAeHqqgoLipI2RL65luIRUwQM3FH WejoNWRkcDPLDmK7uwFiC5ydo8985rV5i+3UaaY8NeG9BXwHwoAQiDnvj3C4j6dzKFUn+LO5to7d 1Ol3Xngx4cefin28lcISzIkCAQqp8yOPitiFqClPvdTPn5tcJeBV1llfX34nIP36jZgvvgx5403/ 5/Z7b9vuumy5/cyHbCZMsjQ0JkjiRIOiAk2GFOc2uZd0lyivbmloZDNpssPsOa7LVvjueurO/hfu njgRd/Zcpkhcm5SsInk2/0GpT0uz0NKRsAhRwjWadvUaN7nDhtuejg5wsnU2NIDztiI4pNDFJUti mvbX38m/Xkq4+F3s199Enz4T+fEnER9+BP4b8/kXcee+jb/4XfJvl9OuX88yNS10c6uJi28tLQUq K5Y9o9qVcP9rkvTrJXSuLArFwtgqNc8JJ/9xCXj5oADZWIj6OZyq8wg3uZxwwlA6amtt0Tyi1CAK rjdeGzeN6HKrnHCiClITG2umrilhHaIA9LaTp3K2eE44YSgFTk6U4kMpQFSqb/gf5w7nhBMa0tPR 0dnQ0FZV1ZiTUxMXF3LkqIBK1AqFSptmGlpJP/2c7+BQ5OFR5n+nIvRuTXx8fXp6U15+a1lZe1UV ADAYSmdTU1dLS3dra3d7OxhcT2eXrLsb05D/GzSfnPybRSYDi7mnsxOsbbDIwVIHa761vLwhO7sq IrLktl+utU3qn3/Ff3s++sxnYe+9H/DSyz47drosW24zfqKlkbFUz8BcS4dqjAq1ikP/EHPw1IE+ DX7PQkcPnK6WhsaWRqOtRo8FQ7GbNsNh9lynBQ87L1rsumy526o1Husf99y4yXvLVp/tO3x37PJ9 6unbz+69c+CFwIOvBr9+JPStt8NOvBP+/smIjz6O+t+n0Z99HvvV13HfnI0/923Cxe9S//wzQyjK tbIudHUt8fEtDwqqioioSUioz8hoys1rLS1tq6zsqKnprG/oamrqbm0D08cxtXIiH1/d3Ri0AK5q a1srKpry8upTU6ujosr8/YvcPbItpKl//Bl/4WLs19/EfPFl1Cf/Cz956u7xE8GHjwS8+PLt3c/6 7tjpvXW754aNbitXOz+22HHufLup08GaB4vfQk8fHGCm/YykfHhtWGVBVM1UATGHeEgTDWpCeU0w qPHlOeJN5DBE8szUNMBcYFuDrj7YkywNjbCtwXi09bjxdtNnOi18xG3lKs/HN/o+ufP2M3v89x8I PPRayBtvhr37XsSHH0V9ejr68y/AC4g7923iDz8C8GeKxDlSyzwHh0JXtxJf3/LAoMq7d2ti4+qS k+szMsErbC4qai0rBwpCe01NR3094WMktIM+1YATJR9aPV1dmIsYHFmNjeDIAupiW3l5c2FhY3Y2 eE1VkZEVwcElPj4FN51zLa3Sr99I+vUSOMRivvoq+vSZ8JMfhB47HvTqa357nwOnmce6DeDYAEcI WDAAV1J9A3DAmGtqgfNGMohI9b6wkMHMTwP8TyJ54V9KypRQ/RRknqliwh65+8LQXUBRII7oXvI7 DP9ANdDUsdDWxbYAfQOpgRGhIFgaj7EaM8528lSgINx8bLHLshXu69Z7bdqM7wXP+u17PuDFlwIP vRp85ChYE9iOcOqDyI8/wTaFzz6P/uJLYl8ASwfoBVgh0J9/Sb50KeXylbQ//0r7+2r6tWvpN25k mPAzhUKwa2RJTLPNzLLNLXKkUrDsgAaRa2OTZ2uXZ2+fZ++Q7+BY4OQEVmShs3OhiwvWXF3BFlPk 5lbk7g5OA3AN6fsv1jyLPUHzQmvYh/u+6D7Q3EHPoP9CF1fst5xdsN+96VzgdDPf0THf3iHPzj7P 1hYoeGCoYMA55hbZpmZZEgl4kEy+IMPEJO3qtbS//gYHFHje5F8vJf74E1YQ9dvzsd+cjfnq65jP v8BiMPAjKxQcWUffCDx46M4LL/rt2eu78ymvzVvc1q5zWbLMYc48m4mTrYzHYO8CQ5ehVE8fvCZz DS2MYO1eOkVFACPB1SDaJ5WDwH+LzkMe+CGEXSQKglyNgEQpMBmydARDlAvRvU2soEkedBPDVCcR qcZkIi+GUSBvWuTOg6JR/St5pP7LEFWJPUJRk/zTHjwg0VrfgEmfi3vpHES5xjUOolzjGtc4iHKN a1zjIMo1rnEQ5RrXuMZBlGtc4yDKNa5xjYMo17jGtfva/wGGHv7LyEUJwgAAABJ0RVh0RVhJRjpP cmllbnRhdGlvbgAxhFjs7wAAAABJRU5ErkJggg== "
       preserveAspectRatio="none"
       height="6.1838984"
       width="6.1838984" />
  </g>
  <g
     inkscape:groupmode="layer"
     id="layer7"
     inkscape:label="card text"
     transform="translate(0,-22)"
     style="display:inline">
    <flowRoot
       xml:space="preserve"
       id="flowRoot7168"
       style="font-style:normal;font-variant:normal;font-weight:normal;font-stretch:normal;font-size:8px;line-height:1.25;font-family:ori1Uni;-inkscape-font-specification:ori1Uni;font-variant-ligatures:normal;font-variant-caps:normal;font-variant-numeric:normal;font-feature-settings:normal;text-align:center;letter-spacing:0px;word-spacing:0px;writing-mode:lr-tb;text-orientation:upright;text-anchor:middle;fill:#000000;fill-opacity:1;stroke:none"><flowRegion
         id="flowRegion7170"
         style="font-style:normal;font-variant:normal;font-weight:normal;font-stretch:normal;font-size:8px;line-height:1.25;font-family:ori1Uni;-inkscape-font-specification:ori1Uni"><rect
           id="rect7172"
           width="137.53227"
           height="40.305088"
           x="34.648232"
           y="87.078377"
           style="font-style:normal;font-variant:normal;font-weight:normal;font-stretch:normal;font-size:8px;line-height:1.25;font-family:ori1Uni;-inkscape-font-specification:ori1Uni" /></flowRegion><flowPara
         id="flowPara7174" /></flowRoot>
    <flowRoot
       xml:space="preserve"
       id="flowRoot7176"
       style="font-style:normal;font-variant:normal;font-weight:normal;font-stretch:normal;font-size:8px;line-height:1.25;font-family:ori1Uni;-inkscape-font-specification:ori1Uni;font-variant-ligatures:normal;font-variant-caps:normal;font-variant-numeric:normal;font-feature-settings:normal;text-align:justify;letter-spacing:0px;word-spacing:0px;writing-mode:lr-tb;text-orientation:upright;text-anchor:start;fill:#000000;fill-opacity:1;stroke:none"
       transform="matrix(0.26458333,0,0,0.26458333,-7.4835468,15.451897)"><flowRegion
         id="flowRegion7178"
         style="font-style:normal;font-variant:normal;font-weight:normal;font-stretch:normal;font-size:8px;font-family:ori1Uni;-inkscape-font-specification:ori1Uni;text-align:justify;text-anchor:start"><rect
           id="rect7180"
           width="178.89803"
           height="80.96373"
           x="39.244427"
           y="82.482185"
           style="font-style:normal;font-variant:normal;font-weight:normal;font-stretch:normal;font-size:8px;font-family:ori1Uni;-inkscape-font-specification:ori1Uni;text-align:justify;text-anchor:start" /></flowRegion><flowPara
         id="flowPara7182"
         style="font-weight:bold">Spend 4 Chi:</flowPara><flowPara
         id="flowPara1808" /><flowPara
         id="flowPara1810">Gain 4 Chi</flowPara></flowRoot>
  </g>
  <g
     inkscape:groupmode="layer"
     id="layer8"
     inkscape:label="card name"
     transform="translate(0,-22)"
     style="display:inline">
    <flowRoot
       xml:space="preserve"
       id="flowRoot7184"
       style="font-style:normal;font-variant:normal;font-weight:normal;font-stretch:normal;font-size:8px;line-height:1.25;font-family:ori1Uni;-inkscape-font-specification:ori1Uni;font-variant-ligatures:normal;font-variant-caps:normal;font-variant-numeric:normal;font-feature-settings:normal;text-align:center;letter-spacing:0px;word-spacing:0px;writing-mode:lr-tb;text-orientation:upright;text-anchor:middle;fill:#000000;fill-opacity:1;stroke:none"><flowRegion
         id="flowRegion7186"
         style="font-style:normal;font-variant:normal;font-weight:normal;font-stretch:normal;font-size:8px;line-height:1.25;font-family:ori1Uni;-inkscape-font-specification:ori1Uni"><rect
           id="rect7188"
           width="110.5"
           height="26.5"
           x="69.25"
           y="-64.789368"
           style="font-style:normal;font-variant:normal;font-weight:normal;font-stretch:normal;font-size:8px;line-height:1.25;font-family:ori1Uni;-inkscape-font-specification:ori1Uni" /></flowRegion><flowPara
         id="flowPara7190" /></flowRoot>
    <flowRoot
       xml:space="preserve"
       id="flowRoot7196"
       style="font-style:normal;font-variant:normal;font-weight:normal;font-stretch:normal;font-size:8px;line-height:1.25;font-family:ori1Uni;-inkscape-font-specification:ori1Uni;font-variant-ligatures:normal;font-variant-caps:normal;font-variant-numeric:normal;font-feature-settings:normal;text-align:center;letter-spacing:0px;word-spacing:0px;writing-mode:lr-tb;text-orientation:upright;text-anchor:middle;fill:#000000;fill-opacity:1;stroke:none"><flowRegion
         id="flowRegion7198"
         style="font-style:normal;font-variant:normal;font-weight:normal;font-stretch:normal;font-size:8px;line-height:1.25;font-family:ori1Uni;-inkscape-font-specification:ori1Uni"><rect
           id="rect7200"
           width="67"
           height="27.5"
           x="53.75"
           y="-94.539368"
           style="font-style:normal;font-variant:normal;font-weight:normal;font-stretch:normal;font-size:8px;line-height:1.25;font-family:ori1Uni;-inkscape-font-specification:ori1Uni" /></flowRegion><flowPara
         id="flowPara7202" /></flowRoot>
    <flowRoot
       xml:space="preserve"
       id="flowRoot7204"
       style="font-style:normal;font-variant:normal;font-weight:normal;font-stretch:normal;font-size:18.6667px;line-height:1.25;font-family:'Edo SZ';-inkscape-font-specification:'Edo SZ';font-variant-ligatures:normal;font-variant-caps:normal;font-variant-numeric:normal;font-feature-settings:normal;text-align:start;letter-spacing:0px;word-spacing:0px;writing-mode:lr-tb;text-orientation:upright;text-anchor:start;fill:#000000;fill-opacity:1;stroke:none"
       transform="matrix(0.26458333,0,0,0.26458333,-11.707812,48.392188)"><flowRegion
         id="flowRegion7206"
         style="font-style:normal;font-variant:normal;font-weight:normal;font-stretch:normal;font-size:18.6667px;font-family:'Edo SZ';-inkscape-font-specification:'Edo SZ';text-align:start;text-anchor:start"><rect
           id="rect7208"
           width="190"
           height="23.5"
           x="57"
           y="-90.539368"
           style="font-style:normal;font-variant:normal;font-weight:normal;font-stretch:normal;font-size:18.66666603px;font-family:'Edo SZ';-inkscape-font-specification:'Edo SZ';text-align:start;text-anchor:start" /></flowRegion><flowPara
         id="flowPara7210">Channel Chi</flowPara></flowRoot>
  </g>
</svg>
