<?xml version="1.0" encoding="UTF-8" standalone="no"?>
<svg
   xmlns:dc="http://purl.org/dc/elements/1.1/"
   xmlns:cc="http://creativecommons.org/ns#"
   xmlns:rdf="http://www.w3.org/1999/02/22-rdf-syntax-ns#"
   xmlns:svg="http://www.w3.org/2000/svg"
   xmlns="http://www.w3.org/2000/svg"
   xmlns:xlink="http://www.w3.org/1999/xlink"
   xmlns:sodipodi="http://sodipodi.sourceforge.net/DTD/sodipodi-0.dtd"
   xmlns:inkscape="http://www.inkscape.org/namespaces/inkscape"
   width="297mm"
   height="210mm"
   viewBox="0 0 297 210"
   version="1.1"
   id="svg8"
   inkscape:version="1.0.1 (1.0.1+r73)"
   sodipodi:docname="printable_A4_page1.svg">
  <defs
     id="defs2" />
  <sodipodi:namedview
     id="base"
     pagecolor="#ffffff"
     bordercolor="#666666"
     borderopacity="1.0"
     inkscape:pageopacity="0.0"
     inkscape:pageshadow="2"
     inkscape:zoom="0.70710677"
     inkscape:cx="352.90447"
     inkscape:cy="392.58261"
     inkscape:document-units="mm"
     inkscape:current-layer="layer1"
     showgrid="false"
     inkscape:window-width="1879"
     inkscape:window-height="1052"
     inkscape:window-x="41"
     inkscape:window-y="28"
     inkscape:window-maximized="1"
     inkscape:document-rotation="0" />
  <metadata
     id="metadata5">
    <rdf:RDF>
      <cc:Work
         rdf:about="">
        <dc:format>image/svg+xml</dc:format>
        <dc:type
           rdf:resource="http://purl.org/dc/dcmitype/StillImage" />
        <dc:title />
      </cc:Work>
    </rdf:RDF>
  </metadata>
  <g
     inkscape:label="Layer 1"
     inkscape:groupmode="layer"
     id="layer1"
     transform="translate(0,-87)">
    <g
       id="g330726"
       transform="translate(-4.0417156,3.7631111)">
      <image
         sodipodi:absref="/home/spethm/Games/TableTop/Pro Bending Arena/data/cards/Rabaroos/Earth/A Grain Of Sand.svg"
         xlink:href="Earth/A%20Grain%20Of%20Sand.svg"
         y="156.73691"
         x="132.04167"
         id="image56935"
         height="62.999939"
         width="41.000099"
         inkscape:svg-dpi="300"
         preserveAspectRatio="none" />
      <image
         sodipodi:absref="/home/spethm/Games/TableTop/Pro Bending Arena/data/cards/Rabaroos/Earth/Catalyst.svg"
         xlink:href="Earth/Catalyst.svg"
         y="93.736977"
         x="255.04196"
         id="image64819"
         height="62.999939"
         width="41.000099"
         inkscape:svg-dpi="300"
         preserveAspectRatio="none" />
      <image
         sodipodi:absref="/home/spethm/Games/TableTop/Pro Bending Arena/data/cards/Rabaroos/Earth/Fault Line.svg"
         xlink:href="Earth/Fault%20Line.svg"
         y="93.736977"
         x="132.04167"
         id="image79226"
         height="62.999939"
         width="41.000099"
         inkscape:svg-dpi="300"
         preserveAspectRatio="none" />
      <image
         sodipodi:absref="/home/spethm/Games/TableTop/Pro Bending Arena/data/cards/Rabaroos/Earth/Rattle The Ground.svg"
         xlink:href="Earth/Rattle%20The%20Ground.svg"
         y="93.736977"
         x="9.0413704"
         id="image95933"
         height="62.999939"
         width="41.000099"
         inkscape:svg-dpi="300"
         preserveAspectRatio="none" />
      <image
         sodipodi:absref="/home/spethm/Games/TableTop/Pro Bending Arena/data/cards/Rabaroos/Earth/Stone Wall.svg"
         xlink:href="Earth/Stone%20Wall.svg"
         y="156.73691"
         x="9.0413704"
         id="image104011"
         height="62.999939"
         width="41.000099"
         inkscape:svg-dpi="300"
         preserveAspectRatio="none" />
      <image
         sodipodi:absref="/home/spethm/Games/TableTop/Pro Bending Arena/data/cards/Rabaroos/Earth/Rattle The Ground.svg"
         xlink:href="Earth/Rattle%20The%20Ground.svg"
         y="93.736977"
         x="50.04147"
         id="image116346"
         height="62.999939"
         width="41.000099"
         inkscape:svg-dpi="300"
         preserveAspectRatio="none" />
      <image
         sodipodi:absref="/home/spethm/Games/TableTop/Pro Bending Arena/data/cards/Rabaroos/Earth/Rattle The Ground.svg"
         xlink:href="Earth/Rattle%20The%20Ground.svg"
         y="93.736977"
         x="91.041565"
         id="image123005"
         height="62.999939"
         width="41.000099"
         inkscape:svg-dpi="300"
         preserveAspectRatio="none" />
      <image
         sodipodi:absref="/home/spethm/Games/TableTop/Pro Bending Arena/data/cards/Rabaroos/Earth/Fault Line.svg"
         xlink:href="Earth/Fault%20Line.svg"
         y="93.736977"
         x="173.04178"
         id="image132176"
         height="62.999939"
         width="41.000099"
         inkscape:svg-dpi="300"
         preserveAspectRatio="none" />
      <image
         sodipodi:absref="/home/spethm/Games/TableTop/Pro Bending Arena/data/cards/Rabaroos/Earth/Fault Line.svg"
         xlink:href="Earth/Fault%20Line.svg"
         y="93.736977"
         x="214.04187"
         id="image151395"
         height="62.999939"
         width="41.000099"
         inkscape:svg-dpi="300"
         preserveAspectRatio="none" />
      <image
         sodipodi:absref="/home/spethm/Games/TableTop/Pro Bending Arena/data/cards/Rabaroos/Earth/Stone Wall.svg"
         xlink:href="Earth/Stone%20Wall.svg"
         y="156.73691"
         x="50.04147"
         id="image169521"
         height="62.999939"
         width="41.000099"
         inkscape:svg-dpi="300"
         preserveAspectRatio="none" />
      <image
         sodipodi:absref="/home/spethm/Games/TableTop/Pro Bending Arena/data/cards/Rabaroos/Earth/Stone Wall.svg"
         xlink:href="Earth/Stone%20Wall.svg"
         y="156.73692"
         x="91.041565"
         id="image183275"
         height="62.999939"
         width="41.000099"
         inkscape:svg-dpi="300"
         preserveAspectRatio="none" />
      <image
         sodipodi:absref="/home/spethm/Games/TableTop/Pro Bending Arena/data/cards/Rabaroos/Earth/A Grain Of Sand.svg"
         xlink:href="Earth/A%20Grain%20Of%20Sand.svg"
         y="156.73692"
         x="173.04178"
         id="image195589"
         height="62.999939"
         width="41.000099"
         inkscape:svg-dpi="300"
         preserveAspectRatio="none" />
      <image
         sodipodi:absref="/home/spethm/Games/TableTop/Pro Bending Arena/data/cards/Rabaroos/Fire/A Single Spark.svg"
         xlink:href="Fire/A%20Single%20Spark.svg"
         y="156.73692"
         x="214.04187"
         id="image202153"
         height="62.999939"
         width="41.000099"
         inkscape:svg-dpi="300"
         preserveAspectRatio="none" />
      <image
         sodipodi:absref="/home/spethm/Games/TableTop/Pro Bending Arena/data/cards/Rabaroos/Fire/Dragon Descending.svg"
         xlink:href="Fire/Dragon%20Descending.svg"
         y="219.73685"
         x="9.0413704"
         id="image235698"
         height="62.999939"
         width="41.000099"
         inkscape:svg-dpi="300"
         preserveAspectRatio="none" />
      <image
         sodipodi:absref="/home/spethm/Games/TableTop/Pro Bending Arena/data/cards/Rabaroos/Fire/Dual Jets.svg"
         xlink:href="Fire/Dual%20Jets.svg"
         y="219.73686"
         x="255.04196"
         id="image248704"
         height="62.999939"
         width="41.000099"
         inkscape:svg-dpi="300"
         preserveAspectRatio="none" />
      <image
         sodipodi:absref="/home/spethm/Games/TableTop/Pro Bending Arena/data/cards/Rabaroos/Fire/Pheonix Ascending.svg"
         xlink:href="Fire/Pheonix%20Ascending.svg"
         y="219.73685"
         x="132.04166"
         id="image261761"
         height="62.999939"
         width="41.000099"
         inkscape:svg-dpi="300"
         preserveAspectRatio="none" />
      <image
         sodipodi:absref="/home/spethm/Games/TableTop/Pro Bending Arena/data/cards/Rabaroos/Fire/A Single Spark.svg"
         xlink:href="Fire/A%20Single%20Spark.svg"
         y="156.73692"
         x="255.04196"
         id="image273473"
         height="62.999939"
         width="41.000099"
         inkscape:svg-dpi="300"
         preserveAspectRatio="none" />
      <image
         sodipodi:absref="/home/spethm/Games/TableTop/Pro Bending Arena/data/cards/Rabaroos/Fire/Dragon Descending.svg"
         xlink:href="Fire/Dragon%20Descending.svg"
         y="219.73685"
         x="50.04147"
         id="image281354"
         height="62.999939"
         width="41.000099"
         inkscape:svg-dpi="300"
         preserveAspectRatio="none" />
      <image
         sodipodi:absref="/home/spethm/Games/TableTop/Pro Bending Arena/data/cards/Rabaroos/Fire/Dragon Descending.svg"
         xlink:href="Fire/Dragon%20Descending.svg"
         y="219.73685"
         x="91.041565"
         id="image294343"
         height="62.999939"
         width="41.000099"
         inkscape:svg-dpi="300"
         preserveAspectRatio="none" />
      <image
         sodipodi:absref="/home/spethm/Games/TableTop/Pro Bending Arena/data/cards/Rabaroos/Fire/Pheonix Ascending.svg"
         xlink:href="Fire/Pheonix%20Ascending.svg"
         y="219.73685"
         x="173.04175"
         id="image307332"
         height="62.999939"
         width="41.000099"
         inkscape:svg-dpi="300"
         preserveAspectRatio="none" />
      <image
         sodipodi:absref="/home/spethm/Games/TableTop/Pro Bending Arena/data/cards/Rabaroos/Fire/Pheonix Ascending.svg"
         xlink:href="Fire/Pheonix%20Ascending.svg"
         y="219.73685"
         x="214.04184"
         id="image320321"
         height="62.999939"
         width="41.000099"
         inkscape:svg-dpi="300"
         preserveAspectRatio="none" />
    </g>
  </g>
</svg>
